M48
; DRILL file {KiCad 7.0.11-7.0.11~ubuntu22.04.1} date lun 13 ene 2025 10:54:56
; FORMAT={-:-/ absolute / inch / decimal}
; #@! TF.CreationDate,2025-01-13T10:54:56+01:00
; #@! TF.GenerationSoftware,Kicad,Pcbnew,7.0.11-7.0.11~ubuntu22.04.1
; #@! TF.FileFunction,NonPlated,1,8,NPTH
FMAT,2
INCH
; #@! TA.AperFunction,NonPlated,NPTH,ComponentDrill
T1C0.0157
; #@! TA.AperFunction,NonPlated,NPTH,ComponentDrill
T2C0.0197
; #@! TA.AperFunction,NonPlated,NPTH,ComponentDrill
T3C0.0866
; #@! TA.AperFunction,NonPlated,NPTH,ComponentDrill
T4C0.1260
%
G90
G05
T1
X-1.4449Y-1.8524
X-1.4449Y-1.8839
X-1.4449Y-1.9154
X-1.4449Y-1.9469
X-1.4449Y-1.9783
X-1.4449Y-2.0098
X-1.4449Y-2.0413
X-1.4449Y-2.0728
X-1.4449Y-2.1043
X-1.4449Y-2.7185
X-1.4449Y-2.75
X-1.4449Y-2.7815
X-1.4449Y-2.813
X-1.4449Y-2.8445
X-1.4449Y-2.876
X-1.4449Y-2.9075
X-1.4449Y-2.939
X-1.4449Y-2.9705
X-1.4449Y-3.5846
X-1.4449Y-3.6161
X-1.4449Y-3.6476
X-1.4449Y-3.6791
X-1.4449Y-3.7106
X-1.4449Y-3.7421
X-1.4449Y-3.7736
X-1.4449Y-3.8051
X-1.4449Y-3.8366
X-1.4449Y-4.4508
X-1.4449Y-4.4823
X-1.4449Y-4.5138
X-1.4449Y-4.5453
X-1.4449Y-4.5768
X-1.4449Y-4.6083
X-1.4449Y-4.6398
X-1.4449Y-4.6713
X-1.4449Y-4.7028
X-1.4449Y-5.3169
X-1.4449Y-5.3484
X-1.4449Y-5.3799
X-1.4449Y-5.4114
X-1.4449Y-5.4429
X-1.4449Y-5.4744
X-1.4449Y-5.5059
X-1.4449Y-5.5374
X-1.4449Y-5.5689
X-1.4449Y-6.1831
X-1.4449Y-6.2146
X-1.4449Y-6.2461
X-1.4449Y-6.2776
X-1.4449Y-6.3091
X-1.4449Y-6.3406
X-1.4449Y-6.372
X-1.4449Y-6.4035
X-1.4449Y-6.435
X-1.4449Y-7.0492
X-1.4449Y-7.0807
X-1.4449Y-7.1122
X-1.4449Y-7.1437
X-1.4449Y-7.1752
X-1.4449Y-7.2067
X-1.4449Y-7.2382
X-1.4449Y-7.2697
X-1.4449Y-7.3012
X-1.4449Y-7.9154
X-1.4449Y-7.9469
X-1.4449Y-7.9783
X-1.4449Y-8.0098
X-1.4449Y-8.0413
X-1.4449Y-8.0728
X-1.4449Y-8.1043
X-1.4449Y-8.1358
X-1.4449Y-8.1673
X-1.4449Y-8.7815
X-1.4449Y-8.813
X-1.4449Y-8.8445
X-1.4449Y-8.876
X-1.4449Y-8.9075
X-1.4449Y-8.939
X-1.4449Y-8.9705
X-1.4449Y-9.002
X-1.4449Y-9.0335
X-1.4449Y-9.6476
X-1.4449Y-9.6791
X-1.4449Y-9.7106
X-1.4449Y-9.7421
X-1.4449Y-9.7736
X-1.4449Y-9.8051
X-1.4449Y-9.8366
X-1.4449Y-9.8681
X-1.4449Y-9.8996
X1.7992Y-1.8524
X1.7992Y-1.8839
X1.7992Y-1.9154
X1.7992Y-1.9469
X1.7992Y-1.9783
X1.7992Y-2.0098
X1.7992Y-2.0413
X1.7992Y-2.0728
X1.7992Y-2.1043
X1.7992Y-2.7185
X1.7992Y-2.75
X1.7992Y-2.7815
X1.7992Y-2.813
X1.7992Y-2.8445
X1.7992Y-2.876
X1.7992Y-2.9075
X1.7992Y-2.939
X1.7992Y-2.9705
X1.7992Y-3.5846
X1.7992Y-3.6161
X1.7992Y-3.6476
X1.7992Y-3.6791
X1.7992Y-3.7106
X1.7992Y-3.7421
X1.7992Y-3.7736
X1.7992Y-3.8051
X1.7992Y-3.8366
X1.7992Y-4.4508
X1.7992Y-4.4823
X1.7992Y-4.5138
X1.7992Y-4.5453
X1.7992Y-4.5768
X1.7992Y-4.6083
X1.7992Y-4.6398
X1.7992Y-4.6713
X1.7992Y-4.7028
X1.7992Y-5.3169
X1.7992Y-5.3484
X1.7992Y-5.3799
X1.7992Y-5.4114
X1.7992Y-5.4429
X1.7992Y-5.4744
X1.7992Y-5.5059
X1.7992Y-5.5374
X1.7992Y-5.5689
X1.7992Y-6.1831
X1.7992Y-6.2146
X1.7992Y-6.2461
X1.7992Y-6.2776
X1.7992Y-6.3091
X1.7992Y-6.3406
X1.7992Y-6.372
X1.7992Y-6.4035
X1.7992Y-6.435
X1.7992Y-7.0492
X1.7992Y-7.0807
X1.7992Y-7.1122
X1.7992Y-7.1437
X1.7992Y-7.1752
X1.7992Y-7.2067
X1.7992Y-7.2382
X1.7992Y-7.2697
X1.7992Y-7.3012
X1.7992Y-7.9154
X1.7992Y-7.9469
X1.7992Y-7.9783
X1.7992Y-8.0098
X1.7992Y-8.0413
X1.7992Y-8.0728
X1.7992Y-8.1043
X1.7992Y-8.1358
X1.7992Y-8.1673
X1.7992Y-8.7815
X1.7992Y-8.813
X1.7992Y-8.8445
X1.7992Y-8.876
X1.7992Y-8.9075
X1.7992Y-8.939
X1.7992Y-8.9705
X1.7992Y-9.002
X1.7992Y-9.0335
X1.7992Y-9.6476
X1.7992Y-9.6791
X1.7992Y-9.7106
X1.7992Y-9.7421
X1.7992Y-9.7736
X1.7992Y-9.8051
X1.7992Y-9.8366
X1.7992Y-9.8681
X1.7992Y-9.8996
T2
X-2.0472Y-1.815
X-2.0472Y-10.4764
X-1.998Y-1.815
X-1.998Y-10.4764
X-1.9488Y-1.815
X-1.9488Y-10.4764
X-1.8996Y-1.815
X-1.8996Y-10.4764
X-1.8504Y-1.815
X-1.8504Y-10.4764
X-1.8012Y-1.815
X-1.8012Y-10.4764
X-1.752Y-1.815
X-1.752Y-10.4764
X-1.7028Y-1.815
X-1.7028Y-10.4764
X-1.6535Y-1.815
X-1.6535Y-10.4764
X-1.6043Y-1.815
X-1.6043Y-10.4764
X-1.5551Y-1.815
X-1.5551Y-10.4764
X1.9094Y-1.815
X1.9094Y-10.4764
X1.9587Y-1.815
X1.9587Y-10.4764
X2.0079Y-1.815
X2.0079Y-10.4764
X2.0571Y-1.815
X2.0571Y-10.4764
X2.1063Y-1.815
X2.1063Y-10.4764
X2.1555Y-1.815
X2.1555Y-10.4764
X2.2047Y-1.815
X2.2047Y-10.4764
X2.2539Y-1.815
X2.2539Y-10.4764
X2.3031Y-1.815
X2.3031Y-10.4764
X2.3524Y-1.815
X2.3524Y-10.4764
X2.4016Y-1.815
X2.4016Y-10.4764
T3
X-1.9488Y-1.9858
X-1.9488Y-2.4858
X-1.9488Y-2.852
X-1.9488Y-3.352
X-1.9488Y-3.7181
X-1.9488Y-4.2181
X-1.9488Y-4.5843
X-1.9488Y-5.0843
X-1.9488Y-5.4504
X-1.9488Y-5.9504
X-1.9488Y-6.3165
X-1.9488Y-6.8165
X-1.9488Y-7.1827
X-1.9488Y-7.6827
X-1.9488Y-8.0488
X-1.9488Y-8.5488
X-1.9488Y-8.915
X-1.9488Y-9.415
X-1.9488Y-9.7811
X-1.9488Y-10.2811
X2.2638Y-1.9858
X2.2638Y-2.4858
X2.2638Y-2.852
X2.2638Y-3.352
X2.2638Y-3.7181
X2.2638Y-4.2181
X2.2638Y-4.5843
X2.2638Y-5.0843
X2.2638Y-5.4504
X2.2638Y-7.6827
X2.2638Y-8.0488
X2.2638Y-8.5488
X2.2638Y-8.915
X2.2638Y-9.415
X2.2638Y-9.7811
X2.2638Y-10.2811
T4
X-1.9094Y-1.5984
X-1.9094Y-10.6929
X2.2638Y-1.5984
X2.2638Y-10.6929
M30
