%TF.GenerationSoftware,KiCad,Pcbnew,7.0.11-7.0.11~ubuntu22.04.1*%
%TF.CreationDate,2025-01-13T11:00:58+01:00*%
%TF.ProjectId,panel002__2_openipmc-hw_subpanel,70616e65-6c30-4303-925f-5f325f6f7065,rev?*%
%TF.SameCoordinates,PX96ae380PY41b54a0*%
%TF.FileFunction,Other,ECO1*%
%FSLAX45Y45*%
G04 Gerber Fmt 4.5, Leading zero omitted, Abs format (unit mm)*
G04 Created by KiCad (PCBNEW 7.0.11-7.0.11~ubuntu22.04.1) date 2025-01-13 11:00:58*
%MOMM*%
%LPD*%
G01*
G04 APERTURE LIST*
%ADD10C,0.100000*%
%ADD11C,0.150000*%
%ADD12C,0.300000*%
%ADD13C,0.400000*%
%ADD14C,0.010000*%
G04 APERTURE END LIST*
D10*
D11*
X1900220Y-30708900D02*
X12700220Y-30708900D01*
X12700220Y-33908900D01*
X1900220Y-33908900D01*
X1900220Y-30708900D01*
D10*
D11*
X-14800000Y5890000D02*
X12900220Y5890000D01*
X12900220Y-34108900D01*
X-14800000Y-34108900D01*
X-14800000Y5890000D01*
D10*
D11*
X-14600000Y5690000D02*
X12700220Y5690000D01*
X12700220Y-33908900D01*
X-14600000Y-33908900D01*
X-14600000Y5690000D01*
D10*
D11*
X-9800000Y5690000D02*
X-9800000Y5890000D01*
D10*
D11*
X-4800000Y5690000D02*
X-4800000Y5890000D01*
D10*
D11*
X200000Y5690000D02*
X200000Y5890000D01*
D10*
D11*
X5200000Y5690000D02*
X5200000Y5890000D01*
D10*
D11*
X10200000Y5690000D02*
X10200000Y5890000D01*
D10*
D11*
X-12191084Y5730640D02*
X-12265370Y5730640D01*
X-12228227Y5730640D02*
X-12228227Y5860640D01*
X-12228227Y5860640D02*
X-12240608Y5842068D01*
X-12240608Y5842068D02*
X-12252989Y5829687D01*
X-12252989Y5829687D02*
X-12265370Y5823497D01*
D10*
D11*
X-7265370Y5848259D02*
X-7259179Y5854449D01*
X-7259179Y5854449D02*
X-7246798Y5860640D01*
X-7246798Y5860640D02*
X-7215846Y5860640D01*
X-7215846Y5860640D02*
X-7203465Y5854449D01*
X-7203465Y5854449D02*
X-7197274Y5848259D01*
X-7197274Y5848259D02*
X-7191084Y5835878D01*
X-7191084Y5835878D02*
X-7191084Y5823497D01*
X-7191084Y5823497D02*
X-7197274Y5804925D01*
X-7197274Y5804925D02*
X-7271560Y5730640D01*
X-7271560Y5730640D02*
X-7191084Y5730640D01*
D10*
D11*
X-2271560Y5860640D02*
X-2191084Y5860640D01*
X-2191084Y5860640D02*
X-2234417Y5811116D01*
X-2234417Y5811116D02*
X-2215846Y5811116D01*
X-2215846Y5811116D02*
X-2203465Y5804925D01*
X-2203465Y5804925D02*
X-2197275Y5798735D01*
X-2197275Y5798735D02*
X-2191084Y5786354D01*
X-2191084Y5786354D02*
X-2191084Y5755401D01*
X-2191084Y5755401D02*
X-2197275Y5743020D01*
X-2197275Y5743020D02*
X-2203465Y5736830D01*
X-2203465Y5736830D02*
X-2215846Y5730640D01*
X-2215846Y5730640D02*
X-2252989Y5730640D01*
X-2252989Y5730640D02*
X-2265370Y5736830D01*
X-2265370Y5736830D02*
X-2271560Y5743020D01*
D10*
D11*
X2796535Y5817306D02*
X2796535Y5730640D01*
X2765583Y5866830D02*
X2734630Y5773973D01*
X2734630Y5773973D02*
X2815106Y5773973D01*
D10*
D11*
X7802725Y5860640D02*
X7740821Y5860640D01*
X7740821Y5860640D02*
X7734630Y5798735D01*
X7734630Y5798735D02*
X7740821Y5804925D01*
X7740821Y5804925D02*
X7753202Y5811116D01*
X7753202Y5811116D02*
X7784154Y5811116D01*
X7784154Y5811116D02*
X7796535Y5804925D01*
X7796535Y5804925D02*
X7802725Y5798735D01*
X7802725Y5798735D02*
X7808916Y5786354D01*
X7808916Y5786354D02*
X7808916Y5755401D01*
X7808916Y5755401D02*
X7802725Y5743020D01*
X7802725Y5743020D02*
X7796535Y5736830D01*
X7796535Y5736830D02*
X7784154Y5730640D01*
X7784154Y5730640D02*
X7753202Y5730640D01*
X7753202Y5730640D02*
X7740821Y5736830D01*
X7740821Y5736830D02*
X7734630Y5743020D01*
D10*
D11*
X12796535Y5860640D02*
X12771773Y5860640D01*
X12771773Y5860640D02*
X12759392Y5854449D01*
X12759392Y5854449D02*
X12753202Y5848259D01*
X12753202Y5848259D02*
X12740821Y5829687D01*
X12740821Y5829687D02*
X12734630Y5804925D01*
X12734630Y5804925D02*
X12734630Y5755401D01*
X12734630Y5755401D02*
X12740821Y5743020D01*
X12740821Y5743020D02*
X12747011Y5736830D01*
X12747011Y5736830D02*
X12759392Y5730640D01*
X12759392Y5730640D02*
X12784154Y5730640D01*
X12784154Y5730640D02*
X12796535Y5736830D01*
X12796535Y5736830D02*
X12802725Y5743020D01*
X12802725Y5743020D02*
X12808916Y5755401D01*
X12808916Y5755401D02*
X12808916Y5786354D01*
X12808916Y5786354D02*
X12802725Y5798735D01*
X12802725Y5798735D02*
X12796535Y5804925D01*
X12796535Y5804925D02*
X12784154Y5811116D01*
X12784154Y5811116D02*
X12759392Y5811116D01*
X12759392Y5811116D02*
X12747011Y5804925D01*
X12747011Y5804925D02*
X12740821Y5798735D01*
X12740821Y5798735D02*
X12734630Y5786354D01*
D10*
D11*
X-9800000Y-33908900D02*
X-9800000Y-34108900D01*
D10*
D11*
X-4800000Y-33908900D02*
X-4800000Y-34108900D01*
D10*
D11*
X200000Y-33908900D02*
X200000Y-34108900D01*
D10*
D11*
X5200000Y-33908900D02*
X5200000Y-34108900D01*
D10*
D11*
X10200000Y-33908900D02*
X10200000Y-34108900D01*
D10*
D11*
X-12191084Y-34068260D02*
X-12265370Y-34068260D01*
X-12228227Y-34068260D02*
X-12228227Y-33938260D01*
X-12228227Y-33938260D02*
X-12240608Y-33956832D01*
X-12240608Y-33956832D02*
X-12252989Y-33969213D01*
X-12252989Y-33969213D02*
X-12265370Y-33975403D01*
D10*
D11*
X-7265370Y-33950641D02*
X-7259179Y-33944451D01*
X-7259179Y-33944451D02*
X-7246798Y-33938260D01*
X-7246798Y-33938260D02*
X-7215846Y-33938260D01*
X-7215846Y-33938260D02*
X-7203465Y-33944451D01*
X-7203465Y-33944451D02*
X-7197274Y-33950641D01*
X-7197274Y-33950641D02*
X-7191084Y-33963022D01*
X-7191084Y-33963022D02*
X-7191084Y-33975403D01*
X-7191084Y-33975403D02*
X-7197274Y-33993975D01*
X-7197274Y-33993975D02*
X-7271560Y-34068260D01*
X-7271560Y-34068260D02*
X-7191084Y-34068260D01*
D10*
D11*
X-2271560Y-33938260D02*
X-2191084Y-33938260D01*
X-2191084Y-33938260D02*
X-2234417Y-33987784D01*
X-2234417Y-33987784D02*
X-2215846Y-33987784D01*
X-2215846Y-33987784D02*
X-2203465Y-33993975D01*
X-2203465Y-33993975D02*
X-2197275Y-34000165D01*
X-2197275Y-34000165D02*
X-2191084Y-34012546D01*
X-2191084Y-34012546D02*
X-2191084Y-34043499D01*
X-2191084Y-34043499D02*
X-2197275Y-34055880D01*
X-2197275Y-34055880D02*
X-2203465Y-34062070D01*
X-2203465Y-34062070D02*
X-2215846Y-34068260D01*
X-2215846Y-34068260D02*
X-2252989Y-34068260D01*
X-2252989Y-34068260D02*
X-2265370Y-34062070D01*
X-2265370Y-34062070D02*
X-2271560Y-34055880D01*
D10*
D11*
X2796535Y-33981594D02*
X2796535Y-34068260D01*
X2765583Y-33932070D02*
X2734630Y-34024927D01*
X2734630Y-34024927D02*
X2815106Y-34024927D01*
D10*
D11*
X7802725Y-33938260D02*
X7740821Y-33938260D01*
X7740821Y-33938260D02*
X7734630Y-34000165D01*
X7734630Y-34000165D02*
X7740821Y-33993975D01*
X7740821Y-33993975D02*
X7753202Y-33987784D01*
X7753202Y-33987784D02*
X7784154Y-33987784D01*
X7784154Y-33987784D02*
X7796535Y-33993975D01*
X7796535Y-33993975D02*
X7802725Y-34000165D01*
X7802725Y-34000165D02*
X7808916Y-34012546D01*
X7808916Y-34012546D02*
X7808916Y-34043499D01*
X7808916Y-34043499D02*
X7802725Y-34055880D01*
X7802725Y-34055880D02*
X7796535Y-34062070D01*
X7796535Y-34062070D02*
X7784154Y-34068260D01*
X7784154Y-34068260D02*
X7753202Y-34068260D01*
X7753202Y-34068260D02*
X7740821Y-34062070D01*
X7740821Y-34062070D02*
X7734630Y-34055880D01*
D10*
D11*
X12796535Y-33938260D02*
X12771773Y-33938260D01*
X12771773Y-33938260D02*
X12759392Y-33944451D01*
X12759392Y-33944451D02*
X12753202Y-33950641D01*
X12753202Y-33950641D02*
X12740821Y-33969213D01*
X12740821Y-33969213D02*
X12734630Y-33993975D01*
X12734630Y-33993975D02*
X12734630Y-34043499D01*
X12734630Y-34043499D02*
X12740821Y-34055880D01*
X12740821Y-34055880D02*
X12747011Y-34062070D01*
X12747011Y-34062070D02*
X12759392Y-34068260D01*
X12759392Y-34068260D02*
X12784154Y-34068260D01*
X12784154Y-34068260D02*
X12796535Y-34062070D01*
X12796535Y-34062070D02*
X12802725Y-34055880D01*
X12802725Y-34055880D02*
X12808916Y-34043499D01*
X12808916Y-34043499D02*
X12808916Y-34012546D01*
X12808916Y-34012546D02*
X12802725Y-34000165D01*
X12802725Y-34000165D02*
X12796535Y-33993975D01*
X12796535Y-33993975D02*
X12784154Y-33987784D01*
X12784154Y-33987784D02*
X12759392Y-33987784D01*
X12759392Y-33987784D02*
X12747011Y-33993975D01*
X12747011Y-33993975D02*
X12740821Y-34000165D01*
X12740821Y-34000165D02*
X12734630Y-34012546D01*
D10*
D11*
X-14800000Y890000D02*
X-14600000Y890000D01*
D10*
D11*
X-14800000Y-4110000D02*
X-14600000Y-4110000D01*
D10*
D11*
X-14800000Y-9110000D02*
X-14600000Y-9110000D01*
D10*
D11*
X-14800000Y-14110000D02*
X-14600000Y-14110000D01*
D10*
D11*
X-14800000Y-19110000D02*
X-14600000Y-19110000D01*
D10*
D11*
X-14800000Y-24110000D02*
X-14600000Y-24110000D01*
D10*
D11*
X-14800000Y-29110000D02*
X-14600000Y-29110000D01*
D10*
D11*
X-14730952Y3367782D02*
X-14669048Y3367782D01*
X-14743333Y3330640D02*
X-14700000Y3460640D01*
X-14700000Y3460640D02*
X-14656667Y3330640D01*
D10*
D11*
X-14690714Y-1601265D02*
X-14672143Y-1607456D01*
X-14672143Y-1607456D02*
X-14665952Y-1613646D01*
X-14665952Y-1613646D02*
X-14659762Y-1626027D01*
X-14659762Y-1626027D02*
X-14659762Y-1644598D01*
X-14659762Y-1644598D02*
X-14665952Y-1656979D01*
X-14665952Y-1656979D02*
X-14672143Y-1663170D01*
X-14672143Y-1663170D02*
X-14684524Y-1669360D01*
X-14684524Y-1669360D02*
X-14734048Y-1669360D01*
X-14734048Y-1669360D02*
X-14734048Y-1539360D01*
X-14734048Y-1539360D02*
X-14690714Y-1539360D01*
X-14690714Y-1539360D02*
X-14678333Y-1545551D01*
X-14678333Y-1545551D02*
X-14672143Y-1551741D01*
X-14672143Y-1551741D02*
X-14665952Y-1564122D01*
X-14665952Y-1564122D02*
X-14665952Y-1576503D01*
X-14665952Y-1576503D02*
X-14672143Y-1588884D01*
X-14672143Y-1588884D02*
X-14678333Y-1595075D01*
X-14678333Y-1595075D02*
X-14690714Y-1601265D01*
X-14690714Y-1601265D02*
X-14734048Y-1601265D01*
D10*
D11*
X-14659762Y-6656979D02*
X-14665952Y-6663170D01*
X-14665952Y-6663170D02*
X-14684524Y-6669360D01*
X-14684524Y-6669360D02*
X-14696905Y-6669360D01*
X-14696905Y-6669360D02*
X-14715476Y-6663170D01*
X-14715476Y-6663170D02*
X-14727857Y-6650789D01*
X-14727857Y-6650789D02*
X-14734048Y-6638408D01*
X-14734048Y-6638408D02*
X-14740238Y-6613646D01*
X-14740238Y-6613646D02*
X-14740238Y-6595075D01*
X-14740238Y-6595075D02*
X-14734048Y-6570313D01*
X-14734048Y-6570313D02*
X-14727857Y-6557932D01*
X-14727857Y-6557932D02*
X-14715476Y-6545551D01*
X-14715476Y-6545551D02*
X-14696905Y-6539360D01*
X-14696905Y-6539360D02*
X-14684524Y-6539360D01*
X-14684524Y-6539360D02*
X-14665952Y-6545551D01*
X-14665952Y-6545551D02*
X-14659762Y-6551741D01*
D10*
D11*
X-14734048Y-11669360D02*
X-14734048Y-11539360D01*
X-14734048Y-11539360D02*
X-14703095Y-11539360D01*
X-14703095Y-11539360D02*
X-14684524Y-11545551D01*
X-14684524Y-11545551D02*
X-14672143Y-11557932D01*
X-14672143Y-11557932D02*
X-14665952Y-11570313D01*
X-14665952Y-11570313D02*
X-14659762Y-11595075D01*
X-14659762Y-11595075D02*
X-14659762Y-11613646D01*
X-14659762Y-11613646D02*
X-14665952Y-11638408D01*
X-14665952Y-11638408D02*
X-14672143Y-11650789D01*
X-14672143Y-11650789D02*
X-14684524Y-11663170D01*
X-14684524Y-11663170D02*
X-14703095Y-11669360D01*
X-14703095Y-11669360D02*
X-14734048Y-11669360D01*
D10*
D11*
X-14727857Y-16601265D02*
X-14684524Y-16601265D01*
X-14665952Y-16669360D02*
X-14727857Y-16669360D01*
X-14727857Y-16669360D02*
X-14727857Y-16539360D01*
X-14727857Y-16539360D02*
X-14665952Y-16539360D01*
D10*
D11*
X-14681429Y-21601265D02*
X-14724762Y-21601265D01*
X-14724762Y-21669360D02*
X-14724762Y-21539360D01*
X-14724762Y-21539360D02*
X-14662857Y-21539360D01*
D10*
D11*
X-14665952Y-26545551D02*
X-14678333Y-26539360D01*
X-14678333Y-26539360D02*
X-14696905Y-26539360D01*
X-14696905Y-26539360D02*
X-14715476Y-26545551D01*
X-14715476Y-26545551D02*
X-14727857Y-26557932D01*
X-14727857Y-26557932D02*
X-14734048Y-26570313D01*
X-14734048Y-26570313D02*
X-14740238Y-26595075D01*
X-14740238Y-26595075D02*
X-14740238Y-26613646D01*
X-14740238Y-26613646D02*
X-14734048Y-26638408D01*
X-14734048Y-26638408D02*
X-14727857Y-26650789D01*
X-14727857Y-26650789D02*
X-14715476Y-26663170D01*
X-14715476Y-26663170D02*
X-14696905Y-26669360D01*
X-14696905Y-26669360D02*
X-14684524Y-26669360D01*
X-14684524Y-26669360D02*
X-14665952Y-26663170D01*
X-14665952Y-26663170D02*
X-14659762Y-26656979D01*
X-14659762Y-26656979D02*
X-14659762Y-26613646D01*
X-14659762Y-26613646D02*
X-14684524Y-26613646D01*
D10*
D11*
X-14737143Y-31669360D02*
X-14737143Y-31539360D01*
X-14737143Y-31601265D02*
X-14662857Y-31601265D01*
X-14662857Y-31669360D02*
X-14662857Y-31539360D01*
D10*
D11*
X12900220Y890000D02*
X12700220Y890000D01*
D10*
D11*
X12900220Y-4110000D02*
X12700220Y-4110000D01*
D10*
D11*
X12900220Y-9110000D02*
X12700220Y-9110000D01*
D10*
D11*
X12900220Y-14110000D02*
X12700220Y-14110000D01*
D10*
D11*
X12900220Y-19110000D02*
X12700220Y-19110000D01*
D10*
D11*
X12900220Y-24110000D02*
X12700220Y-24110000D01*
D10*
D11*
X12900220Y-29110000D02*
X12700220Y-29110000D01*
D10*
D11*
X12769268Y3367782D02*
X12831172Y3367782D01*
X12756887Y3330640D02*
X12800220Y3460640D01*
X12800220Y3460640D02*
X12843553Y3330640D01*
D10*
D11*
X12809506Y-1601265D02*
X12828077Y-1607456D01*
X12828077Y-1607456D02*
X12834268Y-1613646D01*
X12834268Y-1613646D02*
X12840458Y-1626027D01*
X12840458Y-1626027D02*
X12840458Y-1644598D01*
X12840458Y-1644598D02*
X12834268Y-1656979D01*
X12834268Y-1656979D02*
X12828077Y-1663170D01*
X12828077Y-1663170D02*
X12815696Y-1669360D01*
X12815696Y-1669360D02*
X12766172Y-1669360D01*
X12766172Y-1669360D02*
X12766172Y-1539360D01*
X12766172Y-1539360D02*
X12809506Y-1539360D01*
X12809506Y-1539360D02*
X12821887Y-1545551D01*
X12821887Y-1545551D02*
X12828077Y-1551741D01*
X12828077Y-1551741D02*
X12834268Y-1564122D01*
X12834268Y-1564122D02*
X12834268Y-1576503D01*
X12834268Y-1576503D02*
X12828077Y-1588884D01*
X12828077Y-1588884D02*
X12821887Y-1595075D01*
X12821887Y-1595075D02*
X12809506Y-1601265D01*
X12809506Y-1601265D02*
X12766172Y-1601265D01*
D10*
D11*
X12840458Y-6656979D02*
X12834268Y-6663170D01*
X12834268Y-6663170D02*
X12815696Y-6669360D01*
X12815696Y-6669360D02*
X12803315Y-6669360D01*
X12803315Y-6669360D02*
X12784744Y-6663170D01*
X12784744Y-6663170D02*
X12772363Y-6650789D01*
X12772363Y-6650789D02*
X12766172Y-6638408D01*
X12766172Y-6638408D02*
X12759982Y-6613646D01*
X12759982Y-6613646D02*
X12759982Y-6595075D01*
X12759982Y-6595075D02*
X12766172Y-6570313D01*
X12766172Y-6570313D02*
X12772363Y-6557932D01*
X12772363Y-6557932D02*
X12784744Y-6545551D01*
X12784744Y-6545551D02*
X12803315Y-6539360D01*
X12803315Y-6539360D02*
X12815696Y-6539360D01*
X12815696Y-6539360D02*
X12834268Y-6545551D01*
X12834268Y-6545551D02*
X12840458Y-6551741D01*
D10*
D11*
X12766172Y-11669360D02*
X12766172Y-11539360D01*
X12766172Y-11539360D02*
X12797125Y-11539360D01*
X12797125Y-11539360D02*
X12815696Y-11545551D01*
X12815696Y-11545551D02*
X12828077Y-11557932D01*
X12828077Y-11557932D02*
X12834268Y-11570313D01*
X12834268Y-11570313D02*
X12840458Y-11595075D01*
X12840458Y-11595075D02*
X12840458Y-11613646D01*
X12840458Y-11613646D02*
X12834268Y-11638408D01*
X12834268Y-11638408D02*
X12828077Y-11650789D01*
X12828077Y-11650789D02*
X12815696Y-11663170D01*
X12815696Y-11663170D02*
X12797125Y-11669360D01*
X12797125Y-11669360D02*
X12766172Y-11669360D01*
D10*
D11*
X12772363Y-16601265D02*
X12815696Y-16601265D01*
X12834268Y-16669360D02*
X12772363Y-16669360D01*
X12772363Y-16669360D02*
X12772363Y-16539360D01*
X12772363Y-16539360D02*
X12834268Y-16539360D01*
D10*
D11*
X12818791Y-21601265D02*
X12775458Y-21601265D01*
X12775458Y-21669360D02*
X12775458Y-21539360D01*
X12775458Y-21539360D02*
X12837363Y-21539360D01*
D10*
D11*
X12834268Y-26545551D02*
X12821887Y-26539360D01*
X12821887Y-26539360D02*
X12803315Y-26539360D01*
X12803315Y-26539360D02*
X12784744Y-26545551D01*
X12784744Y-26545551D02*
X12772363Y-26557932D01*
X12772363Y-26557932D02*
X12766172Y-26570313D01*
X12766172Y-26570313D02*
X12759982Y-26595075D01*
X12759982Y-26595075D02*
X12759982Y-26613646D01*
X12759982Y-26613646D02*
X12766172Y-26638408D01*
X12766172Y-26638408D02*
X12772363Y-26650789D01*
X12772363Y-26650789D02*
X12784744Y-26663170D01*
X12784744Y-26663170D02*
X12803315Y-26669360D01*
X12803315Y-26669360D02*
X12815696Y-26669360D01*
X12815696Y-26669360D02*
X12834268Y-26663170D01*
X12834268Y-26663170D02*
X12840458Y-26656979D01*
X12840458Y-26656979D02*
X12840458Y-26613646D01*
X12840458Y-26613646D02*
X12815696Y-26613646D01*
D10*
D11*
X12763077Y-31669360D02*
X12763077Y-31539360D01*
X12763077Y-31601265D02*
X12837363Y-31601265D01*
X12837363Y-31669360D02*
X12837363Y-31539360D01*
D10*
D11*
X4245803Y-33487513D02*
X4245803Y-33337513D01*
X4245803Y-33337513D02*
X4281517Y-33337513D01*
X4281517Y-33337513D02*
X4302946Y-33344656D01*
X4302946Y-33344656D02*
X4317231Y-33358941D01*
X4317231Y-33358941D02*
X4324374Y-33373227D01*
X4324374Y-33373227D02*
X4331517Y-33401798D01*
X4331517Y-33401798D02*
X4331517Y-33423227D01*
X4331517Y-33423227D02*
X4324374Y-33451798D01*
X4324374Y-33451798D02*
X4317231Y-33466084D01*
X4317231Y-33466084D02*
X4302946Y-33480370D01*
X4302946Y-33480370D02*
X4281517Y-33487513D01*
X4281517Y-33487513D02*
X4245803Y-33487513D01*
X4460088Y-33487513D02*
X4460088Y-33408941D01*
X4460088Y-33408941D02*
X4452946Y-33394656D01*
X4452946Y-33394656D02*
X4438660Y-33387513D01*
X4438660Y-33387513D02*
X4410088Y-33387513D01*
X4410088Y-33387513D02*
X4395803Y-33394656D01*
X4460088Y-33480370D02*
X4445803Y-33487513D01*
X4445803Y-33487513D02*
X4410088Y-33487513D01*
X4410088Y-33487513D02*
X4395803Y-33480370D01*
X4395803Y-33480370D02*
X4388660Y-33466084D01*
X4388660Y-33466084D02*
X4388660Y-33451798D01*
X4388660Y-33451798D02*
X4395803Y-33437513D01*
X4395803Y-33437513D02*
X4410088Y-33430370D01*
X4410088Y-33430370D02*
X4445803Y-33430370D01*
X4445803Y-33430370D02*
X4460088Y-33423227D01*
X4510088Y-33387513D02*
X4567231Y-33387513D01*
X4531517Y-33337513D02*
X4531517Y-33466084D01*
X4531517Y-33466084D02*
X4538660Y-33480370D01*
X4538660Y-33480370D02*
X4552946Y-33487513D01*
X4552946Y-33487513D02*
X4567231Y-33487513D01*
X4674374Y-33480370D02*
X4660088Y-33487513D01*
X4660088Y-33487513D02*
X4631517Y-33487513D01*
X4631517Y-33487513D02*
X4617231Y-33480370D01*
X4617231Y-33480370D02*
X4610088Y-33466084D01*
X4610088Y-33466084D02*
X4610088Y-33408941D01*
X4610088Y-33408941D02*
X4617231Y-33394656D01*
X4617231Y-33394656D02*
X4631517Y-33387513D01*
X4631517Y-33387513D02*
X4660088Y-33387513D01*
X4660088Y-33387513D02*
X4674374Y-33394656D01*
X4674374Y-33394656D02*
X4681517Y-33408941D01*
X4681517Y-33408941D02*
X4681517Y-33423227D01*
X4681517Y-33423227D02*
X4610088Y-33437513D01*
X4745803Y-33473227D02*
X4752946Y-33480370D01*
X4752946Y-33480370D02*
X4745803Y-33487513D01*
X4745803Y-33487513D02*
X4738660Y-33480370D01*
X4738660Y-33480370D02*
X4745803Y-33473227D01*
X4745803Y-33473227D02*
X4745803Y-33487513D01*
X4745803Y-33394656D02*
X4752946Y-33401798D01*
X4752946Y-33401798D02*
X4745803Y-33408941D01*
X4745803Y-33408941D02*
X4738660Y-33401798D01*
X4738660Y-33401798D02*
X4745803Y-33394656D01*
X4745803Y-33394656D02*
X4745803Y-33408941D01*
D10*
D11*
X1900220Y-33558900D02*
X12700220Y-33558900D01*
D10*
D11*
X2045803Y-33767513D02*
X2045803Y-33617513D01*
X2131517Y-33767513D02*
X2067231Y-33681799D01*
X2131517Y-33617513D02*
X2045803Y-33703227D01*
X2195803Y-33767513D02*
X2195803Y-33667513D01*
X2195803Y-33617513D02*
X2188660Y-33624656D01*
X2188660Y-33624656D02*
X2195803Y-33631799D01*
X2195803Y-33631799D02*
X2202946Y-33624656D01*
X2202946Y-33624656D02*
X2195803Y-33617513D01*
X2195803Y-33617513D02*
X2195803Y-33631799D01*
X2352946Y-33753227D02*
X2345803Y-33760370D01*
X2345803Y-33760370D02*
X2324374Y-33767513D01*
X2324374Y-33767513D02*
X2310088Y-33767513D01*
X2310088Y-33767513D02*
X2288660Y-33760370D01*
X2288660Y-33760370D02*
X2274374Y-33746084D01*
X2274374Y-33746084D02*
X2267231Y-33731799D01*
X2267231Y-33731799D02*
X2260088Y-33703227D01*
X2260088Y-33703227D02*
X2260088Y-33681799D01*
X2260088Y-33681799D02*
X2267231Y-33653227D01*
X2267231Y-33653227D02*
X2274374Y-33638941D01*
X2274374Y-33638941D02*
X2288660Y-33624656D01*
X2288660Y-33624656D02*
X2310088Y-33617513D01*
X2310088Y-33617513D02*
X2324374Y-33617513D01*
X2324374Y-33617513D02*
X2345803Y-33624656D01*
X2345803Y-33624656D02*
X2352946Y-33631799D01*
X2481517Y-33767513D02*
X2481517Y-33688941D01*
X2481517Y-33688941D02*
X2474374Y-33674656D01*
X2474374Y-33674656D02*
X2460088Y-33667513D01*
X2460088Y-33667513D02*
X2431517Y-33667513D01*
X2431517Y-33667513D02*
X2417231Y-33674656D01*
X2481517Y-33760370D02*
X2467231Y-33767513D01*
X2467231Y-33767513D02*
X2431517Y-33767513D01*
X2431517Y-33767513D02*
X2417231Y-33760370D01*
X2417231Y-33760370D02*
X2410088Y-33746084D01*
X2410088Y-33746084D02*
X2410088Y-33731799D01*
X2410088Y-33731799D02*
X2417231Y-33717513D01*
X2417231Y-33717513D02*
X2431517Y-33710370D01*
X2431517Y-33710370D02*
X2467231Y-33710370D01*
X2467231Y-33710370D02*
X2481517Y-33703227D01*
X2617231Y-33767513D02*
X2617231Y-33617513D01*
X2617231Y-33760370D02*
X2602946Y-33767513D01*
X2602946Y-33767513D02*
X2574374Y-33767513D01*
X2574374Y-33767513D02*
X2560088Y-33760370D01*
X2560088Y-33760370D02*
X2552946Y-33753227D01*
X2552946Y-33753227D02*
X2545803Y-33738941D01*
X2545803Y-33738941D02*
X2545803Y-33696084D01*
X2545803Y-33696084D02*
X2552946Y-33681799D01*
X2552946Y-33681799D02*
X2560088Y-33674656D01*
X2560088Y-33674656D02*
X2574374Y-33667513D01*
X2574374Y-33667513D02*
X2602946Y-33667513D01*
X2602946Y-33667513D02*
X2617231Y-33674656D01*
X2802945Y-33688941D02*
X2852945Y-33688941D01*
X2874374Y-33767513D02*
X2802945Y-33767513D01*
X2802945Y-33767513D02*
X2802945Y-33617513D01*
X2802945Y-33617513D02*
X2874374Y-33617513D01*
X2938660Y-33753227D02*
X2945803Y-33760370D01*
X2945803Y-33760370D02*
X2938660Y-33767513D01*
X2938660Y-33767513D02*
X2931517Y-33760370D01*
X2931517Y-33760370D02*
X2938660Y-33753227D01*
X2938660Y-33753227D02*
X2938660Y-33767513D01*
X3010088Y-33767513D02*
X3010088Y-33617513D01*
X3010088Y-33617513D02*
X3045803Y-33617513D01*
X3045803Y-33617513D02*
X3067231Y-33624656D01*
X3067231Y-33624656D02*
X3081517Y-33638941D01*
X3081517Y-33638941D02*
X3088660Y-33653227D01*
X3088660Y-33653227D02*
X3095803Y-33681799D01*
X3095803Y-33681799D02*
X3095803Y-33703227D01*
X3095803Y-33703227D02*
X3088660Y-33731799D01*
X3088660Y-33731799D02*
X3081517Y-33746084D01*
X3081517Y-33746084D02*
X3067231Y-33760370D01*
X3067231Y-33760370D02*
X3045803Y-33767513D01*
X3045803Y-33767513D02*
X3010088Y-33767513D01*
X3160088Y-33753227D02*
X3167231Y-33760370D01*
X3167231Y-33760370D02*
X3160088Y-33767513D01*
X3160088Y-33767513D02*
X3152946Y-33760370D01*
X3152946Y-33760370D02*
X3160088Y-33753227D01*
X3160088Y-33753227D02*
X3160088Y-33767513D01*
X3224374Y-33724656D02*
X3295803Y-33724656D01*
X3210088Y-33767513D02*
X3260088Y-33617513D01*
X3260088Y-33617513D02*
X3310088Y-33767513D01*
X3360088Y-33753227D02*
X3367231Y-33760370D01*
X3367231Y-33760370D02*
X3360088Y-33767513D01*
X3360088Y-33767513D02*
X3352946Y-33760370D01*
X3352946Y-33760370D02*
X3360088Y-33753227D01*
X3360088Y-33753227D02*
X3360088Y-33767513D01*
X3660088Y-33667513D02*
X3660088Y-33817513D01*
X3660088Y-33674656D02*
X3674374Y-33667513D01*
X3674374Y-33667513D02*
X3702946Y-33667513D01*
X3702946Y-33667513D02*
X3717231Y-33674656D01*
X3717231Y-33674656D02*
X3724374Y-33681799D01*
X3724374Y-33681799D02*
X3731517Y-33696084D01*
X3731517Y-33696084D02*
X3731517Y-33738941D01*
X3731517Y-33738941D02*
X3724374Y-33753227D01*
X3724374Y-33753227D02*
X3717231Y-33760370D01*
X3717231Y-33760370D02*
X3702946Y-33767513D01*
X3702946Y-33767513D02*
X3674374Y-33767513D01*
X3674374Y-33767513D02*
X3660088Y-33760370D01*
X3860088Y-33760370D02*
X3845803Y-33767513D01*
X3845803Y-33767513D02*
X3817231Y-33767513D01*
X3817231Y-33767513D02*
X3802946Y-33760370D01*
X3802946Y-33760370D02*
X3795803Y-33753227D01*
X3795803Y-33753227D02*
X3788660Y-33738941D01*
X3788660Y-33738941D02*
X3788660Y-33696084D01*
X3788660Y-33696084D02*
X3795803Y-33681799D01*
X3795803Y-33681799D02*
X3802946Y-33674656D01*
X3802946Y-33674656D02*
X3817231Y-33667513D01*
X3817231Y-33667513D02*
X3845803Y-33667513D01*
X3845803Y-33667513D02*
X3860088Y-33674656D01*
X3924374Y-33767513D02*
X3924374Y-33617513D01*
X3924374Y-33674656D02*
X3938660Y-33667513D01*
X3938660Y-33667513D02*
X3967231Y-33667513D01*
X3967231Y-33667513D02*
X3981517Y-33674656D01*
X3981517Y-33674656D02*
X3988660Y-33681799D01*
X3988660Y-33681799D02*
X3995803Y-33696084D01*
X3995803Y-33696084D02*
X3995803Y-33738941D01*
X3995803Y-33738941D02*
X3988660Y-33753227D01*
X3988660Y-33753227D02*
X3981517Y-33760370D01*
X3981517Y-33760370D02*
X3967231Y-33767513D01*
X3967231Y-33767513D02*
X3938660Y-33767513D01*
X3938660Y-33767513D02*
X3924374Y-33760370D01*
X4060088Y-33667513D02*
X4060088Y-33767513D01*
X4060088Y-33681799D02*
X4067231Y-33674656D01*
X4067231Y-33674656D02*
X4081517Y-33667513D01*
X4081517Y-33667513D02*
X4102946Y-33667513D01*
X4102946Y-33667513D02*
X4117231Y-33674656D01*
X4117231Y-33674656D02*
X4124374Y-33688941D01*
X4124374Y-33688941D02*
X4124374Y-33767513D01*
X4252946Y-33760370D02*
X4238660Y-33767513D01*
X4238660Y-33767513D02*
X4210089Y-33767513D01*
X4210089Y-33767513D02*
X4195803Y-33760370D01*
X4195803Y-33760370D02*
X4188660Y-33746084D01*
X4188660Y-33746084D02*
X4188660Y-33688941D01*
X4188660Y-33688941D02*
X4195803Y-33674656D01*
X4195803Y-33674656D02*
X4210089Y-33667513D01*
X4210089Y-33667513D02*
X4238660Y-33667513D01*
X4238660Y-33667513D02*
X4252946Y-33674656D01*
X4252946Y-33674656D02*
X4260089Y-33688941D01*
X4260089Y-33688941D02*
X4260089Y-33703227D01*
X4260089Y-33703227D02*
X4188660Y-33717513D01*
X4310088Y-33667513D02*
X4338660Y-33767513D01*
X4338660Y-33767513D02*
X4367231Y-33696084D01*
X4367231Y-33696084D02*
X4395803Y-33767513D01*
X4395803Y-33767513D02*
X4424374Y-33667513D01*
X4581517Y-33617513D02*
X4681517Y-33617513D01*
X4681517Y-33617513D02*
X4617231Y-33767513D01*
X4738660Y-33753227D02*
X4745803Y-33760370D01*
X4745803Y-33760370D02*
X4738660Y-33767513D01*
X4738660Y-33767513D02*
X4731517Y-33760370D01*
X4731517Y-33760370D02*
X4738660Y-33753227D01*
X4738660Y-33753227D02*
X4738660Y-33767513D01*
X4838660Y-33617513D02*
X4852946Y-33617513D01*
X4852946Y-33617513D02*
X4867231Y-33624656D01*
X4867231Y-33624656D02*
X4874374Y-33631799D01*
X4874374Y-33631799D02*
X4881517Y-33646084D01*
X4881517Y-33646084D02*
X4888660Y-33674656D01*
X4888660Y-33674656D02*
X4888660Y-33710370D01*
X4888660Y-33710370D02*
X4881517Y-33738941D01*
X4881517Y-33738941D02*
X4874374Y-33753227D01*
X4874374Y-33753227D02*
X4867231Y-33760370D01*
X4867231Y-33760370D02*
X4852946Y-33767513D01*
X4852946Y-33767513D02*
X4838660Y-33767513D01*
X4838660Y-33767513D02*
X4824374Y-33760370D01*
X4824374Y-33760370D02*
X4817231Y-33753227D01*
X4817231Y-33753227D02*
X4810088Y-33738941D01*
X4810088Y-33738941D02*
X4802946Y-33710370D01*
X4802946Y-33710370D02*
X4802946Y-33674656D01*
X4802946Y-33674656D02*
X4810088Y-33646084D01*
X4810088Y-33646084D02*
X4817231Y-33631799D01*
X4817231Y-33631799D02*
X4824374Y-33624656D01*
X4824374Y-33624656D02*
X4838660Y-33617513D01*
X4952946Y-33753227D02*
X4960088Y-33760370D01*
X4960088Y-33760370D02*
X4952946Y-33767513D01*
X4952946Y-33767513D02*
X4945803Y-33760370D01*
X4945803Y-33760370D02*
X4952946Y-33753227D01*
X4952946Y-33753227D02*
X4952946Y-33767513D01*
X5102946Y-33767513D02*
X5017231Y-33767513D01*
X5060088Y-33767513D02*
X5060088Y-33617513D01*
X5060088Y-33617513D02*
X5045803Y-33638941D01*
X5045803Y-33638941D02*
X5031517Y-33653227D01*
X5031517Y-33653227D02*
X5017231Y-33660370D01*
X5245803Y-33767513D02*
X5160088Y-33767513D01*
X5202946Y-33767513D02*
X5202946Y-33617513D01*
X5202946Y-33617513D02*
X5188660Y-33638941D01*
X5188660Y-33638941D02*
X5174374Y-33653227D01*
X5174374Y-33653227D02*
X5160088Y-33660370D01*
X5310088Y-33710370D02*
X5424374Y-33710370D01*
X5481517Y-33617513D02*
X5581517Y-33617513D01*
X5581517Y-33617513D02*
X5517231Y-33767513D01*
X5638660Y-33753227D02*
X5645803Y-33760370D01*
X5645803Y-33760370D02*
X5638660Y-33767513D01*
X5638660Y-33767513D02*
X5631517Y-33760370D01*
X5631517Y-33760370D02*
X5638660Y-33753227D01*
X5638660Y-33753227D02*
X5638660Y-33767513D01*
X5738660Y-33617513D02*
X5752945Y-33617513D01*
X5752945Y-33617513D02*
X5767231Y-33624656D01*
X5767231Y-33624656D02*
X5774374Y-33631799D01*
X5774374Y-33631799D02*
X5781517Y-33646084D01*
X5781517Y-33646084D02*
X5788660Y-33674656D01*
X5788660Y-33674656D02*
X5788660Y-33710370D01*
X5788660Y-33710370D02*
X5781517Y-33738941D01*
X5781517Y-33738941D02*
X5774374Y-33753227D01*
X5774374Y-33753227D02*
X5767231Y-33760370D01*
X5767231Y-33760370D02*
X5752945Y-33767513D01*
X5752945Y-33767513D02*
X5738660Y-33767513D01*
X5738660Y-33767513D02*
X5724374Y-33760370D01*
X5724374Y-33760370D02*
X5717231Y-33753227D01*
X5717231Y-33753227D02*
X5710088Y-33738941D01*
X5710088Y-33738941D02*
X5702945Y-33710370D01*
X5702945Y-33710370D02*
X5702945Y-33674656D01*
X5702945Y-33674656D02*
X5710088Y-33646084D01*
X5710088Y-33646084D02*
X5717231Y-33631799D01*
X5717231Y-33631799D02*
X5724374Y-33624656D01*
X5724374Y-33624656D02*
X5738660Y-33617513D01*
X5852945Y-33753227D02*
X5860088Y-33760370D01*
X5860088Y-33760370D02*
X5852945Y-33767513D01*
X5852945Y-33767513D02*
X5845803Y-33760370D01*
X5845803Y-33760370D02*
X5852945Y-33753227D01*
X5852945Y-33753227D02*
X5852945Y-33767513D01*
X6002945Y-33767513D02*
X5917231Y-33767513D01*
X5960088Y-33767513D02*
X5960088Y-33617513D01*
X5960088Y-33617513D02*
X5945803Y-33638941D01*
X5945803Y-33638941D02*
X5931517Y-33653227D01*
X5931517Y-33653227D02*
X5917231Y-33660370D01*
X6145803Y-33767513D02*
X6060088Y-33767513D01*
X6102945Y-33767513D02*
X6102945Y-33617513D01*
X6102945Y-33617513D02*
X6088660Y-33638941D01*
X6088660Y-33638941D02*
X6074374Y-33653227D01*
X6074374Y-33653227D02*
X6060088Y-33660370D01*
X6188660Y-33710370D02*
X6195802Y-33703227D01*
X6195802Y-33703227D02*
X6210088Y-33696084D01*
X6210088Y-33696084D02*
X6238660Y-33710370D01*
X6238660Y-33710370D02*
X6252945Y-33703227D01*
X6252945Y-33703227D02*
X6260088Y-33696084D01*
X6381517Y-33667513D02*
X6381517Y-33767513D01*
X6317231Y-33667513D02*
X6317231Y-33746084D01*
X6317231Y-33746084D02*
X6324374Y-33760370D01*
X6324374Y-33760370D02*
X6338660Y-33767513D01*
X6338660Y-33767513D02*
X6360088Y-33767513D01*
X6360088Y-33767513D02*
X6374374Y-33760370D01*
X6374374Y-33760370D02*
X6381517Y-33753227D01*
X6452945Y-33767513D02*
X6452945Y-33617513D01*
X6452945Y-33674656D02*
X6467231Y-33667513D01*
X6467231Y-33667513D02*
X6495803Y-33667513D01*
X6495803Y-33667513D02*
X6510088Y-33674656D01*
X6510088Y-33674656D02*
X6517231Y-33681799D01*
X6517231Y-33681799D02*
X6524374Y-33696084D01*
X6524374Y-33696084D02*
X6524374Y-33738941D01*
X6524374Y-33738941D02*
X6517231Y-33753227D01*
X6517231Y-33753227D02*
X6510088Y-33760370D01*
X6510088Y-33760370D02*
X6495803Y-33767513D01*
X6495803Y-33767513D02*
X6467231Y-33767513D01*
X6467231Y-33767513D02*
X6452945Y-33760370D01*
X6652945Y-33667513D02*
X6652945Y-33767513D01*
X6588660Y-33667513D02*
X6588660Y-33746084D01*
X6588660Y-33746084D02*
X6595803Y-33760370D01*
X6595803Y-33760370D02*
X6610088Y-33767513D01*
X6610088Y-33767513D02*
X6631517Y-33767513D01*
X6631517Y-33767513D02*
X6645803Y-33760370D01*
X6645803Y-33760370D02*
X6652945Y-33753227D01*
X6724374Y-33667513D02*
X6724374Y-33767513D01*
X6724374Y-33681799D02*
X6731517Y-33674656D01*
X6731517Y-33674656D02*
X6745803Y-33667513D01*
X6745803Y-33667513D02*
X6767231Y-33667513D01*
X6767231Y-33667513D02*
X6781517Y-33674656D01*
X6781517Y-33674656D02*
X6788660Y-33688941D01*
X6788660Y-33688941D02*
X6788660Y-33767513D01*
X6838660Y-33667513D02*
X6895803Y-33667513D01*
X6860088Y-33617513D02*
X6860088Y-33746084D01*
X6860088Y-33746084D02*
X6867231Y-33760370D01*
X6867231Y-33760370D02*
X6881517Y-33767513D01*
X6881517Y-33767513D02*
X6895803Y-33767513D01*
X7010088Y-33667513D02*
X7010088Y-33767513D01*
X6945803Y-33667513D02*
X6945803Y-33746084D01*
X6945803Y-33746084D02*
X6952945Y-33760370D01*
X6952945Y-33760370D02*
X6967231Y-33767513D01*
X6967231Y-33767513D02*
X6988660Y-33767513D01*
X6988660Y-33767513D02*
X7002945Y-33760370D01*
X7002945Y-33760370D02*
X7010088Y-33753227D01*
X7074374Y-33631799D02*
X7081517Y-33624656D01*
X7081517Y-33624656D02*
X7095803Y-33617513D01*
X7095803Y-33617513D02*
X7131517Y-33617513D01*
X7131517Y-33617513D02*
X7145803Y-33624656D01*
X7145803Y-33624656D02*
X7152945Y-33631799D01*
X7152945Y-33631799D02*
X7160088Y-33646084D01*
X7160088Y-33646084D02*
X7160088Y-33660370D01*
X7160088Y-33660370D02*
X7152945Y-33681799D01*
X7152945Y-33681799D02*
X7067231Y-33767513D01*
X7067231Y-33767513D02*
X7160088Y-33767513D01*
X7217231Y-33631799D02*
X7224374Y-33624656D01*
X7224374Y-33624656D02*
X7238660Y-33617513D01*
X7238660Y-33617513D02*
X7274374Y-33617513D01*
X7274374Y-33617513D02*
X7288660Y-33624656D01*
X7288660Y-33624656D02*
X7295803Y-33631799D01*
X7295803Y-33631799D02*
X7302945Y-33646084D01*
X7302945Y-33646084D02*
X7302945Y-33660370D01*
X7302945Y-33660370D02*
X7295803Y-33681799D01*
X7295803Y-33681799D02*
X7210088Y-33767513D01*
X7210088Y-33767513D02*
X7302945Y-33767513D01*
X7367231Y-33753227D02*
X7374374Y-33760370D01*
X7374374Y-33760370D02*
X7367231Y-33767513D01*
X7367231Y-33767513D02*
X7360088Y-33760370D01*
X7360088Y-33760370D02*
X7367231Y-33753227D01*
X7367231Y-33753227D02*
X7367231Y-33767513D01*
X7467231Y-33617513D02*
X7481517Y-33617513D01*
X7481517Y-33617513D02*
X7495803Y-33624656D01*
X7495803Y-33624656D02*
X7502945Y-33631799D01*
X7502945Y-33631799D02*
X7510088Y-33646084D01*
X7510088Y-33646084D02*
X7517231Y-33674656D01*
X7517231Y-33674656D02*
X7517231Y-33710370D01*
X7517231Y-33710370D02*
X7510088Y-33738941D01*
X7510088Y-33738941D02*
X7502945Y-33753227D01*
X7502945Y-33753227D02*
X7495803Y-33760370D01*
X7495803Y-33760370D02*
X7481517Y-33767513D01*
X7481517Y-33767513D02*
X7467231Y-33767513D01*
X7467231Y-33767513D02*
X7452945Y-33760370D01*
X7452945Y-33760370D02*
X7445803Y-33753227D01*
X7445803Y-33753227D02*
X7438660Y-33738941D01*
X7438660Y-33738941D02*
X7431517Y-33710370D01*
X7431517Y-33710370D02*
X7431517Y-33674656D01*
X7431517Y-33674656D02*
X7438660Y-33646084D01*
X7438660Y-33646084D02*
X7445803Y-33631799D01*
X7445803Y-33631799D02*
X7452945Y-33624656D01*
X7452945Y-33624656D02*
X7467231Y-33617513D01*
X7645803Y-33667513D02*
X7645803Y-33767513D01*
X7610088Y-33610370D02*
X7574374Y-33717513D01*
X7574374Y-33717513D02*
X7667231Y-33717513D01*
X7724374Y-33753227D02*
X7731517Y-33760370D01*
X7731517Y-33760370D02*
X7724374Y-33767513D01*
X7724374Y-33767513D02*
X7717231Y-33760370D01*
X7717231Y-33760370D02*
X7724374Y-33753227D01*
X7724374Y-33753227D02*
X7724374Y-33767513D01*
X7874374Y-33767513D02*
X7788660Y-33767513D01*
X7831517Y-33767513D02*
X7831517Y-33617513D01*
X7831517Y-33617513D02*
X7817231Y-33638941D01*
X7817231Y-33638941D02*
X7802945Y-33653227D01*
X7802945Y-33653227D02*
X7788660Y-33660370D01*
D10*
D11*
X1900220Y-33258900D02*
X12700220Y-33258900D01*
D10*
D12*
X10641385Y-33486733D02*
X10591385Y-33415304D01*
X10555671Y-33486733D02*
X10555671Y-33336733D01*
X10555671Y-33336733D02*
X10612814Y-33336733D01*
X10612814Y-33336733D02*
X10627100Y-33343876D01*
X10627100Y-33343876D02*
X10634243Y-33351018D01*
X10634243Y-33351018D02*
X10641385Y-33365304D01*
X10641385Y-33365304D02*
X10641385Y-33386733D01*
X10641385Y-33386733D02*
X10634243Y-33401018D01*
X10634243Y-33401018D02*
X10627100Y-33408161D01*
X10627100Y-33408161D02*
X10612814Y-33415304D01*
X10612814Y-33415304D02*
X10555671Y-33415304D01*
X10762814Y-33479590D02*
X10748528Y-33486733D01*
X10748528Y-33486733D02*
X10719957Y-33486733D01*
X10719957Y-33486733D02*
X10705671Y-33479590D01*
X10705671Y-33479590D02*
X10698528Y-33465304D01*
X10698528Y-33465304D02*
X10698528Y-33408161D01*
X10698528Y-33408161D02*
X10705671Y-33393876D01*
X10705671Y-33393876D02*
X10719957Y-33386733D01*
X10719957Y-33386733D02*
X10748528Y-33386733D01*
X10748528Y-33386733D02*
X10762814Y-33393876D01*
X10762814Y-33393876D02*
X10769957Y-33408161D01*
X10769957Y-33408161D02*
X10769957Y-33422447D01*
X10769957Y-33422447D02*
X10698528Y-33436733D01*
X10819957Y-33386733D02*
X10855671Y-33486733D01*
X10855671Y-33486733D02*
X10891385Y-33386733D01*
X10948528Y-33472447D02*
X10955671Y-33479590D01*
X10955671Y-33479590D02*
X10948528Y-33486733D01*
X10948528Y-33486733D02*
X10941385Y-33479590D01*
X10941385Y-33479590D02*
X10948528Y-33472447D01*
X10948528Y-33472447D02*
X10948528Y-33486733D01*
X10948528Y-33393876D02*
X10955671Y-33401018D01*
X10955671Y-33401018D02*
X10948528Y-33408161D01*
X10948528Y-33408161D02*
X10941385Y-33401018D01*
X10941385Y-33401018D02*
X10948528Y-33393876D01*
X10948528Y-33393876D02*
X10948528Y-33408161D01*
D10*
D11*
X2038660Y-33480370D02*
X2060088Y-33487513D01*
X2060088Y-33487513D02*
X2095803Y-33487513D01*
X2095803Y-33487513D02*
X2110088Y-33480370D01*
X2110088Y-33480370D02*
X2117231Y-33473227D01*
X2117231Y-33473227D02*
X2124374Y-33458941D01*
X2124374Y-33458941D02*
X2124374Y-33444656D01*
X2124374Y-33444656D02*
X2117231Y-33430370D01*
X2117231Y-33430370D02*
X2110088Y-33423227D01*
X2110088Y-33423227D02*
X2095803Y-33416084D01*
X2095803Y-33416084D02*
X2067231Y-33408941D01*
X2067231Y-33408941D02*
X2052945Y-33401798D01*
X2052945Y-33401798D02*
X2045803Y-33394656D01*
X2045803Y-33394656D02*
X2038660Y-33380370D01*
X2038660Y-33380370D02*
X2038660Y-33366084D01*
X2038660Y-33366084D02*
X2045803Y-33351798D01*
X2045803Y-33351798D02*
X2052945Y-33344656D01*
X2052945Y-33344656D02*
X2067231Y-33337513D01*
X2067231Y-33337513D02*
X2102946Y-33337513D01*
X2102946Y-33337513D02*
X2124374Y-33344656D01*
X2188660Y-33487513D02*
X2188660Y-33387513D01*
X2188660Y-33337513D02*
X2181517Y-33344656D01*
X2181517Y-33344656D02*
X2188660Y-33351798D01*
X2188660Y-33351798D02*
X2195803Y-33344656D01*
X2195803Y-33344656D02*
X2188660Y-33337513D01*
X2188660Y-33337513D02*
X2188660Y-33351798D01*
X2245803Y-33387513D02*
X2324374Y-33387513D01*
X2324374Y-33387513D02*
X2245803Y-33487513D01*
X2245803Y-33487513D02*
X2324374Y-33487513D01*
X2438660Y-33480370D02*
X2424374Y-33487513D01*
X2424374Y-33487513D02*
X2395803Y-33487513D01*
X2395803Y-33487513D02*
X2381517Y-33480370D01*
X2381517Y-33480370D02*
X2374374Y-33466084D01*
X2374374Y-33466084D02*
X2374374Y-33408941D01*
X2374374Y-33408941D02*
X2381517Y-33394656D01*
X2381517Y-33394656D02*
X2395803Y-33387513D01*
X2395803Y-33387513D02*
X2424374Y-33387513D01*
X2424374Y-33387513D02*
X2438660Y-33394656D01*
X2438660Y-33394656D02*
X2445803Y-33408941D01*
X2445803Y-33408941D02*
X2445803Y-33423227D01*
X2445803Y-33423227D02*
X2374374Y-33437513D01*
X2510088Y-33473227D02*
X2517231Y-33480370D01*
X2517231Y-33480370D02*
X2510088Y-33487513D01*
X2510088Y-33487513D02*
X2502946Y-33480370D01*
X2502946Y-33480370D02*
X2510088Y-33473227D01*
X2510088Y-33473227D02*
X2510088Y-33487513D01*
X2510088Y-33394656D02*
X2517231Y-33401798D01*
X2517231Y-33401798D02*
X2510088Y-33408941D01*
X2510088Y-33408941D02*
X2502946Y-33401798D01*
X2502946Y-33401798D02*
X2510088Y-33394656D01*
X2510088Y-33394656D02*
X2510088Y-33408941D01*
X2688660Y-33444656D02*
X2760088Y-33444656D01*
X2674374Y-33487513D02*
X2724374Y-33337513D01*
X2724374Y-33337513D02*
X2774374Y-33487513D01*
X2810088Y-33337513D02*
X2902945Y-33337513D01*
X2902945Y-33337513D02*
X2852945Y-33394656D01*
X2852945Y-33394656D02*
X2874374Y-33394656D01*
X2874374Y-33394656D02*
X2888660Y-33401798D01*
X2888660Y-33401798D02*
X2895803Y-33408941D01*
X2895803Y-33408941D02*
X2902945Y-33423227D01*
X2902945Y-33423227D02*
X2902945Y-33458941D01*
X2902945Y-33458941D02*
X2895803Y-33473227D01*
X2895803Y-33473227D02*
X2888660Y-33480370D01*
X2888660Y-33480370D02*
X2874374Y-33487513D01*
X2874374Y-33487513D02*
X2831517Y-33487513D01*
X2831517Y-33487513D02*
X2817231Y-33480370D01*
X2817231Y-33480370D02*
X2810088Y-33473227D01*
D10*
D11*
X10545803Y-33767513D02*
X10545803Y-33617513D01*
X10681517Y-33767513D02*
X10681517Y-33617513D01*
X10681517Y-33760370D02*
X10667231Y-33767513D01*
X10667231Y-33767513D02*
X10638660Y-33767513D01*
X10638660Y-33767513D02*
X10624374Y-33760370D01*
X10624374Y-33760370D02*
X10617231Y-33753227D01*
X10617231Y-33753227D02*
X10610088Y-33738941D01*
X10610088Y-33738941D02*
X10610088Y-33696084D01*
X10610088Y-33696084D02*
X10617231Y-33681799D01*
X10617231Y-33681799D02*
X10624374Y-33674656D01*
X10624374Y-33674656D02*
X10638660Y-33667513D01*
X10638660Y-33667513D02*
X10667231Y-33667513D01*
X10667231Y-33667513D02*
X10681517Y-33674656D01*
X10752946Y-33753227D02*
X10760088Y-33760370D01*
X10760088Y-33760370D02*
X10752946Y-33767513D01*
X10752946Y-33767513D02*
X10745803Y-33760370D01*
X10745803Y-33760370D02*
X10752946Y-33753227D01*
X10752946Y-33753227D02*
X10752946Y-33767513D01*
X10752946Y-33674656D02*
X10760088Y-33681799D01*
X10760088Y-33681799D02*
X10752946Y-33688941D01*
X10752946Y-33688941D02*
X10745803Y-33681799D01*
X10745803Y-33681799D02*
X10752946Y-33674656D01*
X10752946Y-33674656D02*
X10752946Y-33688941D01*
X11017231Y-33767513D02*
X10931517Y-33767513D01*
X10974374Y-33767513D02*
X10974374Y-33617513D01*
X10974374Y-33617513D02*
X10960088Y-33638941D01*
X10960088Y-33638941D02*
X10945803Y-33653227D01*
X10945803Y-33653227D02*
X10931517Y-33660370D01*
X11188660Y-33610370D02*
X11060088Y-33803227D01*
X11317231Y-33767513D02*
X11231517Y-33767513D01*
X11274374Y-33767513D02*
X11274374Y-33617513D01*
X11274374Y-33617513D02*
X11260088Y-33638941D01*
X11260088Y-33638941D02*
X11245803Y-33653227D01*
X11245803Y-33653227D02*
X11231517Y-33660370D01*
D10*
D11*
X1900220Y-32858900D02*
X12700220Y-32858900D01*
D10*
D13*
X2069393Y-32929344D02*
X2183679Y-32929344D01*
X2101536Y-33129344D02*
X2126536Y-32929344D01*
X2225345Y-33129344D02*
X2242012Y-32996010D01*
X2250345Y-32929344D02*
X2239631Y-32938868D01*
X2239631Y-32938868D02*
X2247964Y-32948391D01*
X2247964Y-32948391D02*
X2258679Y-32938868D01*
X2258679Y-32938868D02*
X2250345Y-32929344D01*
X2250345Y-32929344D02*
X2247964Y-32948391D01*
X2308679Y-32996010D02*
X2384869Y-32996010D01*
X2345583Y-32929344D02*
X2324155Y-33100772D01*
X2324155Y-33100772D02*
X2331298Y-33119820D01*
X2331298Y-33119820D02*
X2349155Y-33129344D01*
X2349155Y-33129344D02*
X2368202Y-33129344D01*
X2463441Y-33129344D02*
X2445583Y-33119820D01*
X2445583Y-33119820D02*
X2438441Y-33100772D01*
X2438441Y-33100772D02*
X2459869Y-32929344D01*
X2617012Y-33119820D02*
X2596774Y-33129344D01*
X2596774Y-33129344D02*
X2558679Y-33129344D01*
X2558679Y-33129344D02*
X2540821Y-33119820D01*
X2540821Y-33119820D02*
X2533679Y-33100772D01*
X2533679Y-33100772D02*
X2543202Y-33024582D01*
X2543202Y-33024582D02*
X2555107Y-33005534D01*
X2555107Y-33005534D02*
X2575345Y-32996010D01*
X2575345Y-32996010D02*
X2613440Y-32996010D01*
X2613440Y-32996010D02*
X2631298Y-33005534D01*
X2631298Y-33005534D02*
X2638440Y-33024582D01*
X2638440Y-33024582D02*
X2636060Y-33043629D01*
X2636060Y-33043629D02*
X2538440Y-33062677D01*
X2713441Y-33110296D02*
X2721774Y-33119820D01*
X2721774Y-33119820D02*
X2711060Y-33129344D01*
X2711060Y-33129344D02*
X2702726Y-33119820D01*
X2702726Y-33119820D02*
X2713441Y-33110296D01*
X2713441Y-33110296D02*
X2711060Y-33129344D01*
X2726536Y-33005534D02*
X2734869Y-33015058D01*
X2734869Y-33015058D02*
X2724155Y-33024582D01*
X2724155Y-33024582D02*
X2715821Y-33015058D01*
X2715821Y-33015058D02*
X2726536Y-33005534D01*
X2726536Y-33005534D02*
X2724155Y-33024582D01*
D10*
D11*
X2095803Y-32668941D02*
X2045803Y-32668941D01*
X2045803Y-32747513D02*
X2045803Y-32597513D01*
X2045803Y-32597513D02*
X2117231Y-32597513D01*
X2174374Y-32747513D02*
X2174374Y-32647513D01*
X2174374Y-32597513D02*
X2167231Y-32604656D01*
X2167231Y-32604656D02*
X2174374Y-32611798D01*
X2174374Y-32611798D02*
X2181517Y-32604656D01*
X2181517Y-32604656D02*
X2174374Y-32597513D01*
X2174374Y-32597513D02*
X2174374Y-32611798D01*
X2267231Y-32747513D02*
X2252946Y-32740370D01*
X2252946Y-32740370D02*
X2245803Y-32726084D01*
X2245803Y-32726084D02*
X2245803Y-32597513D01*
X2381517Y-32740370D02*
X2367231Y-32747513D01*
X2367231Y-32747513D02*
X2338660Y-32747513D01*
X2338660Y-32747513D02*
X2324374Y-32740370D01*
X2324374Y-32740370D02*
X2317231Y-32726084D01*
X2317231Y-32726084D02*
X2317231Y-32668941D01*
X2317231Y-32668941D02*
X2324374Y-32654656D01*
X2324374Y-32654656D02*
X2338660Y-32647513D01*
X2338660Y-32647513D02*
X2367231Y-32647513D01*
X2367231Y-32647513D02*
X2381517Y-32654656D01*
X2381517Y-32654656D02*
X2388660Y-32668941D01*
X2388660Y-32668941D02*
X2388660Y-32683227D01*
X2388660Y-32683227D02*
X2317231Y-32697513D01*
X2452945Y-32733227D02*
X2460088Y-32740370D01*
X2460088Y-32740370D02*
X2452945Y-32747513D01*
X2452945Y-32747513D02*
X2445803Y-32740370D01*
X2445803Y-32740370D02*
X2452945Y-32733227D01*
X2452945Y-32733227D02*
X2452945Y-32747513D01*
X2452945Y-32654656D02*
X2460088Y-32661798D01*
X2460088Y-32661798D02*
X2452945Y-32668941D01*
X2452945Y-32668941D02*
X2445803Y-32661798D01*
X2445803Y-32661798D02*
X2452945Y-32654656D01*
X2452945Y-32654656D02*
X2452945Y-32668941D01*
X2638660Y-32647513D02*
X2638660Y-32797513D01*
X2638660Y-32654656D02*
X2652946Y-32647513D01*
X2652946Y-32647513D02*
X2681517Y-32647513D01*
X2681517Y-32647513D02*
X2695803Y-32654656D01*
X2695803Y-32654656D02*
X2702946Y-32661798D01*
X2702946Y-32661798D02*
X2710088Y-32676084D01*
X2710088Y-32676084D02*
X2710088Y-32718941D01*
X2710088Y-32718941D02*
X2702946Y-32733227D01*
X2702946Y-32733227D02*
X2695803Y-32740370D01*
X2695803Y-32740370D02*
X2681517Y-32747513D01*
X2681517Y-32747513D02*
X2652946Y-32747513D01*
X2652946Y-32747513D02*
X2638660Y-32740370D01*
X2838660Y-32747513D02*
X2838660Y-32668941D01*
X2838660Y-32668941D02*
X2831517Y-32654656D01*
X2831517Y-32654656D02*
X2817231Y-32647513D01*
X2817231Y-32647513D02*
X2788660Y-32647513D01*
X2788660Y-32647513D02*
X2774374Y-32654656D01*
X2838660Y-32740370D02*
X2824374Y-32747513D01*
X2824374Y-32747513D02*
X2788660Y-32747513D01*
X2788660Y-32747513D02*
X2774374Y-32740370D01*
X2774374Y-32740370D02*
X2767231Y-32726084D01*
X2767231Y-32726084D02*
X2767231Y-32711798D01*
X2767231Y-32711798D02*
X2774374Y-32697513D01*
X2774374Y-32697513D02*
X2788660Y-32690370D01*
X2788660Y-32690370D02*
X2824374Y-32690370D01*
X2824374Y-32690370D02*
X2838660Y-32683227D01*
X2910088Y-32647513D02*
X2910088Y-32747513D01*
X2910088Y-32661798D02*
X2917231Y-32654656D01*
X2917231Y-32654656D02*
X2931517Y-32647513D01*
X2931517Y-32647513D02*
X2952945Y-32647513D01*
X2952945Y-32647513D02*
X2967231Y-32654656D01*
X2967231Y-32654656D02*
X2974374Y-32668941D01*
X2974374Y-32668941D02*
X2974374Y-32747513D01*
X3102945Y-32740370D02*
X3088660Y-32747513D01*
X3088660Y-32747513D02*
X3060088Y-32747513D01*
X3060088Y-32747513D02*
X3045803Y-32740370D01*
X3045803Y-32740370D02*
X3038660Y-32726084D01*
X3038660Y-32726084D02*
X3038660Y-32668941D01*
X3038660Y-32668941D02*
X3045803Y-32654656D01*
X3045803Y-32654656D02*
X3060088Y-32647513D01*
X3060088Y-32647513D02*
X3088660Y-32647513D01*
X3088660Y-32647513D02*
X3102945Y-32654656D01*
X3102945Y-32654656D02*
X3110088Y-32668941D01*
X3110088Y-32668941D02*
X3110088Y-32683227D01*
X3110088Y-32683227D02*
X3038660Y-32697513D01*
X3195803Y-32747513D02*
X3181517Y-32740370D01*
X3181517Y-32740370D02*
X3174374Y-32726084D01*
X3174374Y-32726084D02*
X3174374Y-32597513D01*
X3281517Y-32597513D02*
X3295803Y-32597513D01*
X3295803Y-32597513D02*
X3310088Y-32604656D01*
X3310088Y-32604656D02*
X3317231Y-32611798D01*
X3317231Y-32611798D02*
X3324374Y-32626084D01*
X3324374Y-32626084D02*
X3331517Y-32654656D01*
X3331517Y-32654656D02*
X3331517Y-32690370D01*
X3331517Y-32690370D02*
X3324374Y-32718941D01*
X3324374Y-32718941D02*
X3317231Y-32733227D01*
X3317231Y-32733227D02*
X3310088Y-32740370D01*
X3310088Y-32740370D02*
X3295803Y-32747513D01*
X3295803Y-32747513D02*
X3281517Y-32747513D01*
X3281517Y-32747513D02*
X3267231Y-32740370D01*
X3267231Y-32740370D02*
X3260088Y-32733227D01*
X3260088Y-32733227D02*
X3252945Y-32718941D01*
X3252945Y-32718941D02*
X3245803Y-32690370D01*
X3245803Y-32690370D02*
X3245803Y-32654656D01*
X3245803Y-32654656D02*
X3252945Y-32626084D01*
X3252945Y-32626084D02*
X3260088Y-32611798D01*
X3260088Y-32611798D02*
X3267231Y-32604656D01*
X3267231Y-32604656D02*
X3281517Y-32597513D01*
X3424374Y-32597513D02*
X3438660Y-32597513D01*
X3438660Y-32597513D02*
X3452945Y-32604656D01*
X3452945Y-32604656D02*
X3460088Y-32611798D01*
X3460088Y-32611798D02*
X3467231Y-32626084D01*
X3467231Y-32626084D02*
X3474374Y-32654656D01*
X3474374Y-32654656D02*
X3474374Y-32690370D01*
X3474374Y-32690370D02*
X3467231Y-32718941D01*
X3467231Y-32718941D02*
X3460088Y-32733227D01*
X3460088Y-32733227D02*
X3452945Y-32740370D01*
X3452945Y-32740370D02*
X3438660Y-32747513D01*
X3438660Y-32747513D02*
X3424374Y-32747513D01*
X3424374Y-32747513D02*
X3410088Y-32740370D01*
X3410088Y-32740370D02*
X3402945Y-32733227D01*
X3402945Y-32733227D02*
X3395802Y-32718941D01*
X3395802Y-32718941D02*
X3388660Y-32690370D01*
X3388660Y-32690370D02*
X3388660Y-32654656D01*
X3388660Y-32654656D02*
X3395802Y-32626084D01*
X3395802Y-32626084D02*
X3402945Y-32611798D01*
X3402945Y-32611798D02*
X3410088Y-32604656D01*
X3410088Y-32604656D02*
X3424374Y-32597513D01*
X3531517Y-32611798D02*
X3538660Y-32604656D01*
X3538660Y-32604656D02*
X3552945Y-32597513D01*
X3552945Y-32597513D02*
X3588660Y-32597513D01*
X3588660Y-32597513D02*
X3602945Y-32604656D01*
X3602945Y-32604656D02*
X3610088Y-32611798D01*
X3610088Y-32611798D02*
X3617231Y-32626084D01*
X3617231Y-32626084D02*
X3617231Y-32640370D01*
X3617231Y-32640370D02*
X3610088Y-32661798D01*
X3610088Y-32661798D02*
X3524374Y-32747513D01*
X3524374Y-32747513D02*
X3617231Y-32747513D01*
X3645802Y-32761798D02*
X3760088Y-32761798D01*
X3760088Y-32761798D02*
X3874374Y-32761798D01*
X3902945Y-32611798D02*
X3910088Y-32604656D01*
X3910088Y-32604656D02*
X3924374Y-32597513D01*
X3924374Y-32597513D02*
X3960088Y-32597513D01*
X3960088Y-32597513D02*
X3974374Y-32604656D01*
X3974374Y-32604656D02*
X3981517Y-32611798D01*
X3981517Y-32611798D02*
X3988660Y-32626084D01*
X3988660Y-32626084D02*
X3988660Y-32640370D01*
X3988660Y-32640370D02*
X3981517Y-32661798D01*
X3981517Y-32661798D02*
X3895802Y-32747513D01*
X3895802Y-32747513D02*
X3988660Y-32747513D01*
X4017231Y-32761798D02*
X4131517Y-32761798D01*
X4188659Y-32747513D02*
X4174374Y-32740370D01*
X4174374Y-32740370D02*
X4167231Y-32733227D01*
X4167231Y-32733227D02*
X4160088Y-32718941D01*
X4160088Y-32718941D02*
X4160088Y-32676084D01*
X4160088Y-32676084D02*
X4167231Y-32661798D01*
X4167231Y-32661798D02*
X4174374Y-32654656D01*
X4174374Y-32654656D02*
X4188659Y-32647513D01*
X4188659Y-32647513D02*
X4210088Y-32647513D01*
X4210088Y-32647513D02*
X4224374Y-32654656D01*
X4224374Y-32654656D02*
X4231517Y-32661798D01*
X4231517Y-32661798D02*
X4238660Y-32676084D01*
X4238660Y-32676084D02*
X4238660Y-32718941D01*
X4238660Y-32718941D02*
X4231517Y-32733227D01*
X4231517Y-32733227D02*
X4224374Y-32740370D01*
X4224374Y-32740370D02*
X4210088Y-32747513D01*
X4210088Y-32747513D02*
X4188659Y-32747513D01*
X4302945Y-32647513D02*
X4302945Y-32797513D01*
X4302945Y-32654656D02*
X4317231Y-32647513D01*
X4317231Y-32647513D02*
X4345802Y-32647513D01*
X4345802Y-32647513D02*
X4360088Y-32654656D01*
X4360088Y-32654656D02*
X4367231Y-32661798D01*
X4367231Y-32661798D02*
X4374374Y-32676084D01*
X4374374Y-32676084D02*
X4374374Y-32718941D01*
X4374374Y-32718941D02*
X4367231Y-32733227D01*
X4367231Y-32733227D02*
X4360088Y-32740370D01*
X4360088Y-32740370D02*
X4345802Y-32747513D01*
X4345802Y-32747513D02*
X4317231Y-32747513D01*
X4317231Y-32747513D02*
X4302945Y-32740370D01*
X4495802Y-32740370D02*
X4481517Y-32747513D01*
X4481517Y-32747513D02*
X4452945Y-32747513D01*
X4452945Y-32747513D02*
X4438660Y-32740370D01*
X4438660Y-32740370D02*
X4431517Y-32726084D01*
X4431517Y-32726084D02*
X4431517Y-32668941D01*
X4431517Y-32668941D02*
X4438660Y-32654656D01*
X4438660Y-32654656D02*
X4452945Y-32647513D01*
X4452945Y-32647513D02*
X4481517Y-32647513D01*
X4481517Y-32647513D02*
X4495802Y-32654656D01*
X4495802Y-32654656D02*
X4502945Y-32668941D01*
X4502945Y-32668941D02*
X4502945Y-32683227D01*
X4502945Y-32683227D02*
X4431517Y-32697513D01*
X4567231Y-32647513D02*
X4567231Y-32747513D01*
X4567231Y-32661798D02*
X4574374Y-32654656D01*
X4574374Y-32654656D02*
X4588660Y-32647513D01*
X4588660Y-32647513D02*
X4610088Y-32647513D01*
X4610088Y-32647513D02*
X4624374Y-32654656D01*
X4624374Y-32654656D02*
X4631517Y-32668941D01*
X4631517Y-32668941D02*
X4631517Y-32747513D01*
X4702945Y-32747513D02*
X4702945Y-32647513D01*
X4702945Y-32597513D02*
X4695802Y-32604656D01*
X4695802Y-32604656D02*
X4702945Y-32611798D01*
X4702945Y-32611798D02*
X4710088Y-32604656D01*
X4710088Y-32604656D02*
X4702945Y-32597513D01*
X4702945Y-32597513D02*
X4702945Y-32611798D01*
X4774374Y-32647513D02*
X4774374Y-32797513D01*
X4774374Y-32654656D02*
X4788660Y-32647513D01*
X4788660Y-32647513D02*
X4817231Y-32647513D01*
X4817231Y-32647513D02*
X4831517Y-32654656D01*
X4831517Y-32654656D02*
X4838660Y-32661798D01*
X4838660Y-32661798D02*
X4845802Y-32676084D01*
X4845802Y-32676084D02*
X4845802Y-32718941D01*
X4845802Y-32718941D02*
X4838660Y-32733227D01*
X4838660Y-32733227D02*
X4831517Y-32740370D01*
X4831517Y-32740370D02*
X4817231Y-32747513D01*
X4817231Y-32747513D02*
X4788660Y-32747513D01*
X4788660Y-32747513D02*
X4774374Y-32740370D01*
X4910088Y-32747513D02*
X4910088Y-32647513D01*
X4910088Y-32661798D02*
X4917231Y-32654656D01*
X4917231Y-32654656D02*
X4931517Y-32647513D01*
X4931517Y-32647513D02*
X4952945Y-32647513D01*
X4952945Y-32647513D02*
X4967231Y-32654656D01*
X4967231Y-32654656D02*
X4974374Y-32668941D01*
X4974374Y-32668941D02*
X4974374Y-32747513D01*
X4974374Y-32668941D02*
X4981517Y-32654656D01*
X4981517Y-32654656D02*
X4995802Y-32647513D01*
X4995802Y-32647513D02*
X5017231Y-32647513D01*
X5017231Y-32647513D02*
X5031517Y-32654656D01*
X5031517Y-32654656D02*
X5038660Y-32668941D01*
X5038660Y-32668941D02*
X5038660Y-32747513D01*
X5174374Y-32740370D02*
X5160088Y-32747513D01*
X5160088Y-32747513D02*
X5131517Y-32747513D01*
X5131517Y-32747513D02*
X5117231Y-32740370D01*
X5117231Y-32740370D02*
X5110088Y-32733227D01*
X5110088Y-32733227D02*
X5102945Y-32718941D01*
X5102945Y-32718941D02*
X5102945Y-32676084D01*
X5102945Y-32676084D02*
X5110088Y-32661798D01*
X5110088Y-32661798D02*
X5117231Y-32654656D01*
X5117231Y-32654656D02*
X5131517Y-32647513D01*
X5131517Y-32647513D02*
X5160088Y-32647513D01*
X5160088Y-32647513D02*
X5174374Y-32654656D01*
X5238660Y-32690370D02*
X5352945Y-32690370D01*
X5424374Y-32747513D02*
X5424374Y-32597513D01*
X5488660Y-32747513D02*
X5488660Y-32668941D01*
X5488660Y-32668941D02*
X5481517Y-32654656D01*
X5481517Y-32654656D02*
X5467231Y-32647513D01*
X5467231Y-32647513D02*
X5445802Y-32647513D01*
X5445802Y-32647513D02*
X5431517Y-32654656D01*
X5431517Y-32654656D02*
X5424374Y-32661798D01*
X5545802Y-32647513D02*
X5574374Y-32747513D01*
X5574374Y-32747513D02*
X5602945Y-32676084D01*
X5602945Y-32676084D02*
X5631517Y-32747513D01*
X5631517Y-32747513D02*
X5660088Y-32647513D01*
X5681517Y-32761798D02*
X5795802Y-32761798D01*
X5824374Y-32740370D02*
X5838660Y-32747513D01*
X5838660Y-32747513D02*
X5867231Y-32747513D01*
X5867231Y-32747513D02*
X5881517Y-32740370D01*
X5881517Y-32740370D02*
X5888660Y-32726084D01*
X5888660Y-32726084D02*
X5888660Y-32718941D01*
X5888660Y-32718941D02*
X5881517Y-32704656D01*
X5881517Y-32704656D02*
X5867231Y-32697513D01*
X5867231Y-32697513D02*
X5845802Y-32697513D01*
X5845802Y-32697513D02*
X5831517Y-32690370D01*
X5831517Y-32690370D02*
X5824374Y-32676084D01*
X5824374Y-32676084D02*
X5824374Y-32668941D01*
X5824374Y-32668941D02*
X5831517Y-32654656D01*
X5831517Y-32654656D02*
X5845802Y-32647513D01*
X5845802Y-32647513D02*
X5867231Y-32647513D01*
X5867231Y-32647513D02*
X5881517Y-32654656D01*
X6017231Y-32647513D02*
X6017231Y-32747513D01*
X5952945Y-32647513D02*
X5952945Y-32726084D01*
X5952945Y-32726084D02*
X5960088Y-32740370D01*
X5960088Y-32740370D02*
X5974374Y-32747513D01*
X5974374Y-32747513D02*
X5995802Y-32747513D01*
X5995802Y-32747513D02*
X6010088Y-32740370D01*
X6010088Y-32740370D02*
X6017231Y-32733227D01*
X6088660Y-32747513D02*
X6088660Y-32597513D01*
X6088660Y-32654656D02*
X6102945Y-32647513D01*
X6102945Y-32647513D02*
X6131517Y-32647513D01*
X6131517Y-32647513D02*
X6145802Y-32654656D01*
X6145802Y-32654656D02*
X6152945Y-32661798D01*
X6152945Y-32661798D02*
X6160088Y-32676084D01*
X6160088Y-32676084D02*
X6160088Y-32718941D01*
X6160088Y-32718941D02*
X6152945Y-32733227D01*
X6152945Y-32733227D02*
X6145802Y-32740370D01*
X6145802Y-32740370D02*
X6131517Y-32747513D01*
X6131517Y-32747513D02*
X6102945Y-32747513D01*
X6102945Y-32747513D02*
X6088660Y-32740370D01*
X6224374Y-32647513D02*
X6224374Y-32797513D01*
X6224374Y-32654656D02*
X6238660Y-32647513D01*
X6238660Y-32647513D02*
X6267231Y-32647513D01*
X6267231Y-32647513D02*
X6281517Y-32654656D01*
X6281517Y-32654656D02*
X6288660Y-32661798D01*
X6288660Y-32661798D02*
X6295802Y-32676084D01*
X6295802Y-32676084D02*
X6295802Y-32718941D01*
X6295802Y-32718941D02*
X6288660Y-32733227D01*
X6288660Y-32733227D02*
X6281517Y-32740370D01*
X6281517Y-32740370D02*
X6267231Y-32747513D01*
X6267231Y-32747513D02*
X6238660Y-32747513D01*
X6238660Y-32747513D02*
X6224374Y-32740370D01*
X6424374Y-32747513D02*
X6424374Y-32668941D01*
X6424374Y-32668941D02*
X6417231Y-32654656D01*
X6417231Y-32654656D02*
X6402945Y-32647513D01*
X6402945Y-32647513D02*
X6374374Y-32647513D01*
X6374374Y-32647513D02*
X6360088Y-32654656D01*
X6424374Y-32740370D02*
X6410088Y-32747513D01*
X6410088Y-32747513D02*
X6374374Y-32747513D01*
X6374374Y-32747513D02*
X6360088Y-32740370D01*
X6360088Y-32740370D02*
X6352945Y-32726084D01*
X6352945Y-32726084D02*
X6352945Y-32711798D01*
X6352945Y-32711798D02*
X6360088Y-32697513D01*
X6360088Y-32697513D02*
X6374374Y-32690370D01*
X6374374Y-32690370D02*
X6410088Y-32690370D01*
X6410088Y-32690370D02*
X6424374Y-32683227D01*
X6495802Y-32647513D02*
X6495802Y-32747513D01*
X6495802Y-32661798D02*
X6502945Y-32654656D01*
X6502945Y-32654656D02*
X6517231Y-32647513D01*
X6517231Y-32647513D02*
X6538660Y-32647513D01*
X6538660Y-32647513D02*
X6552945Y-32654656D01*
X6552945Y-32654656D02*
X6560088Y-32668941D01*
X6560088Y-32668941D02*
X6560088Y-32747513D01*
X6688660Y-32740370D02*
X6674374Y-32747513D01*
X6674374Y-32747513D02*
X6645803Y-32747513D01*
X6645803Y-32747513D02*
X6631517Y-32740370D01*
X6631517Y-32740370D02*
X6624374Y-32726084D01*
X6624374Y-32726084D02*
X6624374Y-32668941D01*
X6624374Y-32668941D02*
X6631517Y-32654656D01*
X6631517Y-32654656D02*
X6645803Y-32647513D01*
X6645803Y-32647513D02*
X6674374Y-32647513D01*
X6674374Y-32647513D02*
X6688660Y-32654656D01*
X6688660Y-32654656D02*
X6695803Y-32668941D01*
X6695803Y-32668941D02*
X6695803Y-32683227D01*
X6695803Y-32683227D02*
X6624374Y-32697513D01*
X6781517Y-32747513D02*
X6767231Y-32740370D01*
X6767231Y-32740370D02*
X6760088Y-32726084D01*
X6760088Y-32726084D02*
X6760088Y-32597513D01*
X6838660Y-32733227D02*
X6845802Y-32740370D01*
X6845802Y-32740370D02*
X6838660Y-32747513D01*
X6838660Y-32747513D02*
X6831517Y-32740370D01*
X6831517Y-32740370D02*
X6838660Y-32733227D01*
X6838660Y-32733227D02*
X6838660Y-32747513D01*
X6910088Y-32747513D02*
X6910088Y-32597513D01*
X6924374Y-32690370D02*
X6967231Y-32747513D01*
X6967231Y-32647513D02*
X6910088Y-32704656D01*
X7031517Y-32747513D02*
X7031517Y-32647513D01*
X7031517Y-32597513D02*
X7024374Y-32604656D01*
X7024374Y-32604656D02*
X7031517Y-32611798D01*
X7031517Y-32611798D02*
X7038660Y-32604656D01*
X7038660Y-32604656D02*
X7031517Y-32597513D01*
X7031517Y-32597513D02*
X7031517Y-32611798D01*
X7167231Y-32740370D02*
X7152945Y-32747513D01*
X7152945Y-32747513D02*
X7124374Y-32747513D01*
X7124374Y-32747513D02*
X7110088Y-32740370D01*
X7110088Y-32740370D02*
X7102945Y-32733227D01*
X7102945Y-32733227D02*
X7095803Y-32718941D01*
X7095803Y-32718941D02*
X7095803Y-32676084D01*
X7095803Y-32676084D02*
X7102945Y-32661798D01*
X7102945Y-32661798D02*
X7110088Y-32654656D01*
X7110088Y-32654656D02*
X7124374Y-32647513D01*
X7124374Y-32647513D02*
X7152945Y-32647513D01*
X7152945Y-32647513D02*
X7167231Y-32654656D01*
X7295803Y-32747513D02*
X7295803Y-32668941D01*
X7295803Y-32668941D02*
X7288660Y-32654656D01*
X7288660Y-32654656D02*
X7274374Y-32647513D01*
X7274374Y-32647513D02*
X7245803Y-32647513D01*
X7245803Y-32647513D02*
X7231517Y-32654656D01*
X7295803Y-32740370D02*
X7281517Y-32747513D01*
X7281517Y-32747513D02*
X7245803Y-32747513D01*
X7245803Y-32747513D02*
X7231517Y-32740370D01*
X7231517Y-32740370D02*
X7224374Y-32726084D01*
X7224374Y-32726084D02*
X7224374Y-32711798D01*
X7224374Y-32711798D02*
X7231517Y-32697513D01*
X7231517Y-32697513D02*
X7245803Y-32690370D01*
X7245803Y-32690370D02*
X7281517Y-32690370D01*
X7281517Y-32690370D02*
X7295803Y-32683227D01*
X7431517Y-32747513D02*
X7431517Y-32597513D01*
X7431517Y-32740370D02*
X7417231Y-32747513D01*
X7417231Y-32747513D02*
X7388660Y-32747513D01*
X7388660Y-32747513D02*
X7374374Y-32740370D01*
X7374374Y-32740370D02*
X7367231Y-32733227D01*
X7367231Y-32733227D02*
X7360088Y-32718941D01*
X7360088Y-32718941D02*
X7360088Y-32676084D01*
X7360088Y-32676084D02*
X7367231Y-32661798D01*
X7367231Y-32661798D02*
X7374374Y-32654656D01*
X7374374Y-32654656D02*
X7388660Y-32647513D01*
X7388660Y-32647513D02*
X7417231Y-32647513D01*
X7417231Y-32647513D02*
X7431517Y-32654656D01*
X7467231Y-32761798D02*
X7581517Y-32761798D01*
X7617231Y-32647513D02*
X7617231Y-32797513D01*
X7617231Y-32654656D02*
X7631517Y-32647513D01*
X7631517Y-32647513D02*
X7660088Y-32647513D01*
X7660088Y-32647513D02*
X7674374Y-32654656D01*
X7674374Y-32654656D02*
X7681517Y-32661798D01*
X7681517Y-32661798D02*
X7688660Y-32676084D01*
X7688660Y-32676084D02*
X7688660Y-32718941D01*
X7688660Y-32718941D02*
X7681517Y-32733227D01*
X7681517Y-32733227D02*
X7674374Y-32740370D01*
X7674374Y-32740370D02*
X7660088Y-32747513D01*
X7660088Y-32747513D02*
X7631517Y-32747513D01*
X7631517Y-32747513D02*
X7617231Y-32740370D01*
X7817231Y-32740370D02*
X7802945Y-32747513D01*
X7802945Y-32747513D02*
X7774374Y-32747513D01*
X7774374Y-32747513D02*
X7760088Y-32740370D01*
X7760088Y-32740370D02*
X7752945Y-32733227D01*
X7752945Y-32733227D02*
X7745803Y-32718941D01*
X7745803Y-32718941D02*
X7745803Y-32676084D01*
X7745803Y-32676084D02*
X7752945Y-32661798D01*
X7752945Y-32661798D02*
X7760088Y-32654656D01*
X7760088Y-32654656D02*
X7774374Y-32647513D01*
X7774374Y-32647513D02*
X7802945Y-32647513D01*
X7802945Y-32647513D02*
X7817231Y-32654656D01*
X7881517Y-32747513D02*
X7881517Y-32597513D01*
X7881517Y-32654656D02*
X7895803Y-32647513D01*
X7895803Y-32647513D02*
X7924374Y-32647513D01*
X7924374Y-32647513D02*
X7938660Y-32654656D01*
X7938660Y-32654656D02*
X7945803Y-32661798D01*
X7945803Y-32661798D02*
X7952945Y-32676084D01*
X7952945Y-32676084D02*
X7952945Y-32718941D01*
X7952945Y-32718941D02*
X7945803Y-32733227D01*
X7945803Y-32733227D02*
X7938660Y-32740370D01*
X7938660Y-32740370D02*
X7924374Y-32747513D01*
X7924374Y-32747513D02*
X7895803Y-32747513D01*
X7895803Y-32747513D02*
X7881517Y-32740370D01*
D10*
D11*
X1900220Y-32258900D02*
X12700220Y-32258900D01*
D10*
D11*
X2038660Y-32470370D02*
X2060088Y-32477513D01*
X2060088Y-32477513D02*
X2095803Y-32477513D01*
X2095803Y-32477513D02*
X2110088Y-32470370D01*
X2110088Y-32470370D02*
X2117231Y-32463227D01*
X2117231Y-32463227D02*
X2124374Y-32448941D01*
X2124374Y-32448941D02*
X2124374Y-32434656D01*
X2124374Y-32434656D02*
X2117231Y-32420370D01*
X2117231Y-32420370D02*
X2110088Y-32413227D01*
X2110088Y-32413227D02*
X2095803Y-32406084D01*
X2095803Y-32406084D02*
X2067231Y-32398941D01*
X2067231Y-32398941D02*
X2052945Y-32391798D01*
X2052945Y-32391798D02*
X2045803Y-32384656D01*
X2045803Y-32384656D02*
X2038660Y-32370370D01*
X2038660Y-32370370D02*
X2038660Y-32356084D01*
X2038660Y-32356084D02*
X2045803Y-32341798D01*
X2045803Y-32341798D02*
X2052945Y-32334656D01*
X2052945Y-32334656D02*
X2067231Y-32327513D01*
X2067231Y-32327513D02*
X2102946Y-32327513D01*
X2102946Y-32327513D02*
X2124374Y-32334656D01*
X2188660Y-32477513D02*
X2188660Y-32327513D01*
X2252946Y-32477513D02*
X2252946Y-32398941D01*
X2252946Y-32398941D02*
X2245803Y-32384656D01*
X2245803Y-32384656D02*
X2231517Y-32377513D01*
X2231517Y-32377513D02*
X2210088Y-32377513D01*
X2210088Y-32377513D02*
X2195803Y-32384656D01*
X2195803Y-32384656D02*
X2188660Y-32391798D01*
X2381517Y-32470370D02*
X2367231Y-32477513D01*
X2367231Y-32477513D02*
X2338660Y-32477513D01*
X2338660Y-32477513D02*
X2324374Y-32470370D01*
X2324374Y-32470370D02*
X2317231Y-32456084D01*
X2317231Y-32456084D02*
X2317231Y-32398941D01*
X2317231Y-32398941D02*
X2324374Y-32384656D01*
X2324374Y-32384656D02*
X2338660Y-32377513D01*
X2338660Y-32377513D02*
X2367231Y-32377513D01*
X2367231Y-32377513D02*
X2381517Y-32384656D01*
X2381517Y-32384656D02*
X2388660Y-32398941D01*
X2388660Y-32398941D02*
X2388660Y-32413227D01*
X2388660Y-32413227D02*
X2317231Y-32427513D01*
X2510088Y-32470370D02*
X2495803Y-32477513D01*
X2495803Y-32477513D02*
X2467231Y-32477513D01*
X2467231Y-32477513D02*
X2452945Y-32470370D01*
X2452945Y-32470370D02*
X2445803Y-32456084D01*
X2445803Y-32456084D02*
X2445803Y-32398941D01*
X2445803Y-32398941D02*
X2452945Y-32384656D01*
X2452945Y-32384656D02*
X2467231Y-32377513D01*
X2467231Y-32377513D02*
X2495803Y-32377513D01*
X2495803Y-32377513D02*
X2510088Y-32384656D01*
X2510088Y-32384656D02*
X2517231Y-32398941D01*
X2517231Y-32398941D02*
X2517231Y-32413227D01*
X2517231Y-32413227D02*
X2445803Y-32427513D01*
X2560088Y-32377513D02*
X2617231Y-32377513D01*
X2581517Y-32327513D02*
X2581517Y-32456084D01*
X2581517Y-32456084D02*
X2588660Y-32470370D01*
X2588660Y-32470370D02*
X2602945Y-32477513D01*
X2602945Y-32477513D02*
X2617231Y-32477513D01*
X2667231Y-32463227D02*
X2674374Y-32470370D01*
X2674374Y-32470370D02*
X2667231Y-32477513D01*
X2667231Y-32477513D02*
X2660088Y-32470370D01*
X2660088Y-32470370D02*
X2667231Y-32463227D01*
X2667231Y-32463227D02*
X2667231Y-32477513D01*
X2667231Y-32384656D02*
X2674374Y-32391798D01*
X2674374Y-32391798D02*
X2667231Y-32398941D01*
X2667231Y-32398941D02*
X2660088Y-32391798D01*
X2660088Y-32391798D02*
X2667231Y-32384656D01*
X2667231Y-32384656D02*
X2667231Y-32398941D01*
D10*
D12*
D10*
D11*
D10*
D11*
D10*
D11*
D10*
D11*
D10*
D11*
X3900220Y-33258900D02*
X3900220Y-33558900D01*
D10*
D11*
X10300220Y-33258900D02*
X10300220Y-33908900D01*
D14*
X-3650000Y-11239289D02*
X-3650000Y-11380711D01*
X-3579289Y-20110000D02*
G75*
G03*
X-3720711Y-20110000I-70711J0D01*
G01*
X-3720711Y-20110000D02*
G75*
G03*
X-3579289Y-20110000I70711J0D01*
G01*
X-3720711Y-4710000D02*
X-3579289Y-4710000D01*
X-3720711Y-13510000D02*
X-3579289Y-13510000D01*
X-3579289Y-24510000D02*
G75*
G03*
X-3720711Y-24510000I-70711J0D01*
G01*
X-3720711Y-24510000D02*
G75*
G03*
X-3579289Y-24510000I70711J0D01*
G01*
X-3650000Y-13439289D02*
X-3650000Y-13580711D01*
X-3579289Y-15710000D02*
G75*
G03*
X-3720711Y-15710000I-70711J0D01*
G01*
X-3720711Y-15710000D02*
G75*
G03*
X-3579289Y-15710000I70711J0D01*
G01*
X-3720711Y-6910000D02*
X-3579289Y-6910000D01*
X-3579289Y-17910000D02*
G75*
G03*
X-3720711Y-17910000I-70711J0D01*
G01*
X-3720711Y-17910000D02*
G75*
G03*
X-3579289Y-17910000I70711J0D01*
G01*
X-3579289Y-4710000D02*
G75*
G03*
X-3720711Y-4710000I-70711J0D01*
G01*
X-3720711Y-4710000D02*
G75*
G03*
X-3579289Y-4710000I70711J0D01*
G01*
X-3650000Y-6839289D02*
X-3650000Y-6980711D01*
X-3720711Y-9110000D02*
X-3579289Y-9110000D01*
X-3650000Y-9039289D02*
X-3650000Y-9180711D01*
X-3720711Y-22310000D02*
X-3579289Y-22310000D01*
X-3650000Y-15639289D02*
X-3650000Y-15780711D01*
X-3650000Y-24439289D02*
X-3650000Y-24580711D01*
X-3579289Y-6910000D02*
G75*
G03*
X-3720711Y-6910000I-70711J0D01*
G01*
X-3720711Y-6910000D02*
G75*
G03*
X-3579289Y-6910000I70711J0D01*
G01*
X-3579289Y-13510000D02*
G75*
G03*
X-3720711Y-13510000I-70711J0D01*
G01*
X-3720711Y-13510000D02*
G75*
G03*
X-3579289Y-13510000I70711J0D01*
G01*
X-3650000Y-4639289D02*
X-3650000Y-4780711D01*
X-3650000Y-22239289D02*
X-3650000Y-22380711D01*
X-3579289Y-22310000D02*
G75*
G03*
X-3720711Y-22310000I-70711J0D01*
G01*
X-3720711Y-22310000D02*
G75*
G03*
X-3579289Y-22310000I70711J0D01*
G01*
X-3579289Y-9110000D02*
G75*
G03*
X-3720711Y-9110000I-70711J0D01*
G01*
X-3720711Y-9110000D02*
G75*
G03*
X-3579289Y-9110000I70711J0D01*
G01*
X-3720711Y-17910000D02*
X-3579289Y-17910000D01*
X-3579289Y-11310000D02*
G75*
G03*
X-3720711Y-11310000I-70711J0D01*
G01*
X-3720711Y-11310000D02*
G75*
G03*
X-3579289Y-11310000I70711J0D01*
G01*
X-3720711Y-20110000D02*
X-3579289Y-20110000D01*
X-3650000Y-17839289D02*
X-3650000Y-17980711D01*
X-3720711Y-11310000D02*
X-3579289Y-11310000D01*
X-3720711Y-24510000D02*
X-3579289Y-24510000D01*
X-3650000Y-20039289D02*
X-3650000Y-20180711D01*
X-3720711Y-15710000D02*
X-3579289Y-15710000D01*
M02*
