%FSLAX45Y45*%
G04 Gerber Fmt 4.5, Leading zero omitted, Abs format (unit mm)*
G04 Created by KiCad (PCBNEW 5.1.9-73d0e3b20d~88~ubuntu18.04.1) date 2021-03-11 15:34:03*
%MOMM*%
%LPD*%
G01*
G04 APERTURE LIST*
%TA.AperFunction,Profile*%
%ADD10C,0.150000*%
%TD*%
%ADD11C,0.200000*%
%ADD12C,0.300000*%
G04 APERTURE END LIST*
D10*
X7050000Y-5280000D02*
X6510000Y-5280000D01*
X24200000Y-3520000D02*
X25700000Y-3520000D01*
X14700000Y-3520000D02*
X15600000Y-3520000D01*
X15600000Y-4270000D02*
X15600000Y-5450000D01*
X19560000Y-3520000D02*
X15900000Y-3520000D01*
X15600000Y-4270000D02*
G75*
G02*
X15800000Y-4270000I100000J0D01*
G01*
X21530000Y-5350000D02*
X24000000Y-5350000D01*
X23900000Y-4420000D02*
X24000000Y-4420000D01*
X15900000Y-4420000D02*
G75*
G02*
X15900000Y-4620000I0J-100000D01*
G01*
X19660000Y-3520000D02*
X19660000Y-3850000D01*
X24000000Y-5350000D02*
X24000000Y-4620000D01*
X17080000Y-5550000D02*
G75*
G02*
X17080000Y-5350000I0J100000D01*
G01*
X24200000Y-3970000D02*
X24200000Y-3520000D01*
X21230000Y-5550000D02*
X17080000Y-5550000D01*
X16780000Y-5350000D02*
G75*
G02*
X16780000Y-5550000I0J-100000D01*
G01*
X16550000Y-5280000D02*
X16010000Y-5280000D01*
X21230000Y-5350000D02*
G75*
G02*
X21230000Y-5550000I0J-100000D01*
G01*
X15800000Y-3620000D02*
X15800000Y-3970000D01*
X15800000Y-4270000D02*
X15800000Y-4420000D01*
X24200000Y-5450000D02*
G75*
G02*
X24100000Y-5550000I-100000J0D01*
G01*
X16620000Y-5350000D02*
X16780000Y-5350000D01*
X24000000Y-4620000D02*
X23900000Y-4620000D01*
X16550000Y-5280000D02*
X16620000Y-5350000D01*
X19660000Y-3850000D02*
G75*
G02*
X19560000Y-3850000I-50000J0D01*
G01*
X16780000Y-5550000D02*
X15700000Y-5550000D01*
X15800000Y-4420000D02*
X15900000Y-4420000D01*
X24000000Y-4270000D02*
X24000000Y-4420000D01*
X15700000Y-5550000D02*
G75*
G02*
X15600000Y-5450000I0J100000D01*
G01*
X16010000Y-5280000D02*
X15940000Y-5350000D01*
X17080000Y-5350000D02*
X21230000Y-5350000D01*
X15600000Y-3970000D02*
X15600000Y-3520000D01*
X21530000Y-5550000D02*
G75*
G02*
X21530000Y-5350000I0J100000D01*
G01*
X15800000Y-3970000D02*
G75*
G02*
X15600000Y-3970000I-100000J0D01*
G01*
X24200000Y-3970000D02*
G75*
G02*
X24000000Y-3970000I-100000J0D01*
G01*
X24100000Y-5550000D02*
X21530000Y-5550000D01*
X24000000Y-3970000D02*
X24000000Y-3620000D01*
X23900000Y-4620000D02*
G75*
G02*
X23900000Y-4420000I0J100000D01*
G01*
X15900000Y-4620000D02*
X15800000Y-4620000D01*
X23900000Y-3520000D02*
X24000000Y-3620000D01*
X15940000Y-5350000D02*
X15800000Y-5350000D01*
X24000000Y-4270000D02*
G75*
G02*
X24200000Y-4270000I100000J0D01*
G01*
X19560000Y-3850000D02*
X19560000Y-3520000D01*
X24200000Y-5450000D02*
X24200000Y-4270000D01*
X15900000Y-3520000D02*
X15800000Y-3620000D01*
X23900000Y-3520000D02*
X19660000Y-3520000D01*
X15800000Y-4620000D02*
X15800000Y-5350000D01*
X6100000Y-8270000D02*
X6100000Y-8720000D01*
X14600000Y-6690000D02*
G75*
G02*
X14700000Y-6790000I0J-100000D01*
G01*
X6300000Y-7970000D02*
X6300000Y-7820000D01*
X13520000Y-6690000D02*
X14600000Y-6690000D01*
X13520000Y-6890000D02*
G75*
G02*
X13520000Y-6690000I0J100000D01*
G01*
X13220000Y-6690000D02*
G75*
G02*
X13220000Y-6890000I0J-100000D01*
G01*
X9070000Y-6690000D02*
X13220000Y-6690000D01*
X13680000Y-6890000D02*
X13520000Y-6890000D01*
X14500000Y-7970000D02*
X14500000Y-7820000D01*
X6200000Y-6690000D02*
X8770000Y-6690000D01*
X8770000Y-6690000D02*
G75*
G02*
X8770000Y-6890000I0J-100000D01*
G01*
X14700000Y-7970000D02*
G75*
G02*
X14500000Y-7970000I-100000J0D01*
G01*
X14500000Y-8270000D02*
G75*
G02*
X14700000Y-8270000I100000J0D01*
G01*
X8770000Y-6890000D02*
X6300000Y-6890000D01*
X6300000Y-7970000D02*
G75*
G02*
X6100000Y-7970000I-100000J0D01*
G01*
X14400000Y-8720000D02*
X14500000Y-8620000D01*
X13220000Y-6890000D02*
X9070000Y-6890000D01*
X14700000Y-8270000D02*
X14700000Y-8720000D01*
X6100000Y-8270000D02*
G75*
G02*
X6300000Y-8270000I100000J0D01*
G01*
X9070000Y-6890000D02*
G75*
G02*
X9070000Y-6690000I0J100000D01*
G01*
X6100000Y-6790000D02*
X6100000Y-7970000D01*
X6100000Y-6790000D02*
G75*
G02*
X6200000Y-6690000I100000J0D01*
G01*
X6400000Y-8720000D02*
X6300000Y-8620000D01*
X14700000Y-7970000D02*
X14700000Y-6790000D01*
X6300000Y-6890000D02*
X6300000Y-7620000D01*
X13750000Y-6960000D02*
X13680000Y-6890000D01*
X13750000Y-6960000D02*
X14290000Y-6960000D01*
X14290000Y-6960000D02*
X14360000Y-6890000D01*
X14360000Y-6890000D02*
X14500000Y-6890000D01*
X10640000Y-8390000D02*
G75*
G02*
X10740000Y-8390000I50000J0D01*
G01*
X6400000Y-7620000D02*
G75*
G02*
X6400000Y-7820000I0J-100000D01*
G01*
X14400000Y-7820000D02*
G75*
G02*
X14400000Y-7620000I0J100000D01*
G01*
X14500000Y-7620000D02*
X14500000Y-6890000D01*
X14400000Y-7620000D02*
X14500000Y-7620000D01*
X14500000Y-7820000D02*
X14400000Y-7820000D01*
X14500000Y-8620000D02*
X14500000Y-8270000D01*
X10740000Y-8720000D02*
X14400000Y-8720000D01*
X10740000Y-8390000D02*
X10740000Y-8720000D01*
X10640000Y-8720000D02*
X10640000Y-8390000D01*
X6400000Y-8720000D02*
X10640000Y-8720000D01*
X6300000Y-8270000D02*
X6300000Y-8620000D01*
X6400000Y-7820000D02*
X6300000Y-7820000D01*
X6300000Y-7620000D02*
X6400000Y-7620000D01*
X14700000Y-3970000D02*
X14700000Y-3520000D01*
X6200000Y-5550000D02*
G75*
G02*
X6100000Y-5450000I0J100000D01*
G01*
X14500000Y-4270000D02*
X14500000Y-4420000D01*
X7280000Y-5550000D02*
X6200000Y-5550000D01*
X7280000Y-5350000D02*
G75*
G02*
X7280000Y-5550000I0J-100000D01*
G01*
X7580000Y-5550000D02*
G75*
G02*
X7580000Y-5350000I0J100000D01*
G01*
X11730000Y-5550000D02*
X7580000Y-5550000D01*
X7120000Y-5350000D02*
X7280000Y-5350000D01*
X6300000Y-4270000D02*
X6300000Y-4420000D01*
X14600000Y-5550000D02*
X12030000Y-5550000D01*
X12030000Y-5550000D02*
G75*
G02*
X12030000Y-5350000I0J100000D01*
G01*
X6100000Y-4270000D02*
G75*
G02*
X6300000Y-4270000I100000J0D01*
G01*
X6300000Y-3970000D02*
G75*
G02*
X6100000Y-3970000I-100000J0D01*
G01*
X12030000Y-5350000D02*
X14500000Y-5350000D01*
X14500000Y-4270000D02*
G75*
G02*
X14700000Y-4270000I100000J0D01*
G01*
X6400000Y-3520000D02*
X6300000Y-3620000D01*
X7580000Y-5350000D02*
X11730000Y-5350000D01*
X6100000Y-3970000D02*
X6100000Y-3520000D01*
X14700000Y-3970000D02*
G75*
G02*
X14500000Y-3970000I-100000J0D01*
G01*
X11730000Y-5350000D02*
G75*
G02*
X11730000Y-5550000I0J-100000D01*
G01*
X14700000Y-5450000D02*
X14700000Y-4270000D01*
X14700000Y-5450000D02*
G75*
G02*
X14600000Y-5550000I-100000J0D01*
G01*
X14400000Y-3520000D02*
X14500000Y-3620000D01*
X6100000Y-4270000D02*
X6100000Y-5450000D01*
X14500000Y-5350000D02*
X14500000Y-4620000D01*
X7050000Y-5280000D02*
X7120000Y-5350000D01*
X6510000Y-5280000D02*
X6440000Y-5350000D01*
X6440000Y-5350000D02*
X6300000Y-5350000D01*
X10160000Y-3850000D02*
G75*
G02*
X10060000Y-3850000I-50000J0D01*
G01*
X14400000Y-4620000D02*
G75*
G02*
X14400000Y-4420000I0J100000D01*
G01*
X6400000Y-4420000D02*
G75*
G02*
X6400000Y-4620000I0J-100000D01*
G01*
X6300000Y-4620000D02*
X6300000Y-5350000D01*
X6400000Y-4620000D02*
X6300000Y-4620000D01*
X6300000Y-4420000D02*
X6400000Y-4420000D01*
X6300000Y-3620000D02*
X6300000Y-3970000D01*
X10060000Y-3520000D02*
X6400000Y-3520000D01*
X10060000Y-3850000D02*
X10060000Y-3520000D01*
X10160000Y-3520000D02*
X10160000Y-3850000D01*
X14400000Y-3520000D02*
X10160000Y-3520000D01*
X14500000Y-3970000D02*
X14500000Y-3620000D01*
X14400000Y-4420000D02*
X14500000Y-4420000D01*
X14500000Y-4620000D02*
X14400000Y-4620000D01*
X24200000Y-8270000D02*
X24200000Y-8720000D01*
X24000000Y-7970000D02*
X24000000Y-7820000D01*
X18270000Y-6890000D02*
X15800000Y-6890000D01*
X22720000Y-6890000D02*
X18570000Y-6890000D01*
X23180000Y-6890000D02*
X23020000Y-6890000D01*
X24100000Y-6690000D02*
G75*
G02*
X24200000Y-6790000I0J-100000D01*
G01*
X23020000Y-6690000D02*
X24100000Y-6690000D01*
X18570000Y-6690000D02*
X22720000Y-6690000D01*
X15700000Y-6690000D02*
X18270000Y-6690000D01*
X15800000Y-7970000D02*
X15800000Y-7820000D01*
X15600000Y-8270000D02*
X15600000Y-8720000D01*
X24200000Y-7970000D02*
G75*
G02*
X24000000Y-7970000I-100000J0D01*
G01*
X24000000Y-8270000D02*
G75*
G02*
X24200000Y-8270000I100000J0D01*
G01*
X15800000Y-7970000D02*
G75*
G02*
X15600000Y-7970000I-100000J0D01*
G01*
X15600000Y-8270000D02*
G75*
G02*
X15800000Y-8270000I100000J0D01*
G01*
X18570000Y-6890000D02*
G75*
G02*
X18570000Y-6690000I0J100000D01*
G01*
X18270000Y-6690000D02*
G75*
G02*
X18270000Y-6890000I0J-100000D01*
G01*
X22720000Y-6690000D02*
G75*
G02*
X22720000Y-6890000I0J-100000D01*
G01*
X23020000Y-6890000D02*
G75*
G02*
X23020000Y-6690000I0J100000D01*
G01*
X25700000Y-8720000D02*
X25700000Y-3520000D01*
X24200000Y-8720000D02*
X25700000Y-8720000D01*
X15600000Y-6790000D02*
G75*
G02*
X15700000Y-6690000I100000J0D01*
G01*
X14700000Y-8720000D02*
X15600000Y-8720000D01*
X15600000Y-6790000D02*
X15600000Y-7970000D01*
X24200000Y-7970000D02*
X24200000Y-6790000D01*
X4600000Y-8720000D02*
X6100000Y-8720000D01*
X4600000Y-3520000D02*
X4600000Y-8720000D01*
X6100000Y-3520000D02*
X4600000Y-3520000D01*
X15900000Y-8720000D02*
X15800000Y-8620000D01*
X23900000Y-8720000D02*
X24000000Y-8620000D01*
X23860000Y-6890000D02*
X24000000Y-6890000D01*
X23790000Y-6960000D02*
X23860000Y-6890000D01*
X23250000Y-6960000D02*
X23790000Y-6960000D01*
X23250000Y-6960000D02*
X23180000Y-6890000D01*
X15800000Y-6890000D02*
X15800000Y-7620000D01*
X15800000Y-7620000D02*
X15900000Y-7620000D01*
X15900000Y-7820000D02*
X15800000Y-7820000D01*
X15800000Y-8270000D02*
X15800000Y-8620000D01*
X15900000Y-8720000D02*
X20140000Y-8720000D01*
X20140000Y-8720000D02*
X20140000Y-8390000D01*
X20240000Y-8390000D02*
X20240000Y-8720000D01*
X20240000Y-8720000D02*
X23900000Y-8720000D01*
X24000000Y-8620000D02*
X24000000Y-8270000D01*
X24000000Y-7820000D02*
X23900000Y-7820000D01*
X23900000Y-7620000D02*
X24000000Y-7620000D01*
X24000000Y-7620000D02*
X24000000Y-6890000D01*
X23900000Y-7820000D02*
G75*
G02*
X23900000Y-7620000I0J100000D01*
G01*
X15900000Y-7620000D02*
G75*
G02*
X15900000Y-7820000I0J-100000D01*
G01*
X20140000Y-8390000D02*
G75*
G02*
X20240000Y-8390000I50000J0D01*
G01*
D11*
X6410000Y-4030000D02*
X6590000Y-4210000D01*
X6590000Y-4030000D02*
X6410000Y-4210000D01*
X6410000Y-8030000D02*
X6590000Y-8210000D01*
X6590000Y-8030000D02*
X6410000Y-8210000D01*
X14210000Y-4030000D02*
X14390000Y-4210000D01*
X14390000Y-4030000D02*
X14210000Y-4210000D01*
X14210000Y-8030000D02*
X14390000Y-8210000D01*
X14390000Y-8030000D02*
X14210000Y-8210000D01*
X15910000Y-4030000D02*
X16090000Y-4210000D01*
X16090000Y-4030000D02*
X15910000Y-4210000D01*
X15910000Y-8030000D02*
X16090000Y-8210000D01*
X16090000Y-8030000D02*
X15910000Y-8210000D01*
X23710000Y-4030000D02*
X23890000Y-4210000D01*
X23890000Y-4030000D02*
X23710000Y-4210000D01*
X23710000Y-8030000D02*
X23890000Y-8210000D01*
X23890000Y-8030000D02*
X23710000Y-8210000D01*
D12*
X4878928Y-9193214D02*
X4878928Y-8893214D01*
X4950357Y-8893214D01*
X4993214Y-8907500D01*
X5021786Y-8936072D01*
X5036071Y-8964643D01*
X5050357Y-9021786D01*
X5050357Y-9064643D01*
X5036071Y-9121786D01*
X5021786Y-9150357D01*
X4993214Y-9178929D01*
X4950357Y-9193214D01*
X4878928Y-9193214D01*
X5178928Y-9193214D02*
X5178928Y-8993214D01*
X5178928Y-9050357D02*
X5193214Y-9021786D01*
X5207500Y-9007500D01*
X5236071Y-8993214D01*
X5264643Y-8993214D01*
X5364643Y-9193214D02*
X5364643Y-8993214D01*
X5364643Y-8893214D02*
X5350357Y-8907500D01*
X5364643Y-8921786D01*
X5378928Y-8907500D01*
X5364643Y-8893214D01*
X5364643Y-8921786D01*
X5550357Y-9193214D02*
X5521786Y-9178929D01*
X5507500Y-9150357D01*
X5507500Y-8893214D01*
X5707500Y-9193214D02*
X5678928Y-9178929D01*
X5664643Y-9150357D01*
X5664643Y-8893214D01*
X6050357Y-9193214D02*
X6050357Y-8893214D01*
X6150357Y-9107500D01*
X6250357Y-8893214D01*
X6250357Y-9193214D01*
X6521786Y-9193214D02*
X6521786Y-9036072D01*
X6507500Y-9007500D01*
X6478928Y-8993214D01*
X6421786Y-8993214D01*
X6393214Y-9007500D01*
X6521786Y-9178929D02*
X6493214Y-9193214D01*
X6421786Y-9193214D01*
X6393214Y-9178929D01*
X6378928Y-9150357D01*
X6378928Y-9121786D01*
X6393214Y-9093214D01*
X6421786Y-9078929D01*
X6493214Y-9078929D01*
X6521786Y-9064643D01*
X6664643Y-8993214D02*
X6664643Y-9293214D01*
X6664643Y-9007500D02*
X6693214Y-8993214D01*
X6750357Y-8993214D01*
X6778928Y-9007500D01*
X6793214Y-9021786D01*
X6807500Y-9050357D01*
X6807500Y-9136072D01*
X6793214Y-9164643D01*
X6778928Y-9178929D01*
X6750357Y-9193214D01*
X6693214Y-9193214D01*
X6664643Y-9178929D01*
X6936071Y-9164643D02*
X6950357Y-9178929D01*
X6936071Y-9193214D01*
X6921786Y-9178929D01*
X6936071Y-9164643D01*
X6936071Y-9193214D01*
X6936071Y-9007500D02*
X6950357Y-9021786D01*
X6936071Y-9036072D01*
X6921786Y-9021786D01*
X6936071Y-9007500D01*
X6936071Y-9036072D01*
X4412500Y-9597500D02*
X4592500Y-9777500D01*
X4592500Y-9597500D02*
X4412500Y-9777500D01*
X5036071Y-9823214D02*
X4864643Y-9823214D01*
X4950357Y-9823214D02*
X4950357Y-9523214D01*
X4921786Y-9566072D01*
X4893214Y-9594643D01*
X4864643Y-9608929D01*
X5164643Y-9794643D02*
X5178928Y-9808929D01*
X5164643Y-9823214D01*
X5150357Y-9808929D01*
X5164643Y-9794643D01*
X5164643Y-9823214D01*
X5350357Y-9651786D02*
X5321786Y-9637500D01*
X5307500Y-9623214D01*
X5293214Y-9594643D01*
X5293214Y-9580357D01*
X5307500Y-9551786D01*
X5321786Y-9537500D01*
X5350357Y-9523214D01*
X5407500Y-9523214D01*
X5436071Y-9537500D01*
X5450357Y-9551786D01*
X5464643Y-9580357D01*
X5464643Y-9594643D01*
X5450357Y-9623214D01*
X5436071Y-9637500D01*
X5407500Y-9651786D01*
X5350357Y-9651786D01*
X5321786Y-9666072D01*
X5307500Y-9680357D01*
X5293214Y-9708929D01*
X5293214Y-9766072D01*
X5307500Y-9794643D01*
X5321786Y-9808929D01*
X5350357Y-9823214D01*
X5407500Y-9823214D01*
X5436071Y-9808929D01*
X5450357Y-9794643D01*
X5464643Y-9766072D01*
X5464643Y-9708929D01*
X5450357Y-9680357D01*
X5436071Y-9666072D01*
X5407500Y-9651786D01*
X5650357Y-9523214D02*
X5678928Y-9523214D01*
X5707500Y-9537500D01*
X5721786Y-9551786D01*
X5736071Y-9580357D01*
X5750357Y-9637500D01*
X5750357Y-9708929D01*
X5736071Y-9766072D01*
X5721786Y-9794643D01*
X5707500Y-9808929D01*
X5678928Y-9823214D01*
X5650357Y-9823214D01*
X5621786Y-9808929D01*
X5607500Y-9794643D01*
X5593214Y-9766072D01*
X5578928Y-9708929D01*
X5578928Y-9637500D01*
X5593214Y-9580357D01*
X5607500Y-9551786D01*
X5621786Y-9537500D01*
X5650357Y-9523214D01*
X5878928Y-9823214D02*
X5878928Y-9623214D01*
X5878928Y-9651786D02*
X5893214Y-9637500D01*
X5921786Y-9623214D01*
X5964643Y-9623214D01*
X5993214Y-9637500D01*
X6007500Y-9666072D01*
X6007500Y-9823214D01*
X6007500Y-9666072D02*
X6021786Y-9637500D01*
X6050357Y-9623214D01*
X6093214Y-9623214D01*
X6121786Y-9637500D01*
X6136071Y-9666072D01*
X6136071Y-9823214D01*
X6278928Y-9823214D02*
X6278928Y-9623214D01*
X6278928Y-9651786D02*
X6293214Y-9637500D01*
X6321786Y-9623214D01*
X6364643Y-9623214D01*
X6393214Y-9637500D01*
X6407500Y-9666072D01*
X6407500Y-9823214D01*
X6407500Y-9666072D02*
X6421786Y-9637500D01*
X6450357Y-9623214D01*
X6493214Y-9623214D01*
X6521786Y-9637500D01*
X6536071Y-9666072D01*
X6536071Y-9823214D01*
X7121786Y-9508929D02*
X6864643Y-9894643D01*
X7507500Y-9523214D02*
X7536071Y-9523214D01*
X7564643Y-9537500D01*
X7578928Y-9551786D01*
X7593214Y-9580357D01*
X7607500Y-9637500D01*
X7607500Y-9708929D01*
X7593214Y-9766072D01*
X7578928Y-9794643D01*
X7564643Y-9808929D01*
X7536071Y-9823214D01*
X7507500Y-9823214D01*
X7478928Y-9808929D01*
X7464643Y-9794643D01*
X7450357Y-9766072D01*
X7436071Y-9708929D01*
X7436071Y-9637500D01*
X7450357Y-9580357D01*
X7464643Y-9551786D01*
X7478928Y-9537500D01*
X7507500Y-9523214D01*
X7736071Y-9794643D02*
X7750357Y-9808929D01*
X7736071Y-9823214D01*
X7721786Y-9808929D01*
X7736071Y-9794643D01*
X7736071Y-9823214D01*
X7936071Y-9523214D02*
X7964643Y-9523214D01*
X7993214Y-9537500D01*
X8007500Y-9551786D01*
X8021786Y-9580357D01*
X8036071Y-9637500D01*
X8036071Y-9708929D01*
X8021786Y-9766072D01*
X8007500Y-9794643D01*
X7993214Y-9808929D01*
X7964643Y-9823214D01*
X7936071Y-9823214D01*
X7907500Y-9808929D01*
X7893214Y-9794643D01*
X7878928Y-9766072D01*
X7864643Y-9708929D01*
X7864643Y-9637500D01*
X7878928Y-9580357D01*
X7893214Y-9551786D01*
X7907500Y-9537500D01*
X7936071Y-9523214D01*
X8136071Y-9523214D02*
X8336071Y-9523214D01*
X8207500Y-9823214D01*
X8607500Y-9823214D02*
X8436071Y-9823214D01*
X8521786Y-9823214D02*
X8521786Y-9523214D01*
X8493214Y-9566072D01*
X8464643Y-9594643D01*
X8436071Y-9608929D01*
X8721786Y-9523214D02*
X8721786Y-9580357D01*
X8836071Y-9523214D02*
X8836071Y-9580357D01*
X9278928Y-9937500D02*
X9264643Y-9923214D01*
X9236071Y-9880357D01*
X9221786Y-9851786D01*
X9207500Y-9808929D01*
X9193214Y-9737500D01*
X9193214Y-9680357D01*
X9207500Y-9608929D01*
X9221786Y-9566072D01*
X9236071Y-9537500D01*
X9264643Y-9494643D01*
X9278928Y-9480357D01*
X9436071Y-9651786D02*
X9407500Y-9637500D01*
X9393214Y-9623214D01*
X9378928Y-9594643D01*
X9378928Y-9580357D01*
X9393214Y-9551786D01*
X9407500Y-9537500D01*
X9436071Y-9523214D01*
X9493214Y-9523214D01*
X9521786Y-9537500D01*
X9536071Y-9551786D01*
X9550357Y-9580357D01*
X9550357Y-9594643D01*
X9536071Y-9623214D01*
X9521786Y-9637500D01*
X9493214Y-9651786D01*
X9436071Y-9651786D01*
X9407500Y-9666072D01*
X9393214Y-9680357D01*
X9378928Y-9708929D01*
X9378928Y-9766072D01*
X9393214Y-9794643D01*
X9407500Y-9808929D01*
X9436071Y-9823214D01*
X9493214Y-9823214D01*
X9521786Y-9808929D01*
X9536071Y-9794643D01*
X9550357Y-9766072D01*
X9550357Y-9708929D01*
X9536071Y-9680357D01*
X9521786Y-9666072D01*
X9493214Y-9651786D01*
X9907500Y-9823214D02*
X9907500Y-9523214D01*
X10036071Y-9823214D02*
X10036071Y-9666072D01*
X10021786Y-9637500D01*
X9993214Y-9623214D01*
X9950357Y-9623214D01*
X9921786Y-9637500D01*
X9907500Y-9651786D01*
X10221786Y-9823214D02*
X10193214Y-9808929D01*
X10178928Y-9794643D01*
X10164643Y-9766072D01*
X10164643Y-9680357D01*
X10178928Y-9651786D01*
X10193214Y-9637500D01*
X10221786Y-9623214D01*
X10264643Y-9623214D01*
X10293214Y-9637500D01*
X10307500Y-9651786D01*
X10321786Y-9680357D01*
X10321786Y-9766072D01*
X10307500Y-9794643D01*
X10293214Y-9808929D01*
X10264643Y-9823214D01*
X10221786Y-9823214D01*
X10493214Y-9823214D02*
X10464643Y-9808929D01*
X10450357Y-9780357D01*
X10450357Y-9523214D01*
X10721786Y-9808929D02*
X10693214Y-9823214D01*
X10636071Y-9823214D01*
X10607500Y-9808929D01*
X10593214Y-9780357D01*
X10593214Y-9666072D01*
X10607500Y-9637500D01*
X10636071Y-9623214D01*
X10693214Y-9623214D01*
X10721786Y-9637500D01*
X10736071Y-9666072D01*
X10736071Y-9694643D01*
X10593214Y-9723214D01*
X10850357Y-9808929D02*
X10878928Y-9823214D01*
X10936071Y-9823214D01*
X10964643Y-9808929D01*
X10978928Y-9780357D01*
X10978928Y-9766072D01*
X10964643Y-9737500D01*
X10936071Y-9723214D01*
X10893214Y-9723214D01*
X10864643Y-9708929D01*
X10850357Y-9680357D01*
X10850357Y-9666072D01*
X10864643Y-9637500D01*
X10893214Y-9623214D01*
X10936071Y-9623214D01*
X10964643Y-9637500D01*
X11078928Y-9937500D02*
X11093214Y-9923214D01*
X11121786Y-9880357D01*
X11136071Y-9851786D01*
X11150357Y-9808929D01*
X11164643Y-9737500D01*
X11164643Y-9680357D01*
X11150357Y-9608929D01*
X11136071Y-9566072D01*
X11121786Y-9537500D01*
X11093214Y-9494643D01*
X11078928Y-9480357D01*
X11621786Y-9937500D02*
X11607500Y-9923214D01*
X11578928Y-9880357D01*
X11564643Y-9851786D01*
X11550357Y-9808929D01*
X11536071Y-9737500D01*
X11536071Y-9680357D01*
X11550357Y-9608929D01*
X11564643Y-9566072D01*
X11578928Y-9537500D01*
X11607500Y-9494643D01*
X11621786Y-9480357D01*
X11736071Y-9623214D02*
X11736071Y-9823214D01*
X11736071Y-9651786D02*
X11750357Y-9637500D01*
X11778928Y-9623214D01*
X11821786Y-9623214D01*
X11850357Y-9637500D01*
X11864643Y-9666072D01*
X11864643Y-9823214D01*
X12050357Y-9823214D02*
X12021786Y-9808929D01*
X12007500Y-9794643D01*
X11993214Y-9766072D01*
X11993214Y-9680357D01*
X12007500Y-9651786D01*
X12021786Y-9637500D01*
X12050357Y-9623214D01*
X12093214Y-9623214D01*
X12121786Y-9637500D01*
X12136071Y-9651786D01*
X12150357Y-9680357D01*
X12150357Y-9766072D01*
X12136071Y-9794643D01*
X12121786Y-9808929D01*
X12093214Y-9823214D01*
X12050357Y-9823214D01*
X12236071Y-9623214D02*
X12350357Y-9623214D01*
X12278928Y-9523214D02*
X12278928Y-9780357D01*
X12293214Y-9808929D01*
X12321786Y-9823214D01*
X12350357Y-9823214D01*
X12678928Y-9623214D02*
X12678928Y-9923214D01*
X12678928Y-9637500D02*
X12707500Y-9623214D01*
X12764643Y-9623214D01*
X12793214Y-9637500D01*
X12807500Y-9651786D01*
X12821786Y-9680357D01*
X12821786Y-9766072D01*
X12807500Y-9794643D01*
X12793214Y-9808929D01*
X12764643Y-9823214D01*
X12707500Y-9823214D01*
X12678928Y-9808929D01*
X12993214Y-9823214D02*
X12964643Y-9808929D01*
X12950357Y-9780357D01*
X12950357Y-9523214D01*
X13236071Y-9823214D02*
X13236071Y-9666072D01*
X13221786Y-9637500D01*
X13193214Y-9623214D01*
X13136071Y-9623214D01*
X13107500Y-9637500D01*
X13236071Y-9808929D02*
X13207500Y-9823214D01*
X13136071Y-9823214D01*
X13107500Y-9808929D01*
X13093214Y-9780357D01*
X13093214Y-9751786D01*
X13107500Y-9723214D01*
X13136071Y-9708929D01*
X13207500Y-9708929D01*
X13236071Y-9694643D01*
X13336071Y-9623214D02*
X13450357Y-9623214D01*
X13378928Y-9523214D02*
X13378928Y-9780357D01*
X13393214Y-9808929D01*
X13421786Y-9823214D01*
X13450357Y-9823214D01*
X13664643Y-9808929D02*
X13636071Y-9823214D01*
X13578928Y-9823214D01*
X13550357Y-9808929D01*
X13536071Y-9780357D01*
X13536071Y-9666072D01*
X13550357Y-9637500D01*
X13578928Y-9623214D01*
X13636071Y-9623214D01*
X13664643Y-9637500D01*
X13678928Y-9666072D01*
X13678928Y-9694643D01*
X13536071Y-9723214D01*
X13936071Y-9823214D02*
X13936071Y-9523214D01*
X13936071Y-9808929D02*
X13907500Y-9823214D01*
X13850357Y-9823214D01*
X13821786Y-9808929D01*
X13807500Y-9794643D01*
X13793214Y-9766072D01*
X13793214Y-9680357D01*
X13807500Y-9651786D01*
X13821786Y-9637500D01*
X13850357Y-9623214D01*
X13907500Y-9623214D01*
X13936071Y-9637500D01*
X14050357Y-9937500D02*
X14064643Y-9923214D01*
X14093214Y-9880357D01*
X14107500Y-9851786D01*
X14121786Y-9808929D01*
X14136071Y-9737500D01*
X14136071Y-9680357D01*
X14121786Y-9608929D01*
X14107500Y-9566072D01*
X14093214Y-9537500D01*
X14064643Y-9494643D01*
X14050357Y-9480357D01*
M02*
