(kicad_symbol_lib (version 20220914) (generator kicad_symbol_editor)
  (symbol "+3.3VA-power" (power) (pin_names (offset 0)) (in_bom yes) (on_board yes)
    (property "Reference" "#PWR" (at 0 -3.81 0)
      (effects (font (size 1.27 1.27)) hide)
    )
    (property "Value" "+3.3VA-power" (at 0 3.556 0)
      (effects (font (size 1.27 1.27)))
    )
    (property "Footprint" "" (at 0 0 0)
      (effects (font (size 1.27 1.27)) hide)
    )
    (property "Datasheet" "" (at 0 0 0)
      (effects (font (size 1.27 1.27)) hide)
    )
    (symbol "+3.3VA-power_0_1"
      (polyline
        (pts
          (xy -0.762 1.27)
          (xy 0 2.54)
        )
        (stroke (width 0) (type solid))
        (fill (type none))
      )
      (polyline
        (pts
          (xy 0 0)
          (xy 0 2.54)
        )
        (stroke (width 0) (type solid))
        (fill (type none))
      )
      (polyline
        (pts
          (xy 0 2.54)
          (xy 0.762 1.27)
        )
        (stroke (width 0) (type solid))
        (fill (type none))
      )
    )
    (symbol "+3.3VA-power_1_1"
      (pin power_in line (at 0 0 90) (length 0) hide
        (name "+3.3VA" (effects (font (size 1.27 1.27))))
        (number "1" (effects (font (size 1.27 1.27))))
      )
    )
  )
  (symbol "+3V3-power" (power) (pin_names (offset 0)) (in_bom yes) (on_board yes)
    (property "Reference" "#PWR" (at 0 -3.81 0)
      (effects (font (size 1.27 1.27)) hide)
    )
    (property "Value" "+3V3-power" (at 0 3.556 0)
      (effects (font (size 1.27 1.27)))
    )
    (property "Footprint" "" (at 0 0 0)
      (effects (font (size 1.27 1.27)) hide)
    )
    (property "Datasheet" "" (at 0 0 0)
      (effects (font (size 1.27 1.27)) hide)
    )
    (symbol "+3V3-power_0_1"
      (polyline
        (pts
          (xy -0.762 1.27)
          (xy 0 2.54)
        )
        (stroke (width 0) (type solid))
        (fill (type none))
      )
      (polyline
        (pts
          (xy 0 0)
          (xy 0 2.54)
        )
        (stroke (width 0) (type solid))
        (fill (type none))
      )
      (polyline
        (pts
          (xy 0 2.54)
          (xy 0.762 1.27)
        )
        (stroke (width 0) (type solid))
        (fill (type none))
      )
    )
    (symbol "+3V3-power_1_1"
      (pin power_in line (at 0 0 90) (length 0) hide
        (name "+3V3" (effects (font (size 1.27 1.27))))
        (number "1" (effects (font (size 1.27 1.27))))
      )
    )
  )
  (symbol "C-Device" (pin_numbers hide) (pin_names (offset 0.254)) (in_bom yes) (on_board yes)
    (property "Reference" "C" (at 0.635 2.54 0)
      (effects (font (size 1.27 1.27)) (justify left))
    )
    (property "Value" "Device_C" (at 0.635 -2.54 0)
      (effects (font (size 1.27 1.27)) (justify left))
    )
    (property "Footprint" "" (at 0.9652 -3.81 0)
      (effects (font (size 1.27 1.27)) hide)
    )
    (property "Datasheet" "" (at 0 0 0)
      (effects (font (size 1.27 1.27)) hide)
    )
    (property "ki_fp_filters" "C_*" (at 0 0 0)
      (effects (font (size 1.27 1.27)) hide)
    )
    (symbol "C-Device_0_1"
      (polyline
        (pts
          (xy -2.032 -0.762)
          (xy 2.032 -0.762)
        )
        (stroke (width 0.508) (type solid))
        (fill (type none))
      )
      (polyline
        (pts
          (xy -2.032 0.762)
          (xy 2.032 0.762)
        )
        (stroke (width 0.508) (type solid))
        (fill (type none))
      )
    )
    (symbol "C-Device_1_1"
      (pin passive line (at 0 3.81 270) (length 2.794)
        (name "~" (effects (font (size 1.27 1.27))))
        (number "1" (effects (font (size 1.27 1.27))))
      )
      (pin passive line (at 0 -3.81 90) (length 2.794)
        (name "~" (effects (font (size 1.27 1.27))))
        (number "2" (effects (font (size 1.27 1.27))))
      )
    )
  )
  (symbol "Conn_02x03_Odd_Even-Connector_Generic" (pin_names (offset 1.016) hide) (in_bom yes) (on_board yes)
    (property "Reference" "J" (at 1.27 5.08 0)
      (effects (font (size 1.27 1.27)))
    )
    (property "Value" "Connector_Generic_Conn_02x03_Odd_Even" (at 1.27 -5.08 0)
      (effects (font (size 1.27 1.27)))
    )
    (property "Footprint" "" (at 0 0 0)
      (effects (font (size 1.27 1.27)) hide)
    )
    (property "Datasheet" "" (at 0 0 0)
      (effects (font (size 1.27 1.27)) hide)
    )
    (property "ki_fp_filters" "Connector*:*_2x??_*" (at 0 0 0)
      (effects (font (size 1.27 1.27)) hide)
    )
    (symbol "Conn_02x03_Odd_Even-Connector_Generic_1_1"
      (rectangle (start -1.27 -2.413) (end 0 -2.667)
        (stroke (width 0.1524) (type solid))
        (fill (type none))
      )
      (rectangle (start -1.27 0.127) (end 0 -0.127)
        (stroke (width 0.1524) (type solid))
        (fill (type none))
      )
      (rectangle (start -1.27 2.667) (end 0 2.413)
        (stroke (width 0.1524) (type solid))
        (fill (type none))
      )
      (rectangle (start -1.27 3.81) (end 3.81 -3.81)
        (stroke (width 0.254) (type solid))
        (fill (type background))
      )
      (rectangle (start 3.81 -2.413) (end 2.54 -2.667)
        (stroke (width 0.1524) (type solid))
        (fill (type none))
      )
      (rectangle (start 3.81 0.127) (end 2.54 -0.127)
        (stroke (width 0.1524) (type solid))
        (fill (type none))
      )
      (rectangle (start 3.81 2.667) (end 2.54 2.413)
        (stroke (width 0.1524) (type solid))
        (fill (type none))
      )
      (pin passive line (at -5.08 2.54 0) (length 3.81)
        (name "Pin_1" (effects (font (size 1.27 1.27))))
        (number "1" (effects (font (size 1.27 1.27))))
      )
      (pin passive line (at 7.62 2.54 180) (length 3.81)
        (name "Pin_2" (effects (font (size 1.27 1.27))))
        (number "2" (effects (font (size 1.27 1.27))))
      )
      (pin passive line (at -5.08 0 0) (length 3.81)
        (name "Pin_3" (effects (font (size 1.27 1.27))))
        (number "3" (effects (font (size 1.27 1.27))))
      )
      (pin passive line (at 7.62 0 180) (length 3.81)
        (name "Pin_4" (effects (font (size 1.27 1.27))))
        (number "4" (effects (font (size 1.27 1.27))))
      )
      (pin passive line (at -5.08 -2.54 0) (length 3.81)
        (name "Pin_5" (effects (font (size 1.27 1.27))))
        (number "5" (effects (font (size 1.27 1.27))))
      )
      (pin passive line (at 7.62 -2.54 180) (length 3.81)
        (name "Pin_6" (effects (font (size 1.27 1.27))))
        (number "6" (effects (font (size 1.27 1.27))))
      )
    )
  )
  (symbol "Crystal-Device" (pin_numbers hide) (pin_names (offset 1.016) hide) (in_bom yes) (on_board yes)
    (property "Reference" "Y" (at 0 3.81 0)
      (effects (font (size 1.27 1.27)))
    )
    (property "Value" "Device_Crystal" (at 0 -3.81 0)
      (effects (font (size 1.27 1.27)))
    )
    (property "Footprint" "" (at 0 0 0)
      (effects (font (size 1.27 1.27)) hide)
    )
    (property "Datasheet" "" (at 0 0 0)
      (effects (font (size 1.27 1.27)) hide)
    )
    (property "ki_fp_filters" "Crystal*" (at 0 0 0)
      (effects (font (size 1.27 1.27)) hide)
    )
    (symbol "Crystal-Device_0_1"
      (rectangle (start -1.143 2.54) (end 1.143 -2.54)
        (stroke (width 0.3048) (type solid))
        (fill (type none))
      )
      (polyline
        (pts
          (xy -2.54 0)
          (xy -1.905 0)
        )
        (stroke (width 0) (type solid))
        (fill (type none))
      )
      (polyline
        (pts
          (xy -1.905 -1.27)
          (xy -1.905 1.27)
        )
        (stroke (width 0.508) (type solid))
        (fill (type none))
      )
      (polyline
        (pts
          (xy 1.905 -1.27)
          (xy 1.905 1.27)
        )
        (stroke (width 0.508) (type solid))
        (fill (type none))
      )
      (polyline
        (pts
          (xy 2.54 0)
          (xy 1.905 0)
        )
        (stroke (width 0) (type solid))
        (fill (type none))
      )
    )
    (symbol "Crystal-Device_1_1"
      (pin passive line (at -3.81 0 0) (length 1.27)
        (name "1" (effects (font (size 1.27 1.27))))
        (number "1" (effects (font (size 1.27 1.27))))
      )
      (pin passive line (at 3.81 0 180) (length 1.27)
        (name "2" (effects (font (size 1.27 1.27))))
        (number "2" (effects (font (size 1.27 1.27))))
      )
    )
  )
  (symbol "Crystal_GND24-Device" (pin_names (offset 1.016) hide) (in_bom yes) (on_board yes)
    (property "Reference" "Y" (at 3.175 5.08 0)
      (effects (font (size 1.27 1.27)) (justify left))
    )
    (property "Value" "Device_Crystal_GND24" (at 3.175 3.175 0)
      (effects (font (size 1.27 1.27)) (justify left))
    )
    (property "Footprint" "" (at 0 0 0)
      (effects (font (size 1.27 1.27)) hide)
    )
    (property "Datasheet" "" (at 0 0 0)
      (effects (font (size 1.27 1.27)) hide)
    )
    (property "ki_fp_filters" "Crystal*" (at 0 0 0)
      (effects (font (size 1.27 1.27)) hide)
    )
    (symbol "Crystal_GND24-Device_0_1"
      (rectangle (start -1.143 2.54) (end 1.143 -2.54)
        (stroke (width 0.3048) (type solid))
        (fill (type none))
      )
      (polyline
        (pts
          (xy -2.54 0)
          (xy -2.032 0)
        )
        (stroke (width 0) (type solid))
        (fill (type none))
      )
      (polyline
        (pts
          (xy -2.032 -1.27)
          (xy -2.032 1.27)
        )
        (stroke (width 0.508) (type solid))
        (fill (type none))
      )
      (polyline
        (pts
          (xy 0 -3.81)
          (xy 0 -3.556)
        )
        (stroke (width 0) (type solid))
        (fill (type none))
      )
      (polyline
        (pts
          (xy 0 3.556)
          (xy 0 3.81)
        )
        (stroke (width 0) (type solid))
        (fill (type none))
      )
      (polyline
        (pts
          (xy 2.032 -1.27)
          (xy 2.032 1.27)
        )
        (stroke (width 0.508) (type solid))
        (fill (type none))
      )
      (polyline
        (pts
          (xy 2.032 0)
          (xy 2.54 0)
        )
        (stroke (width 0) (type solid))
        (fill (type none))
      )
      (polyline
        (pts
          (xy -2.54 -2.286)
          (xy -2.54 -3.556)
          (xy 2.54 -3.556)
          (xy 2.54 -2.286)
        )
        (stroke (width 0) (type solid))
        (fill (type none))
      )
      (polyline
        (pts
          (xy -2.54 2.286)
          (xy -2.54 3.556)
          (xy 2.54 3.556)
          (xy 2.54 2.286)
        )
        (stroke (width 0) (type solid))
        (fill (type none))
      )
    )
    (symbol "Crystal_GND24-Device_1_1"
      (pin passive line (at -3.81 0 0) (length 1.27)
        (name "1" (effects (font (size 1.27 1.27))))
        (number "1" (effects (font (size 1.27 1.27))))
      )
      (pin passive line (at 0 5.08 270) (length 1.27)
        (name "2" (effects (font (size 1.27 1.27))))
        (number "2" (effects (font (size 1.27 1.27))))
      )
      (pin passive line (at 3.81 0 180) (length 1.27)
        (name "3" (effects (font (size 1.27 1.27))))
        (number "3" (effects (font (size 1.27 1.27))))
      )
      (pin passive line (at 0 -5.08 90) (length 1.27)
        (name "4" (effects (font (size 1.27 1.27))))
        (number "4" (effects (font (size 1.27 1.27))))
      )
    )
  )
  (symbol "D_Schottky-Device" (pin_numbers hide) (pin_names (offset 1.016) hide) (in_bom yes) (on_board yes)
    (property "Reference" "D" (at 0 2.54 0)
      (effects (font (size 1.27 1.27)))
    )
    (property "Value" "Device_D_Schottky" (at 0 -2.54 0)
      (effects (font (size 1.27 1.27)))
    )
    (property "Footprint" "" (at 0 0 0)
      (effects (font (size 1.27 1.27)) hide)
    )
    (property "Datasheet" "" (at 0 0 0)
      (effects (font (size 1.27 1.27)) hide)
    )
    (property "ki_fp_filters" "TO-???* *_Diode_* *SingleDiode* D_*" (at 0 0 0)
      (effects (font (size 1.27 1.27)) hide)
    )
    (symbol "D_Schottky-Device_0_1"
      (polyline
        (pts
          (xy 1.27 0)
          (xy -1.27 0)
        )
        (stroke (width 0) (type solid))
        (fill (type none))
      )
      (polyline
        (pts
          (xy 1.27 1.27)
          (xy 1.27 -1.27)
          (xy -1.27 0)
          (xy 1.27 1.27)
        )
        (stroke (width 0.254) (type solid))
        (fill (type none))
      )
      (polyline
        (pts
          (xy -1.905 0.635)
          (xy -1.905 1.27)
          (xy -1.27 1.27)
          (xy -1.27 -1.27)
          (xy -0.635 -1.27)
          (xy -0.635 -0.635)
        )
        (stroke (width 0.254) (type solid))
        (fill (type none))
      )
    )
    (symbol "D_Schottky-Device_1_1"
      (pin passive line (at -3.81 0 0) (length 2.54)
        (name "K" (effects (font (size 1.27 1.27))))
        (number "1" (effects (font (size 1.27 1.27))))
      )
      (pin passive line (at 3.81 0 180) (length 2.54)
        (name "A" (effects (font (size 1.27 1.27))))
        (number "2" (effects (font (size 1.27 1.27))))
      )
    )
  )
  (symbol "Ferrite_Bead-Device" (pin_numbers hide) (pin_names (offset 0)) (in_bom yes) (on_board yes)
    (property "Reference" "FB" (at -3.81 0.635 90)
      (effects (font (size 1.27 1.27)))
    )
    (property "Value" "Device_Ferrite_Bead" (at 3.81 0 90)
      (effects (font (size 1.27 1.27)))
    )
    (property "Footprint" "" (at -1.778 0 90)
      (effects (font (size 1.27 1.27)) hide)
    )
    (property "Datasheet" "" (at 0 0 0)
      (effects (font (size 1.27 1.27)) hide)
    )
    (property "ki_fp_filters" "Inductor_* L_* *Ferrite*" (at 0 0 0)
      (effects (font (size 1.27 1.27)) hide)
    )
    (symbol "Ferrite_Bead-Device_0_1"
      (polyline
        (pts
          (xy 0 -1.27)
          (xy 0 -1.2192)
        )
        (stroke (width 0) (type solid))
        (fill (type none))
      )
      (polyline
        (pts
          (xy 0 1.27)
          (xy 0 1.2954)
        )
        (stroke (width 0) (type solid))
        (fill (type none))
      )
      (polyline
        (pts
          (xy -2.7686 0.4064)
          (xy -1.7018 2.2606)
          (xy 2.7686 -0.3048)
          (xy 1.6764 -2.159)
          (xy -2.7686 0.4064)
        )
        (stroke (width 0) (type solid))
        (fill (type none))
      )
    )
    (symbol "Ferrite_Bead-Device_1_1"
      (pin passive line (at 0 3.81 270) (length 2.54)
        (name "~" (effects (font (size 1.27 1.27))))
        (number "1" (effects (font (size 1.27 1.27))))
      )
      (pin passive line (at 0 -3.81 90) (length 2.54)
        (name "~" (effects (font (size 1.27 1.27))))
        (number "2" (effects (font (size 1.27 1.27))))
      )
    )
  )
  (symbol "Fiducial-Mechanical" (in_bom yes) (on_board yes)
    (property "Reference" "FID" (at 0 5.08 0)
      (effects (font (size 1.27 1.27)))
    )
    (property "Value" "Mechanical_Fiducial" (at 0 3.175 0)
      (effects (font (size 1.27 1.27)))
    )
    (property "Footprint" "" (at 0 0 0)
      (effects (font (size 1.27 1.27)) hide)
    )
    (property "Datasheet" "" (at 0 0 0)
      (effects (font (size 1.27 1.27)) hide)
    )
    (property "ki_fp_filters" "Fiducial*" (at 0 0 0)
      (effects (font (size 1.27 1.27)) hide)
    )
    (symbol "Fiducial-Mechanical_0_1"
      (circle (center 0 0) (radius 1.27)
        (stroke (width 0.508) (type solid))
        (fill (type background))
      )
    )
  )
  (symbol "GND-power" (power) (pin_names (offset 0)) (in_bom yes) (on_board yes)
    (property "Reference" "#PWR" (at 0 -6.35 0)
      (effects (font (size 1.27 1.27)) hide)
    )
    (property "Value" "GND-power" (at 0 -3.81 0)
      (effects (font (size 1.27 1.27)))
    )
    (property "Footprint" "" (at 0 0 0)
      (effects (font (size 1.27 1.27)) hide)
    )
    (property "Datasheet" "" (at 0 0 0)
      (effects (font (size 1.27 1.27)) hide)
    )
    (symbol "GND-power_0_1"
      (polyline
        (pts
          (xy 0 0)
          (xy 0 -1.27)
          (xy 1.27 -1.27)
          (xy 0 -2.54)
          (xy -1.27 -1.27)
          (xy 0 -1.27)
        )
        (stroke (width 0) (type solid))
        (fill (type none))
      )
    )
    (symbol "GND-power_1_1"
      (pin power_in line (at 0 0 270) (length 0) hide
        (name "GND" (effects (font (size 1.27 1.27))))
        (number "1" (effects (font (size 1.27 1.27))))
      )
    )
  )
  (symbol "L-Device" (pin_numbers hide) (pin_names (offset 1.016) hide) (in_bom yes) (on_board yes)
    (property "Reference" "L" (at -1.27 0 90)
      (effects (font (size 1.27 1.27)))
    )
    (property "Value" "Device_L" (at 1.905 0 90)
      (effects (font (size 1.27 1.27)))
    )
    (property "Footprint" "" (at 0 0 0)
      (effects (font (size 1.27 1.27)) hide)
    )
    (property "Datasheet" "" (at 0 0 0)
      (effects (font (size 1.27 1.27)) hide)
    )
    (property "ki_fp_filters" "Choke_* *Coil* Inductor_* L_*" (at 0 0 0)
      (effects (font (size 1.27 1.27)) hide)
    )
    (symbol "L-Device_0_1"
      (arc (start 0 -2.54) (mid 0.6323 -1.905) (end 0 -1.27)
        (stroke (width 0) (type solid))
        (fill (type none))
      )
      (arc (start 0 -1.27) (mid 0.6323 -0.635) (end 0 0)
        (stroke (width 0) (type solid))
        (fill (type none))
      )
      (arc (start 0 0) (mid 0.6323 0.635) (end 0 1.27)
        (stroke (width 0) (type solid))
        (fill (type none))
      )
      (arc (start 0 1.27) (mid 0.6323 1.905) (end 0 2.54)
        (stroke (width 0) (type solid))
        (fill (type none))
      )
    )
    (symbol "L-Device_1_1"
      (pin passive line (at 0 3.81 270) (length 1.27)
        (name "1" (effects (font (size 1.27 1.27))))
        (number "1" (effects (font (size 1.27 1.27))))
      )
      (pin passive line (at 0 -3.81 90) (length 1.27)
        (name "2" (effects (font (size 1.27 1.27))))
        (number "2" (effects (font (size 1.27 1.27))))
      )
    )
  )
  (symbol "LED-Device" (pin_numbers hide) (pin_names (offset 1.016) hide) (in_bom yes) (on_board yes)
    (property "Reference" "D" (at 0 2.54 0)
      (effects (font (size 1.27 1.27)))
    )
    (property "Value" "Device_LED" (at 0 -2.54 0)
      (effects (font (size 1.27 1.27)))
    )
    (property "Footprint" "" (at 0 0 0)
      (effects (font (size 1.27 1.27)) hide)
    )
    (property "Datasheet" "" (at 0 0 0)
      (effects (font (size 1.27 1.27)) hide)
    )
    (property "ki_fp_filters" "LED* LED_SMD:* LED_THT:*" (at 0 0 0)
      (effects (font (size 1.27 1.27)) hide)
    )
    (symbol "LED-Device_0_1"
      (polyline
        (pts
          (xy -1.27 -1.27)
          (xy -1.27 1.27)
        )
        (stroke (width 0.254) (type solid))
        (fill (type none))
      )
      (polyline
        (pts
          (xy -1.27 0)
          (xy 1.27 0)
        )
        (stroke (width 0) (type solid))
        (fill (type none))
      )
      (polyline
        (pts
          (xy 1.27 -1.27)
          (xy 1.27 1.27)
          (xy -1.27 0)
          (xy 1.27 -1.27)
        )
        (stroke (width 0.254) (type solid))
        (fill (type none))
      )
      (polyline
        (pts
          (xy -3.048 -0.762)
          (xy -4.572 -2.286)
          (xy -3.81 -2.286)
          (xy -4.572 -2.286)
          (xy -4.572 -1.524)
        )
        (stroke (width 0) (type solid))
        (fill (type none))
      )
      (polyline
        (pts
          (xy -1.778 -0.762)
          (xy -3.302 -2.286)
          (xy -2.54 -2.286)
          (xy -3.302 -2.286)
          (xy -3.302 -1.524)
        )
        (stroke (width 0) (type solid))
        (fill (type none))
      )
    )
    (symbol "LED-Device_1_1"
      (pin passive line (at -3.81 0 0) (length 2.54)
        (name "K" (effects (font (size 1.27 1.27))))
        (number "1" (effects (font (size 1.27 1.27))))
      )
      (pin passive line (at 3.81 0 180) (length 2.54)
        (name "A" (effects (font (size 1.27 1.27))))
        (number "2" (effects (font (size 1.27 1.27))))
      )
    )
  )
  (symbol "MCP23S17_ML-Interface_Expansion" (pin_names (offset 1.016)) (in_bom yes) (on_board yes)
    (property "Reference" "U" (at -11.43 24.13 0)
      (effects (font (size 1.27 1.27)))
    )
    (property "Value" "Interface_Expansion_MCP23S17_ML" (at 0 0 0)
      (effects (font (size 1.27 1.27)))
    )
    (property "Footprint" "Package_DFN_QFN:QFN-28-1EP_6x6mm_P0.65mm_EP4.25x4.25mm" (at 5.08 -25.4 0)
      (effects (font (size 1.27 1.27)) (justify left) hide)
    )
    (property "Datasheet" "" (at 5.08 -27.94 0)
      (effects (font (size 1.27 1.27)) (justify left) hide)
    )
    (property "ki_fp_filters" "QFN*6x6mm*P0.65mm*" (at 0 0 0)
      (effects (font (size 1.27 1.27)) hide)
    )
    (symbol "MCP23S17_ML-Interface_Expansion_0_1"
      (rectangle (start -12.7 22.86) (end 12.7 -22.86)
        (stroke (width 0.254) (type solid))
        (fill (type background))
      )
    )
    (symbol "MCP23S17_ML-Interface_Expansion_1_1"
      (pin bidirectional line (at 17.78 10.16 180) (length 5.08)
        (name "GPB4" (effects (font (size 1.27 1.27))))
        (number "1" (effects (font (size 1.27 1.27))))
      )
      (pin output line (at -17.78 12.7 0) (length 5.08)
        (name "SO" (effects (font (size 1.27 1.27))))
        (number "10" (effects (font (size 1.27 1.27))))
      )
      (pin input line (at -17.78 -20.32 0) (length 5.08)
        (name "A0" (effects (font (size 1.27 1.27))))
        (number "11" (effects (font (size 1.27 1.27))))
      )
      (pin input line (at -17.78 -17.78 0) (length 5.08)
        (name "A1" (effects (font (size 1.27 1.27))))
        (number "12" (effects (font (size 1.27 1.27))))
      )
      (pin input line (at -17.78 -15.24 0) (length 5.08)
        (name "A2" (effects (font (size 1.27 1.27))))
        (number "13" (effects (font (size 1.27 1.27))))
      )
      (pin input line (at -17.78 -2.54 0) (length 5.08)
        (name "~{RESET}" (effects (font (size 1.27 1.27))))
        (number "14" (effects (font (size 1.27 1.27))))
      )
      (pin tri_state line (at -17.78 5.08 0) (length 5.08)
        (name "INTB" (effects (font (size 1.27 1.27))))
        (number "15" (effects (font (size 1.27 1.27))))
      )
      (pin tri_state line (at -17.78 2.54 0) (length 5.08)
        (name "INTA" (effects (font (size 1.27 1.27))))
        (number "16" (effects (font (size 1.27 1.27))))
      )
      (pin bidirectional line (at 17.78 -2.54 180) (length 5.08)
        (name "GPA0" (effects (font (size 1.27 1.27))))
        (number "17" (effects (font (size 1.27 1.27))))
      )
      (pin bidirectional line (at 17.78 -5.08 180) (length 5.08)
        (name "GPA1" (effects (font (size 1.27 1.27))))
        (number "18" (effects (font (size 1.27 1.27))))
      )
      (pin bidirectional line (at 17.78 -7.62 180) (length 5.08)
        (name "GPA2" (effects (font (size 1.27 1.27))))
        (number "19" (effects (font (size 1.27 1.27))))
      )
      (pin bidirectional line (at 17.78 7.62 180) (length 5.08)
        (name "GPB5" (effects (font (size 1.27 1.27))))
        (number "2" (effects (font (size 1.27 1.27))))
      )
      (pin bidirectional line (at 17.78 -10.16 180) (length 5.08)
        (name "GPA3" (effects (font (size 1.27 1.27))))
        (number "20" (effects (font (size 1.27 1.27))))
      )
      (pin bidirectional line (at 17.78 -12.7 180) (length 5.08)
        (name "GPA4" (effects (font (size 1.27 1.27))))
        (number "21" (effects (font (size 1.27 1.27))))
      )
      (pin bidirectional line (at 17.78 -15.24 180) (length 5.08)
        (name "GPA5" (effects (font (size 1.27 1.27))))
        (number "22" (effects (font (size 1.27 1.27))))
      )
      (pin bidirectional line (at 17.78 -17.78 180) (length 5.08)
        (name "GPA6" (effects (font (size 1.27 1.27))))
        (number "23" (effects (font (size 1.27 1.27))))
      )
      (pin bidirectional line (at 17.78 -20.32 180) (length 5.08)
        (name "GPA7" (effects (font (size 1.27 1.27))))
        (number "24" (effects (font (size 1.27 1.27))))
      )
      (pin bidirectional line (at 17.78 20.32 180) (length 5.08)
        (name "GPB0" (effects (font (size 1.27 1.27))))
        (number "25" (effects (font (size 1.27 1.27))))
      )
      (pin bidirectional line (at 17.78 17.78 180) (length 5.08)
        (name "GPB1" (effects (font (size 1.27 1.27))))
        (number "26" (effects (font (size 1.27 1.27))))
      )
      (pin bidirectional line (at 17.78 15.24 180) (length 5.08)
        (name "GPB2" (effects (font (size 1.27 1.27))))
        (number "27" (effects (font (size 1.27 1.27))))
      )
      (pin bidirectional line (at 17.78 12.7 180) (length 5.08)
        (name "GPB3" (effects (font (size 1.27 1.27))))
        (number "28" (effects (font (size 1.27 1.27))))
      )
      (pin passive line (at -2.54 -27.94 90) (length 5.08)
        (name "EP" (effects (font (size 1.27 1.27))))
        (number "29" (effects (font (size 1.27 1.27))))
      )
      (pin bidirectional line (at 17.78 5.08 180) (length 5.08)
        (name "GPB6" (effects (font (size 1.27 1.27))))
        (number "3" (effects (font (size 1.27 1.27))))
      )
      (pin bidirectional line (at 17.78 2.54 180) (length 5.08)
        (name "GPB7" (effects (font (size 1.27 1.27))))
        (number "4" (effects (font (size 1.27 1.27))))
      )
      (pin power_in line (at 0 27.94 270) (length 5.08)
        (name "VDD" (effects (font (size 1.27 1.27))))
        (number "5" (effects (font (size 1.27 1.27))))
      )
      (pin power_in line (at 0 -27.94 90) (length 5.08)
        (name "VSS" (effects (font (size 1.27 1.27))))
        (number "6" (effects (font (size 1.27 1.27))))
      )
      (pin input line (at -17.78 20.32 0) (length 5.08)
        (name "~{CS}" (effects (font (size 1.27 1.27))))
        (number "7" (effects (font (size 1.27 1.27))))
      )
      (pin input line (at -17.78 17.78 0) (length 5.08)
        (name "SCK" (effects (font (size 1.27 1.27))))
        (number "8" (effects (font (size 1.27 1.27))))
      )
      (pin input line (at -17.78 15.24 0) (length 5.08)
        (name "SI" (effects (font (size 1.27 1.27))))
        (number "9" (effects (font (size 1.27 1.27))))
      )
    )
  )
  (symbol "PWR_FLAG-power" (power) (pin_numbers hide) (pin_names (offset 0) hide) (in_bom yes) (on_board yes)
    (property "Reference" "#FLG" (at 0 1.905 0)
      (effects (font (size 1.27 1.27)) hide)
    )
    (property "Value" "PWR_FLAG-power" (at 0 3.81 0)
      (effects (font (size 1.27 1.27)))
    )
    (property "Footprint" "" (at 0 0 0)
      (effects (font (size 1.27 1.27)) hide)
    )
    (property "Datasheet" "" (at 0 0 0)
      (effects (font (size 1.27 1.27)) hide)
    )
    (symbol "PWR_FLAG-power_0_0"
      (pin power_out line (at 0 0 90) (length 0)
        (name "pwr" (effects (font (size 1.27 1.27))))
        (number "1" (effects (font (size 1.27 1.27))))
      )
    )
    (symbol "PWR_FLAG-power_0_1"
      (polyline
        (pts
          (xy 0 0)
          (xy 0 1.27)
          (xy -1.016 1.905)
          (xy 0 2.54)
          (xy 1.016 1.905)
          (xy 0 1.27)
        )
        (stroke (width 0) (type solid))
        (fill (type none))
      )
    )
  )
  (symbol "R-Device" (pin_numbers hide) (pin_names (offset 0)) (in_bom yes) (on_board yes)
    (property "Reference" "R" (at 2.032 0 90)
      (effects (font (size 1.27 1.27)))
    )
    (property "Value" "Device_R" (at 0 0 90)
      (effects (font (size 1.27 1.27)))
    )
    (property "Footprint" "" (at -1.778 0 90)
      (effects (font (size 1.27 1.27)) hide)
    )
    (property "Datasheet" "" (at 0 0 0)
      (effects (font (size 1.27 1.27)) hide)
    )
    (property "ki_fp_filters" "R_*" (at 0 0 0)
      (effects (font (size 1.27 1.27)) hide)
    )
    (symbol "R-Device_0_1"
      (rectangle (start -1.016 -2.54) (end 1.016 2.54)
        (stroke (width 0.254) (type solid))
        (fill (type none))
      )
    )
    (symbol "R-Device_1_1"
      (pin passive line (at 0 3.81 270) (length 1.27)
        (name "~" (effects (font (size 1.27 1.27))))
        (number "1" (effects (font (size 1.27 1.27))))
      )
      (pin passive line (at 0 -3.81 90) (length 1.27)
        (name "~" (effects (font (size 1.27 1.27))))
        (number "2" (effects (font (size 1.27 1.27))))
      )
    )
  )
  (symbol "SW_Push-Switch" (pin_numbers hide) (pin_names (offset 1.016) hide) (in_bom yes) (on_board yes)
    (property "Reference" "SW" (at 1.27 2.54 0)
      (effects (font (size 1.27 1.27)) (justify left))
    )
    (property "Value" "Switch_SW_Push" (at 0 -1.524 0)
      (effects (font (size 1.27 1.27)))
    )
    (property "Footprint" "" (at 0 5.08 0)
      (effects (font (size 1.27 1.27)) hide)
    )
    (property "Datasheet" "" (at 0 5.08 0)
      (effects (font (size 1.27 1.27)) hide)
    )
    (symbol "SW_Push-Switch_0_1"
      (circle (center -2.032 0) (radius 0.508)
        (stroke (width 0) (type solid))
        (fill (type none))
      )
      (polyline
        (pts
          (xy 0 1.27)
          (xy 0 3.048)
        )
        (stroke (width 0) (type solid))
        (fill (type none))
      )
      (polyline
        (pts
          (xy 2.54 1.27)
          (xy -2.54 1.27)
        )
        (stroke (width 0) (type solid))
        (fill (type none))
      )
      (circle (center 2.032 0) (radius 0.508)
        (stroke (width 0) (type solid))
        (fill (type none))
      )
      (pin passive line (at -5.08 0 0) (length 2.54)
        (name "1" (effects (font (size 1.27 1.27))))
        (number "1" (effects (font (size 1.27 1.27))))
      )
      (pin passive line (at 5.08 0 180) (length 2.54)
        (name "2" (effects (font (size 1.27 1.27))))
        (number "2" (effects (font (size 1.27 1.27))))
      )
    )
  )
  (symbol "SolderJumper_3_Open-Jumper" (pin_names (offset 0) hide) (in_bom yes) (on_board yes)
    (property "Reference" "JP" (at -2.54 -2.54 0)
      (effects (font (size 1.27 1.27)))
    )
    (property "Value" "Jumper_SolderJumper_3_Open" (at 0 2.794 0)
      (effects (font (size 1.27 1.27)))
    )
    (property "Footprint" "" (at 0 0 0)
      (effects (font (size 1.27 1.27)) hide)
    )
    (property "Datasheet" "" (at 0 0 0)
      (effects (font (size 1.27 1.27)) hide)
    )
    (property "ki_fp_filters" "SolderJumper*Open*" (at 0 0 0)
      (effects (font (size 1.27 1.27)) hide)
    )
    (symbol "SolderJumper_3_Open-Jumper_0_1"
      (arc (start -1.016 1.016) (mid -2.0276 0) (end -1.016 -1.016)
        (stroke (width 0) (type solid))
        (fill (type none))
      )
      (arc (start -1.016 1.016) (mid -2.0276 0) (end -1.016 -1.016)
        (stroke (width 0) (type solid))
        (fill (type outline))
      )
      (rectangle (start -0.508 1.016) (end 0.508 -1.016)
        (stroke (width 0) (type solid))
        (fill (type outline))
      )
      (polyline
        (pts
          (xy -2.54 0)
          (xy -2.032 0)
        )
        (stroke (width 0) (type solid))
        (fill (type none))
      )
      (polyline
        (pts
          (xy -1.016 1.016)
          (xy -1.016 -1.016)
        )
        (stroke (width 0) (type solid))
        (fill (type none))
      )
      (polyline
        (pts
          (xy 0 -1.27)
          (xy 0 -1.016)
        )
        (stroke (width 0) (type solid))
        (fill (type none))
      )
      (polyline
        (pts
          (xy 1.016 1.016)
          (xy 1.016 -1.016)
        )
        (stroke (width 0) (type solid))
        (fill (type none))
      )
      (polyline
        (pts
          (xy 2.54 0)
          (xy 2.032 0)
        )
        (stroke (width 0) (type solid))
        (fill (type none))
      )
      (arc (start 1.016 -1.016) (mid 2.0276 0) (end 1.016 1.016)
        (stroke (width 0) (type solid))
        (fill (type none))
      )
      (arc (start 1.016 -1.016) (mid 2.0276 0) (end 1.016 1.016)
        (stroke (width 0) (type solid))
        (fill (type outline))
      )
    )
    (symbol "SolderJumper_3_Open-Jumper_1_1"
      (pin passive line (at -5.08 0 0) (length 2.54)
        (name "A" (effects (font (size 1.27 1.27))))
        (number "1" (effects (font (size 1.27 1.27))))
      )
      (pin input line (at 0 -3.81 90) (length 2.54)
        (name "C" (effects (font (size 1.27 1.27))))
        (number "2" (effects (font (size 1.27 1.27))))
      )
      (pin passive line (at 5.08 0 180) (length 2.54)
        (name "B" (effects (font (size 1.27 1.27))))
        (number "3" (effects (font (size 1.27 1.27))))
      )
    )
  )
  (symbol "USBLC6-2P6-Power_Protection" (pin_names hide) (in_bom yes) (on_board yes)
    (property "Reference" "U" (at 2.54 8.89 0)
      (effects (font (size 1.27 1.27)) (justify left))
    )
    (property "Value" "Power_Protection_USBLC6-2P6" (at 2.54 -8.89 0)
      (effects (font (size 1.27 1.27)) (justify left))
    )
    (property "Footprint" "Package_TO_SOT_SMD:SOT-666" (at 0 -12.7 0)
      (effects (font (size 1.27 1.27)) hide)
    )
    (property "Datasheet" "" (at 5.08 8.89 0)
      (effects (font (size 1.27 1.27)) hide)
    )
    (property "ki_fp_filters" "SOT?666*" (at 0 0 0)
      (effects (font (size 1.27 1.27)) hide)
    )
    (symbol "USBLC6-2P6-Power_Protection_0_1"
      (rectangle (start -7.62 -7.62) (end 7.62 7.62)
        (stroke (width 0.254) (type solid))
        (fill (type background))
      )
      (circle (center -5.08 0) (radius 0.254)
        (stroke (width 0) (type solid))
        (fill (type outline))
      )
      (circle (center -2.54 0) (radius 0.254)
        (stroke (width 0) (type solid))
        (fill (type outline))
      )
      (rectangle (start -2.54 6.35) (end 2.54 -6.35)
        (stroke (width 0) (type solid))
        (fill (type none))
      )
      (circle (center 0 -6.35) (radius 0.254)
        (stroke (width 0) (type solid))
        (fill (type outline))
      )
      (polyline
        (pts
          (xy -5.08 -2.54)
          (xy -7.62 -2.54)
        )
        (stroke (width 0) (type solid))
        (fill (type none))
      )
      (polyline
        (pts
          (xy -5.08 0)
          (xy -5.08 -2.54)
        )
        (stroke (width 0) (type solid))
        (fill (type none))
      )
      (polyline
        (pts
          (xy -5.08 2.54)
          (xy -7.62 2.54)
        )
        (stroke (width 0) (type solid))
        (fill (type none))
      )
      (polyline
        (pts
          (xy -1.524 -2.794)
          (xy -3.556 -2.794)
        )
        (stroke (width 0) (type solid))
        (fill (type none))
      )
      (polyline
        (pts
          (xy -1.524 4.826)
          (xy -3.556 4.826)
        )
        (stroke (width 0) (type solid))
        (fill (type none))
      )
      (polyline
        (pts
          (xy 0 -7.62)
          (xy 0 -6.35)
        )
        (stroke (width 0) (type solid))
        (fill (type none))
      )
      (polyline
        (pts
          (xy 0 -6.35)
          (xy 0 1.27)
        )
        (stroke (width 0) (type solid))
        (fill (type none))
      )
      (polyline
        (pts
          (xy 0 1.27)
          (xy 0 6.35)
        )
        (stroke (width 0) (type solid))
        (fill (type none))
      )
      (polyline
        (pts
          (xy 0 6.35)
          (xy 0 7.62)
        )
        (stroke (width 0) (type solid))
        (fill (type none))
      )
      (polyline
        (pts
          (xy 1.524 -2.794)
          (xy 3.556 -2.794)
        )
        (stroke (width 0) (type solid))
        (fill (type none))
      )
      (polyline
        (pts
          (xy 1.524 4.826)
          (xy 3.556 4.826)
        )
        (stroke (width 0) (type solid))
        (fill (type none))
      )
      (polyline
        (pts
          (xy 5.08 -2.54)
          (xy 7.62 -2.54)
        )
        (stroke (width 0) (type solid))
        (fill (type none))
      )
      (polyline
        (pts
          (xy 5.08 0)
          (xy 5.08 -2.54)
        )
        (stroke (width 0) (type solid))
        (fill (type none))
      )
      (polyline
        (pts
          (xy 5.08 2.54)
          (xy 7.62 2.54)
        )
        (stroke (width 0) (type solid))
        (fill (type none))
      )
      (polyline
        (pts
          (xy -2.54 0)
          (xy -5.08 0)
          (xy -5.08 2.54)
        )
        (stroke (width 0) (type solid))
        (fill (type none))
      )
      (polyline
        (pts
          (xy 2.54 0)
          (xy 5.08 0)
          (xy 5.08 2.54)
        )
        (stroke (width 0) (type solid))
        (fill (type none))
      )
      (polyline
        (pts
          (xy -3.556 -4.826)
          (xy -1.524 -4.826)
          (xy -2.54 -2.794)
          (xy -3.556 -4.826)
        )
        (stroke (width 0) (type solid))
        (fill (type none))
      )
      (polyline
        (pts
          (xy -3.556 2.794)
          (xy -1.524 2.794)
          (xy -2.54 4.826)
          (xy -3.556 2.794)
        )
        (stroke (width 0) (type solid))
        (fill (type none))
      )
      (polyline
        (pts
          (xy -1.016 -1.016)
          (xy 1.016 -1.016)
          (xy 0 1.016)
          (xy -1.016 -1.016)
        )
        (stroke (width 0) (type solid))
        (fill (type none))
      )
      (polyline
        (pts
          (xy 1.016 1.016)
          (xy 0.762 1.016)
          (xy -1.016 1.016)
          (xy -1.016 0.508)
        )
        (stroke (width 0) (type solid))
        (fill (type none))
      )
      (polyline
        (pts
          (xy 3.556 -4.826)
          (xy 1.524 -4.826)
          (xy 2.54 -2.794)
          (xy 3.556 -4.826)
        )
        (stroke (width 0) (type solid))
        (fill (type none))
      )
      (polyline
        (pts
          (xy 3.556 2.794)
          (xy 1.524 2.794)
          (xy 2.54 4.826)
          (xy 3.556 2.794)
        )
        (stroke (width 0) (type solid))
        (fill (type none))
      )
      (circle (center 0 6.35) (radius 0.254)
        (stroke (width 0) (type solid))
        (fill (type outline))
      )
      (circle (center 2.54 0) (radius 0.254)
        (stroke (width 0) (type solid))
        (fill (type outline))
      )
      (circle (center 5.08 0) (radius 0.254)
        (stroke (width 0) (type solid))
        (fill (type outline))
      )
    )
    (symbol "USBLC6-2P6-Power_Protection_1_1"
      (pin passive line (at -10.16 -2.54 0) (length 2.54)
        (name "I/O1" (effects (font (size 1.27 1.27))))
        (number "1" (effects (font (size 1.27 1.27))))
      )
      (pin passive line (at 0 -10.16 90) (length 2.54)
        (name "GND" (effects (font (size 1.27 1.27))))
        (number "2" (effects (font (size 1.27 1.27))))
      )
      (pin passive line (at 10.16 -2.54 180) (length 2.54)
        (name "I/O2" (effects (font (size 1.27 1.27))))
        (number "3" (effects (font (size 1.27 1.27))))
      )
      (pin passive line (at 10.16 2.54 180) (length 2.54)
        (name "I/O2" (effects (font (size 1.27 1.27))))
        (number "4" (effects (font (size 1.27 1.27))))
      )
      (pin passive line (at 0 10.16 270) (length 2.54)
        (name "VBUS" (effects (font (size 1.27 1.27))))
        (number "5" (effects (font (size 1.27 1.27))))
      )
      (pin passive line (at -10.16 2.54 0) (length 2.54)
        (name "I/O1" (effects (font (size 1.27 1.27))))
        (number "6" (effects (font (size 1.27 1.27))))
      )
    )
  )
  (symbol "USB_B_Micro-Connector" (pin_names (offset 1.016)) (in_bom yes) (on_board yes)
    (property "Reference" "J" (at -5.08 11.43 0)
      (effects (font (size 1.27 1.27)) (justify left))
    )
    (property "Value" "Connector_USB_B_Micro" (at -5.08 8.89 0)
      (effects (font (size 1.27 1.27)) (justify left))
    )
    (property "Footprint" "" (at 3.81 -1.27 0)
      (effects (font (size 1.27 1.27)) hide)
    )
    (property "Datasheet" "" (at 3.81 -1.27 0)
      (effects (font (size 1.27 1.27)) hide)
    )
    (property "ki_fp_filters" "USB*" (at 0 0 0)
      (effects (font (size 1.27 1.27)) hide)
    )
    (symbol "USB_B_Micro-Connector_0_1"
      (rectangle (start -5.08 -7.62) (end 5.08 7.62)
        (stroke (width 0.254) (type solid))
        (fill (type background))
      )
      (circle (center -3.81 2.159) (radius 0.635)
        (stroke (width 0.254) (type solid))
        (fill (type outline))
      )
      (circle (center -0.635 3.429) (radius 0.381)
        (stroke (width 0.254) (type solid))
        (fill (type outline))
      )
      (rectangle (start -0.127 -7.62) (end 0.127 -6.858)
        (stroke (width 0) (type solid))
        (fill (type none))
      )
      (polyline
        (pts
          (xy -1.905 2.159)
          (xy 0.635 2.159)
        )
        (stroke (width 0.254) (type solid))
        (fill (type none))
      )
      (polyline
        (pts
          (xy -3.175 2.159)
          (xy -2.54 2.159)
          (xy -1.27 3.429)
          (xy -0.635 3.429)
        )
        (stroke (width 0.254) (type solid))
        (fill (type none))
      )
      (polyline
        (pts
          (xy -2.54 2.159)
          (xy -1.905 2.159)
          (xy -1.27 0.889)
          (xy 0 0.889)
        )
        (stroke (width 0.254) (type solid))
        (fill (type none))
      )
      (polyline
        (pts
          (xy 0.635 2.794)
          (xy 0.635 1.524)
          (xy 1.905 2.159)
          (xy 0.635 2.794)
        )
        (stroke (width 0.254) (type solid))
        (fill (type outline))
      )
      (polyline
        (pts
          (xy -4.318 5.588)
          (xy -1.778 5.588)
          (xy -2.032 4.826)
          (xy -4.064 4.826)
          (xy -4.318 5.588)
        )
        (stroke (width 0) (type solid))
        (fill (type outline))
      )
      (polyline
        (pts
          (xy -4.699 5.842)
          (xy -4.699 5.588)
          (xy -4.445 4.826)
          (xy -4.445 4.572)
          (xy -1.651 4.572)
          (xy -1.651 4.826)
          (xy -1.397 5.588)
          (xy -1.397 5.842)
          (xy -4.699 5.842)
        )
        (stroke (width 0) (type solid))
        (fill (type none))
      )
      (rectangle (start 0.254 1.27) (end -0.508 0.508)
        (stroke (width 0.254) (type solid))
        (fill (type outline))
      )
      (rectangle (start 5.08 -5.207) (end 4.318 -4.953)
        (stroke (width 0) (type solid))
        (fill (type none))
      )
      (rectangle (start 5.08 -2.667) (end 4.318 -2.413)
        (stroke (width 0) (type solid))
        (fill (type none))
      )
      (rectangle (start 5.08 -0.127) (end 4.318 0.127)
        (stroke (width 0) (type solid))
        (fill (type none))
      )
      (rectangle (start 5.08 4.953) (end 4.318 5.207)
        (stroke (width 0) (type solid))
        (fill (type none))
      )
    )
    (symbol "USB_B_Micro-Connector_1_1"
      (pin power_out line (at 7.62 5.08 180) (length 2.54)
        (name "VBUS" (effects (font (size 1.27 1.27))))
        (number "1" (effects (font (size 1.27 1.27))))
      )
      (pin bidirectional line (at 7.62 -2.54 180) (length 2.54)
        (name "D-" (effects (font (size 1.27 1.27))))
        (number "2" (effects (font (size 1.27 1.27))))
      )
      (pin bidirectional line (at 7.62 0 180) (length 2.54)
        (name "D+" (effects (font (size 1.27 1.27))))
        (number "3" (effects (font (size 1.27 1.27))))
      )
      (pin passive line (at 7.62 -5.08 180) (length 2.54)
        (name "ID" (effects (font (size 1.27 1.27))))
        (number "4" (effects (font (size 1.27 1.27))))
      )
      (pin power_out line (at 0 -10.16 90) (length 2.54)
        (name "GND" (effects (font (size 1.27 1.27))))
        (number "5" (effects (font (size 1.27 1.27))))
      )
      (pin passive line (at -2.54 -10.16 90) (length 2.54)
        (name "Shield" (effects (font (size 1.27 1.27))))
        (number "6" (effects (font (size 1.27 1.27))))
      )
    )
  )
)
