(footprint "Board_Stackup-8Layer-Metric" (version 20221018) (generator pcbnew)
  (layer "F.Cu")
  (attr exclude_from_pos_files exclude_from_bom)
  (fp_text reference "Board_Stackup-8Layer" (at 7.5 -9) (layer "F.SilkS") hide
      (effects (font (size 1 1) (thickness 0.1)))
    (tstamp bd9a31f7-a8da-490a-b9ba-d9be121bb9a1)
  )
  (fp_text value "Board_Stackup-8Layer" (at 7.5 -11.5) (layer "F.Fab") hide
      (effects (font (size 1 1) (thickness 0.1)))
    (tstamp 5777016c-6bed-497c-9887-73367be32e04)
  )
  (fp_text user "100" (at 55 16) (layer "Dwgs.User")
      (effects (font (size 1 1) (thickness 0.1)) (justify right))
    (tstamp 01dccd79-0814-49d1-8562-b2774a161622)
  )
  (fp_text user "100" (at 117 6) (layer "Dwgs.User")
      (effects (font (size 1 1) (thickness 0.1)) (justify right))
    (tstamp 022bcea5-5f5d-41e3-85a3-357c3478e9e5)
  )
  (fp_text user "100" (at 55 20) (layer "Dwgs.User")
      (effects (font (size 1 1) (thickness 0.1)) (justify right))
    (tstamp 039708cf-ca43-4b07-9f02-0fd82a5fc661)
  )
  (fp_text user "4.3" (at 68 32) (layer "Dwgs.User")
      (effects (font (size 1 1) (thickness 0.1)) (justify right))
    (tstamp 05a14615-250c-41f3-b40b-f5dc6315618c)
  )
  (fp_text user "50 +/- 10/" (at 102 18) (layer "Dwgs.User")
      (effects (font (size 1 1) (thickness 0.1)) (justify right))
    (tstamp 06922ff0-7341-4115-b5a0-efe7235b6e7d)
  )
  (fp_text user "8" (at 2 34) (layer "Dwgs.User")
      (effects (font (size 1 1) (thickness 0.1)) (justify left))
    (tstamp 06ce4200-8735-469e-93bf-49bdd01c3c8d)
  )
  (fp_text user "In2.Cu" (at 7 14) (layer "Dwgs.User")
      (effects (font (size 1 1) (thickness 0.1)) (justify left))
    (tstamp 0ce1a767-bc75-47d1-82d6-4740a79604eb)
  )
  (fp_text user "x" (at 80 14) (layer "Dwgs.User")
      (effects (font (size 1 1) (thickness 0.1)) (justify right))
    (tstamp 0d1390ca-07cb-4b5d-9b6b-2882b29bc56b)
  )
  (fp_text user "149" (at 80 6) (layer "Dwgs.User")
      (effects (font (size 1 1) (thickness 0.1)) (justify right))
    (tstamp 10619d10-abdb-4506-9155-14c38fef24b0)
  )
  (fp_text user "x" (at 80 26) (layer "Dwgs.User")
      (effects (font (size 1 1) (thickness 0.1)) (justify right))
    (tstamp 11d95b62-15e6-4238-8baf-ae8cedf370e5)
  )
  (fp_text user "Layer (Material) Type" (at 26 -1) (layer "Dwgs.User")
      (effects (font (size 1 1) (thickness 0.1)) (justify left))
    (tstamp 12385d25-2e16-4aad-b18c-7cb62775750a)
  )
  (fp_text user "4.3" (at 68 28) (layer "Dwgs.User")
      (effects (font (size 1 1) (thickness 0.1)) (justify right))
    (tstamp 13a8444a-78ba-4df8-947b-1a42aa6baac2)
  )
  (fp_text user "6" (at 2 26) (layer "Dwgs.User")
      (effects (font (size 1 1) (thickness 0.1)) (justify left))
    (tstamp 1403fafe-58df-464b-b2ae-5a7b985a07bd)
  )
  (fp_text user "7" (at 2 30) (layer "Dwgs.User")
      (effects (font (size 1 1) (thickness 0.1)) (justify left))
    (tstamp 17fa7a35-f08f-44f5-99b6-e523487a073f)
  )
  (fp_text user "Soldermask" (at 26 36) (layer "Dwgs.User")
      (effects (font (size 1 1) (thickness 0.1)) (justify left))
    (tstamp 1c0a8664-659e-43ba-a0a6-fe9ac1ae9b9f)
  )
  (fp_text user "4.3" (at 68 8) (layer "Dwgs.User")
      (effects (font (size 1 1) (thickness 0.1)) (justify right))
    (tstamp 1ffd1f35-e145-49fc-943e-1cd8a35f966a)
  )
  (fp_text user "x" (at 134.5 14) (layer "Dwgs.User")
      (effects (font (size 1 1) (thickness 0.1)) (justify right))
    (tstamp 20985d7d-872a-4da1-9b23-f6bb8bbcadd1)
  )
  (fp_text user "35" (at 55 14) (layer "Dwgs.User")
      (effects (font (size 1 1) (thickness 0.1)) (justify right))
    (tstamp 20b80a8d-4349-4456-81fd-04d937db62e9)
  )
  (fp_text user "100" (at 55 12) (layer "Dwgs.User")
      (effects (font (size 1 1) (thickness 0.1)) (justify right))
    (tstamp 21d24308-3de1-47e4-bf94-19ab3159e706)
  )
  (fp_text user "x" (at 117 14) (layer "Dwgs.User")
      (effects (font (size 1 1) (thickness 0.1)) (justify right))
    (tstamp 2434334f-4c25-45e4-9cbe-a9274f4fa9f7)
  )
  (fp_text user "150" (at 134.5 34) (layer "Dwgs.User")
      (effects (font (size 1 1) (thickness 0.1)) (justify right))
    (tstamp 2545f43c-e7a6-4cae-89a2-d474cbc1c222)
  )
  (fp_text user "100 +/- 10/" (at 156.5 18) (layer "Dwgs.User")
      (effects (font (size 1 1) (thickness 0.1)) (justify right))
    (tstamp 2c637a36-23b4-4088-ab66-4db4abf033c1)
  )
  (fp_text user "In5.Cu" (at 7 26) (layer "Dwgs.User")
      (effects (font (size 1 1) (thickness 0.1)) (justify left))
    (tstamp 2d597302-eb59-4df7-9dbc-81972301a3c7)
  )
  (fp_text user "100" (at 55 8) (layer "Dwgs.User")
      (effects (font (size 1 1) (thickness 0.1)) (justify right))
    (tstamp 2ddd1387-163e-49b7-a8eb-a0486e3788ed)
  )
  (fp_text user "Prepreg (2125)" (at 26 16) (layer "Dwgs.User")
      (effects (font (size 1 1) (thickness 0.1)) (justify left))
    (tstamp 331cecdf-60c2-4605-975e-7bf7bb652384)
  )
  (fp_text user "PWR" (at 26 10) (layer "Dwgs.User")
      (effects (font (size 1 1) (thickness 0.1)) (justify left))
    (tstamp 3347da73-e2d7-456b-b77c-ef16b5fae5fb)
  )
  (fp_text user "x" (at 117 18) (layer "Dwgs.User")
      (effects (font (size 1 1) (thickness 0.1)) (justify right))
    (tstamp 334a4f89-159a-439b-8ecd-e922830e6b48)
  )
  (fp_text user "Core" (at 26 28) (layer "Dwgs.User")
      (effects (font (size 1 1) (thickness 0.1)) (justify left))
    (tstamp 33fa4c96-269a-45dd-9327-1a41578da4be)
  )
  (fp_text user "Trace Width (um)" (at 79 -1) (layer "Dwgs.User")
      (effects (font (size 1 1) (thickness 0.1)))
    (tstamp 3f2885fd-22d1-4c56-9065-55b299d031f3)
  )
  (fp_text user "35" (at 55 34) (layer "Dwgs.User")
      (effects (font (size 1 1) (thickness 0.1)) (justify right))
    (tstamp 416d0017-b260-4d4a-a810-1458078bdd01)
  )
  (fp_text user "100 +/- 10/" (at 156.5 6) (layer "Dwgs.User")
      (effects (font (size 1 1) (thickness 0.1)) (justify right))
    (tstamp 41d2046b-bdc4-4fd8-81f1-29dc47ecc0b5)
  )
  (fp_text user "Prepreg (2125)" (at 26 8) (layer "Dwgs.User")
      (effects (font (size 1 1) (thickness 0.1)) (justify left))
    (tstamp 4716c98a-8c00-453f-aa96-6b765c5bff4b)
  )
  (fp_text user "Prepreg (2125)" (at 26 24) (layer "Dwgs.User")
      (effects (font (size 1 1) (thickness 0.1)) (justify left))
    (tstamp 47d98127-1bc2-453d-b342-ea6fa6d3a225)
  )
  (fp_text user "#" (at 2 -1) (layer "Dwgs.User")
      (effects (font (size 1 1) (thickness 0.1)) (justify left))
    (tstamp 486bdb78-1b52-40bc-ac60-35fb573101c6)
  )
  (fp_text user "F.Mask" (at 7 4) (layer "Dwgs.User")
      (effects (font (size 1 1) (thickness 0.1)) (justify left))
    (tstamp 4a17f9e7-f8fb-4339-93b9-9bd891a55159)
  )
  (fp_text user "In3.Cu" (at 7 18) (layer "Dwgs.User")
      (effects (font (size 1 1) (thickness 0.1)) (justify left))
    (tstamp 4b1bb190-1b2e-49e6-9989-7670c13e3a76)
  )
  (fp_text user "50 +/- 10/" (at 102 34) (layer "Dwgs.User")
      (effects (font (size 1 1) (thickness 0.1)) (justify right))
    (tstamp 4c9921e9-2046-40be-a417-ef09b7fcff39)
  )
  (fp_text user "F.Silks" (at 7 2) (layer "Dwgs.User")
      (effects (font (size 1 1) (thickness 0.1)) (justify left))
    (tstamp 4e5fa384-1d90-4748-bc81-44384998dfa5)
  )
  (fp_text user "100" (at 55 32) (layer "Dwgs.User")
      (effects (font (size 1 1) (thickness 0.1)) (justify right))
    (tstamp 4f121cd6-70ac-4943-9200-58f530179bbc)
  )
  (fp_text user "x" (at 80 18) (layer "Dwgs.User")
      (effects (font (size 1 1) (thickness 0.1)) (justify right))
    (tstamp 4f14ac91-f77e-4dd7-b96f-891d3c713c6f)
  )
  (fp_text user "35" (at 55 30) (layer "Dwgs.User")
      (effects (font (size 1 1) (thickness 0.1)) (justify right))
    (tstamp 507c2bfa-63ab-442e-9b41-96ed1b39dd39)
  )
  (fp_text user "35" (at 55 6) (layer "Dwgs.User")
      (effects (font (size 1 1) (thickness 0.1)) (justify right))
    (tstamp 52a38ae5-44bb-4413-864e-8835964f583a)
  )
  (fp_text user "50 +/- 10/" (at 102 14) (layer "Dwgs.User")
      (effects (font (size 1 1) (thickness 0.1)) (justify right))
    (tstamp 566dd867-c652-4831-b2b0-0d7236bfcf86)
  )
  (fp_text user "x" (at 117 26) (layer "Dwgs.User")
      (effects (font (size 1 1) (thickness 0.1)) (justify right))
    (tstamp 5718ee2c-7897-4f89-b8eb-bc851d7327a3)
  )
  (fp_text user "35" (at 55 10) (layer "Dwgs.User")
      (effects (font (size 1 1) (thickness 0.1)) (justify right))
    (tstamp 5c9e566c-8b95-4243-9c2a-d90f7c65faa1)
  )
  (fp_text user "Signal" (at 26 6) (layer "Dwgs.User")
      (effects (font (size 1 1) (thickness 0.1)) (justify left))
    (tstamp 5cfcb959-ee59-44fe-abde-ad304e3cb14f)
  )
  (fp_text user "Core" (at 26 12) (layer "Dwgs.User")
      (effects (font (size 1 1) (thickness 0.1)) (justify left))
    (tstamp 5e4368bf-8b4b-44f8-a386-4f762d402b3b)
  )
  (fp_text user "149" (at 80 34) (layer "Dwgs.User")
      (effects (font (size 1 1) (thickness 0.1)) (justify right))
    (tstamp 6240a2f2-56fe-4c4c-b424-353cac4f2742)
  )
  (fp_text user "50 +/- 10/" (at 102 26) (layer "Dwgs.User")
      (effects (font (size 1 1) (thickness 0.1)) (justify right))
    (tstamp 6562796b-ac4e-4ea4-95bd-7933fc1dba63)
  )
  (fp_text user "150" (at 134.5 6) (layer "Dwgs.User")
      (effects (font (size 1 1) (thickness 0.1)) (justify right))
    (tstamp 6723c31e-8faf-4dfb-afbf-df6f4e62729a)
  )
  (fp_text user "100 +/- 10/" (at 156.5 26) (layer "Dwgs.User")
      (effects (font (size 1 1) (thickness 0.1)) (justify right))
    (tstamp 68b63960-f58d-4196-9bef-b79a9f91e7c2)
  )
  (fp_text user "x" (at 134.5 26) (layer "Dwgs.User")
      (effects (font (size 1 1) (thickness 0.1)) (justify right))
    (tstamp 68c0fa15-6071-46c1-a477-be00722ce4c4)
  )
  (fp_text user "Soldermask" (at 26 4) (layer "Dwgs.User")
      (effects (font (size 1 1) (thickness 0.1)) (justify left))
    (tstamp 692d25eb-b4ac-454a-b06c-366a32cf8497)
  )
  (fp_text user "Single Ended Impedance" (at 89 -5) (layer "Dwgs.User")
      (effects (font (size 1 1) (thickness 0.1)))
    (tstamp 6dffd1b0-60f5-46a7-bc44-57a62526d04f)
  )
  (fp_text user "35" (at 55 26) (layer "Dwgs.User")
      (effects (font (size 1 1) (thickness 0.1)) (justify right))
    (tstamp 77a5325a-1007-4a9e-8ceb-e2fe311cc3bc)
  )
  (fp_text user "5" (at 2 22) (layer "Dwgs.User")
      (effects (font (size 1 1) (thickness 0.1)) (justify left))
    (tstamp 7a5dde1c-dcfb-4549-92c3-9b0ad160910a)
  )
  (fp_text user "Dk" (at 66 -1) (layer "Dwgs.User")
      (effects (font (size 1 1) (thickness 0.1)) (justify left))
    (tstamp 7a70bc68-95b7-4d83-be52-7ece5956e57f)
  )
  (fp_text user "Differential Impedance" (at 132 -5) (layer "Dwgs.User")
      (effects (font (size 1 1) (thickness 0.1)))
    (tstamp 7c4f673f-dde0-4ced-aa4b-723fe3198b59)
  )
  (fp_text user "35" (at 55 22) (layer "Dwgs.User")
      (effects (font (size 1 1) (thickness 0.1)) (justify right))
    (tstamp 7dc358d4-896b-4e3b-b776-314d00fbf8e7)
  )
  (fp_text user "50 +/- 10/" (at 102 6) (layer "Dwgs.User")
      (effects (font (size 1 1) (thickness 0.1)) (justify right))
    (tstamp 7dc6897e-85cc-49c5-a6d2-f2d6ff57d50e)
  )
  (fp_text user "1" (at 2 6) (layer "Dwgs.User")
      (effects (font (size 1 1) (thickness 0.1)) (justify left))
    (tstamp 8401b0e2-a97e-47c2-9749-24da10267b4b)
  )
  (fp_text user "Prepreg (2125)" (at 26 32) (layer "Dwgs.User")
      (effects (font (size 1 1) (thickness 0.1)) (justify left))
    (tstamp 843b6398-fe42-40df-b4dd-26e3f687b184)
  )
  (fp_text user "In4.Cu" (at 7 22) (layer "Dwgs.User")
      (effects (font (size 1 1) (thickness 0.1)) (justify left))
    (tstamp 87f859c0-6b53-4eb9-962b-e2c6358f15df)
  )
  (fp_text user "4.3" (at 68 24) (layer "Dwgs.User")
      (effects (font (size 1 1) (thickness 0.1)) (justify right))
    (tstamp 8b3281e4-7be2-475b-a412-c92b1f26decb)
  )
  (fp_text user "Signal" (at 26 18) (layer "Dwgs.User")
      (effects (font (size 1 1) (thickness 0.1)) (justify left))
    (tstamp 990ff8ae-1e25-41fb-aeb9-7e8147629b69)
  )
  (fp_text user "1000 +/- 10/" (at 63 40) (layer "Dwgs.User")
      (effects (font (size 1 1) (thickness 0.1)) (justify right))
    (tstamp 9a5db9c5-4240-4f96-a8ee-13c8f0ed43cc)
  )
  (fp_text user "4.3" (at 68 16) (layer "Dwgs.User")
      (effects (font (size 1 1) (thickness 0.1)) (justify right))
    (tstamp 9e34ff19-e01b-49cb-95fa-378a709a43ca)
  )
  (fp_text user "4" (at 2 18) (layer "Dwgs.User")
      (effects (font (size 1 1) (thickness 0.1)) (justify left))
    (tstamp a2805f81-e72b-4e9b-92b9-34312904db86)
  )
  (fp_text user "100 +/- 10/" (at 156.5 14) (layer "Dwgs.User")
      (effects (font (size 1 1) (thickness 0.1)) (justify right))
    (tstamp a5d92c6f-8d1b-4b12-afb2-dbe120354779)
  )
  (fp_text user "F.Cu" (at 7 6) (layer "Dwgs.User")
      (effects (font (size 1 1) (thickness 0.1)) (justify left))
    (tstamp a87f272f-17a2-4d0e-a412-e3cf356841de)
  )
  (fp_text user "Thickness (um)" (at 48 -1) (layer "Dwgs.User")
      (effects (font (size 1 1) (thickness 0.1)) (justify left))
    (tstamp b68b3b16-6cec-443f-b52f-5d03f2c5aad0)
  )
  (fp_text user "100" (at 55 24) (layer "Dwgs.User")
      (effects (font (size 1 1) (thickness 0.1)) (justify right))
    (tstamp bba35796-542c-4c60-be8d-ef268589566a)
  )
  (fp_text user "Signal" (at 26 34) (layer "Dwgs.User")
      (effects (font (size 1 1) (thickness 0.1)) (justify left))
    (tstamp beccc48f-ad91-4961-80f6-6e81b9a4d006)
  )
  (fp_text user "Trace Width (um)" (at 115 -1) (layer "Dwgs.User")
      (effects (font (size 1 1) (thickness 0.1)))
    (tstamp c077959e-2421-4194-a30b-fc218d2ea840)
  )
  (fp_text user "100 +/- 10/" (at 156.5 34) (layer "Dwgs.User")
      (effects (font (size 1 1) (thickness 0.1)) (justify right))
    (tstamp c215a898-92a7-4c6f-973b-f32edc70b1c4)
  )
  (fp_text user "Layer (File) Name" (at 6 -1) (layer "Dwgs.User")
      (effects (font (size 1 1) (thickness 0.1)) (justify left))
    (tstamp c46e2c9e-0bad-4521-b206-54d949a9c1b3)
  )
  (fp_text user "4.3" (at 68 20) (layer "Dwgs.User")
      (effects (font (size 1 1) (thickness 0.1)) (justify right))
    (tstamp c58104d7-c629-4d52-a147-4316db1120a3)
  )
  (fp_text user "Signal" (at 26 26) (layer "Dwgs.User")
      (effects (font (size 1 1) (thickness 0.1)) (justify left))
    (tstamp c7260dff-936f-48f5-bfd1-1d94f63b0455)
  )
  (fp_text user "Reference Board Stackup" (at 34 -5) (layer "Dwgs.User")
      (effects (font (size 1 1) (thickness 0.1)))
    (tstamp cc25b66f-1bfa-441c-b960-0a514c612542)
  )
  (fp_text user "Impedance (Ohms)" (at 151 -1) (layer "Dwgs.User")
      (effects (font (size 1 1) (thickness 0.1)))
    (tstamp d0e6661c-4d47-4995-9f40-938da2e6fe49)
  )
  (fp_text user "3" (at 2 14) (layer "Dwgs.User")
      (effects (font (size 1 1) (thickness 0.1)) (justify left))
    (tstamp d17b9bc2-0ff8-45e9-aa19-267f021120bd)
  )
  (fp_text user "35" (at 55 34) (layer "Dwgs.User")
      (effects (font (size 1 1) (thickness 0.1)) (justify right))
    (tstamp d2ddc4cf-cabc-4f47-a01b-9406258acd0f)
  )
  (fp_text user "2" (at 2 10) (layer "Dwgs.User")
      (effects (font (size 1 1) (thickness 0.1)) (justify left))
    (tstamp d302c40b-d553-4b97-8760-79de88c53e34)
  )
  (fp_text user "GND" (at 26 30) (layer "Dwgs.User")
      (effects (font (size 1 1) (thickness 0.1)) (justify left))
    (tstamp d5bcb8c9-2dc3-4727-a9bc-355592051bc7)
  )
  (fp_text user "35" (at 55 18) (layer "Dwgs.User")
      (effects (font (size 1 1) (thickness 0.1)) (justify right))
    (tstamp da3d0ff9-849a-4bf2-b504-f90fc0a0cac6)
  )
  (fp_text user "Silkscreen" (at 26 38) (layer "Dwgs.User")
      (effects (font (size 1 1) (thickness 0.1)) (justify left))
    (tstamp dca515cf-0559-4864-b0cb-d95c67a73386)
  )
  (fp_text user "In6.Cu" (at 7 30) (layer "Dwgs.User")
      (effects (font (size 1 1) (thickness 0.1)) (justify left))
    (tstamp e059f90f-109d-403d-80bb-ffa5c91e9dac)
  )
  (fp_text user "Signal" (at 26 14) (layer "Dwgs.User")
      (effects (font (size 1 1) (thickness 0.1)) (justify left))
    (tstamp e339359e-a7a2-4731-9a1a-170798704fa1)
  )
  (fp_text user "100" (at 117 34) (layer "Dwgs.User")
      (effects (font (size 1 1) (thickness 0.1)) (justify right))
    (tstamp e5b1cff8-b1fe-4801-97d8-ef623c401ea9)
  )
  (fp_text user "4.3" (at 68 12) (layer "Dwgs.User")
      (effects (font (size 1 1) (thickness 0.1)) (justify right))
    (tstamp e915b548-ace6-41d0-bc79-71d5fb6cf972)
  )
  (fp_text user "In1.Cu" (at 7 10) (layer "Dwgs.User")
      (effects (font (size 1 1) (thickness 0.1)) (justify left))
    (tstamp e9bc633b-9117-4002-87f5-7eef10f106e7)
  )
  (fp_text user "Silkscreen" (at 26 2) (layer "Dwgs.User")
      (effects (font (size 1 1) (thickness 0.1)) (justify left))
    (tstamp ea767377-3fc2-4900-8a25-05ab94e8e656)
  )
  (fp_text user "100" (at 55 28) (layer "Dwgs.User")
      (effects (font (size 1 1) (thickness 0.1)) (justify right))
    (tstamp eb914466-1007-4d7e-a15f-8dc95b745206)
  )
  (fp_text user "Core" (at 26 20) (layer "Dwgs.User")
      (effects (font (size 1 1) (thickness 0.1)) (justify left))
    (tstamp f0b0fedb-9608-4866-b417-f76b17467b73)
  )
  (fp_text user "B.Cu" (at 7 34) (layer "Dwgs.User")
      (effects (font (size 1 1) (thickness 0.1)) (justify left))
    (tstamp f0cb509e-3da0-475b-873e-8f863e81ed34)
  )
  (fp_text user "B.Silks" (at 7 38) (layer "Dwgs.User")
      (effects (font (size 1 1) (thickness 0.1)) (justify left))
    (tstamp f2ed9571-f8b2-478e-bc24-eabdff79fd04)
  )
  (fp_text user "x" (at 134.5 18) (layer "Dwgs.User")
      (effects (font (size 1 1) (thickness 0.1)) (justify right))
    (tstamp f4ee6336-d634-44b4-b9a3-b8bfce3f4680)
  )
  (fp_text user "Impedance (Ohms)" (at 97 -1) (layer "Dwgs.User")
      (effects (font (size 1 1) (thickness 0.1)))
    (tstamp fa83915d-ba6e-45b1-9d4e-701344a6c5fe)
  )
  (fp_text user "B.Mask" (at 7 36) (layer "Dwgs.User")
      (effects (font (size 1 1) (thickness 0.1)) (justify left))
    (tstamp fb46c94e-4732-4096-be91-3850dda8843f)
  )
  (fp_text user "GND" (at 26 22) (layer "Dwgs.User")
      (effects (font (size 1 1) (thickness 0.1)) (justify left))
    (tstamp fbf08db1-e1f5-42cb-9e1b-6dd8ef8583ee)
  )
  (fp_text user "Trace Space (um)" (at 132 -1) (layer "Dwgs.User")
      (effects (font (size 1 1) (thickness 0.1)))
    (tstamp fdddf67d-df33-4f89-a06e-a7d49e6028b2)
  )
  (fp_line (start -2 -7) (end -2 39)
    (stroke (width 0.12) (type solid)) (layer "Dwgs.User") (tstamp c0944131-8ce5-4e6d-a73d-7924d7e8a00a))
  (fp_line (start -2 -3) (end 160 -3)
    (stroke (width 0.12) (type solid)) (layer "Dwgs.User") (tstamp f58462c3-88f9-4e97-b04a-634fa399b3f5))
  (fp_line (start -2 1) (end 160 1)
    (stroke (width 0.12) (type solid)) (layer "Dwgs.User") (tstamp bfbfe772-23ef-4964-9c8f-997b1c3b8b54))
  (fp_line (start -2 3) (end 47 3)
    (stroke (width 0.12) (type solid)) (layer "Dwgs.User") (tstamp 05395980-41bc-48fd-96bf-62883a85100e))
  (fp_line (start -2 7) (end 160 7)
    (stroke (width 0.12) (type solid)) (layer "Dwgs.User") (tstamp 56f2866e-9221-4345-af9b-41f67fda16fc))
  (fp_line (start -2 11) (end 160 11)
    (stroke (width 0.12) (type solid)) (layer "Dwgs.User") (tstamp e98d5e11-9cfc-4485-b22f-1154e7137860))
  (fp_line (start -2 15) (end 160 15)
    (stroke (width 0.12) (type solid)) (layer "Dwgs.User") (tstamp 408b53a5-ee03-4c0d-83c9-70dda5c3b661))
  (fp_line (start -2 19) (end 160 19)
    (stroke (width 0.12) (type solid)) (layer "Dwgs.User") (tstamp d9468c06-2384-41ab-9f35-e4ab2f32d1e9))
  (fp_line (start -2 23) (end 160 23)
    (stroke (width 0.12) (type solid)) (layer "Dwgs.User") (tstamp 09b3151d-ffb7-4cfc-a84d-5dcda2a947fd))
  (fp_line (start -2 25) (end 160 25)
    (stroke (width 0.12) (type solid)) (layer "Dwgs.User") (tstamp 807dbce5-4f43-4aea-90a5-68138e8378fc))
  (fp_line (start -2 29) (end 160 29)
    (stroke (width 0.12) (type solid)) (layer "Dwgs.User") (tstamp 6429526c-a94f-4e10-9f56-2187e27ce474))
  (fp_line (start -2 33) (end 160 33)
    (stroke (width 0.12) (type solid)) (layer "Dwgs.User") (tstamp 731aa2c0-51e2-4f4b-8713-72676bfe4889))
  (fp_line (start -2 39) (end 160 39)
    (stroke (width 0.12) (type solid)) (layer "Dwgs.User") (tstamp 573145d3-1c96-4d12-ba13-e1afc74a4c4a))
  (fp_line (start 5 -3) (end 5 39)
    (stroke (width 0.12) (type solid)) (layer "Dwgs.User") (tstamp 298af8b4-bdfe-4935-8cba-713068ddca75))
  (fp_line (start 25 -3) (end 25 39)
    (stroke (width 0.12) (type solid)) (layer "Dwgs.User") (tstamp 6f5f1592-6d5d-4d4a-9972-66b0fb42b90c))
  (fp_line (start 47 -3) (end 47 39)
    (stroke (width 0.12) (type solid)) (layer "Dwgs.User") (tstamp f64966d1-b882-4e77-b185-e6e644ca6308))
  (fp_line (start 47 37) (end -2 37)
    (stroke (width 0.12) (type solid)) (layer "Dwgs.User") (tstamp 79963c83-1f2d-4119-89fb-45ef7747d81d))
  (fp_line (start 47 41) (end 47 39)
    (stroke (width 0.12) (type solid)) (layer "Dwgs.User") (tstamp c17a103d-bc89-4078-bbb1-473d07f7e40b))
  (fp_line (start 64 -3) (end 64 39)
    (stroke (width 0.12) (type solid)) (layer "Dwgs.User") (tstamp 6391f33c-1949-40fc-a608-de4a898c20a0))
  (fp_line (start 64 39) (end 64 41)
    (stroke (width 0.12) (type solid)) (layer "Dwgs.User") (tstamp 221a04f8-d3af-48cd-a26d-d85883a78dc7))
  (fp_line (start 64 41) (end 47 41)
    (stroke (width 0.12) (type solid)) (layer "Dwgs.User") (tstamp f97ab8bd-c7ef-4a74-8147-93d915ca3d5f))
  (fp_line (start 71 -3) (end 71 -7)
    (stroke (width 0.12) (type solid)) (layer "Dwgs.User") (tstamp a4fe4a58-c368-447d-a91f-e86c5e1101f0))
  (fp_line (start 71 -3) (end 71 39)
    (stroke (width 0.12) (type solid)) (layer "Dwgs.User") (tstamp d1f7810d-32af-4988-a0be-3f92a9e24bbf))
  (fp_line (start 88 -3) (end 88 39)
    (stroke (width 0.12) (type solid)) (layer "Dwgs.User") (tstamp 3cfcbbda-4ba8-493f-9f12-2ccc0df1e4d4))
  (fp_line (start 107 -3) (end 107 -7)
    (stroke (width 0.12) (type solid)) (layer "Dwgs.User") (tstamp 390489d7-5b3e-4b7a-af7f-0c7d879ba82d))
  (fp_line (start 107 -3) (end 107 39)
    (stroke (width 0.12) (type solid)) (layer "Dwgs.User") (tstamp 85e6feda-9ee2-45a6-83c1-f3a4031f00c6))
  (fp_line (start 124 -3) (end 124 39)
    (stroke (width 0.12) (type solid)) (layer "Dwgs.User") (tstamp 60cc63d5-ff0b-4a31-bb07-54a2f43c00df))
  (fp_line (start 142 -3) (end 142 39)
    (stroke (width 0.12) (type solid)) (layer "Dwgs.User") (tstamp 2c4c57d7-a98d-4650-afb8-f4d38ecc7e0b))
  (fp_line (start 160 -7) (end -2 -7)
    (stroke (width 0.12) (type solid)) (layer "Dwgs.User") (tstamp d124ff52-780c-441c-aef9-1614f45ce53c))
  (fp_line (start 160 5) (end -2 5)
    (stroke (width 0.12) (type solid)) (layer "Dwgs.User") (tstamp 0f62bad5-1257-4bb7-b868-fe2612d1851c))
  (fp_line (start 160 9) (end -2 9)
    (stroke (width 0.12) (type solid)) (layer "Dwgs.User") (tstamp 464f0fe4-187b-42ef-9409-0154617e571d))
  (fp_line (start 160 13) (end -2 13)
    (stroke (width 0.12) (type solid)) (layer "Dwgs.User") (tstamp f6db7229-b371-4a1f-be78-fffb1cd4c56f))
  (fp_line (start 160 17) (end -2 17)
    (stroke (width 0.12) (type solid)) (layer "Dwgs.User") (tstamp 5251dc94-597f-4e89-9cfe-408b3f6fac04))
  (fp_line (start 160 21) (end -2 21)
    (stroke (width 0.12) (type solid)) (layer "Dwgs.User") (tstamp 9f53ab5e-748d-450e-8e9b-bb95b32a7607))
  (fp_line (start 160 27) (end -2 27)
    (stroke (width 0.12) (type solid)) (layer "Dwgs.User") (tstamp f1806d49-2d32-4a21-b055-36f33d4d8b22))
  (fp_line (start 160 31) (end -2 31)
    (stroke (width 0.12) (type solid)) (layer "Dwgs.User") (tstamp 6db0bc84-8cbf-4251-a6b8-a06479da5d14))
  (fp_line (start 160 35) (end -2 35)
    (stroke (width 0.12) (type solid)) (layer "Dwgs.User") (tstamp 84c29c0f-05f8-4fb1-9f40-e2272f36f9b5))
  (fp_line (start 160 39) (end 160 -7)
    (stroke (width 0.12) (type solid)) (layer "Dwgs.User") (tstamp 47c02981-6312-459d-9795-9ab0fa068f16))
  (fp_circle (center 62.2 39.6) (end 62.4 39.6)
    (stroke (width 0.1) (type solid)) (fill none) (layer "Dwgs.User") (tstamp be01d230-d46e-4375-8469-f1f6a6faf09b))
  (fp_circle (center 62.8 40.4) (end 63 40.4)
    (stroke (width 0.1) (type solid)) (fill none) (layer "Dwgs.User") (tstamp 3b750386-83dd-45ea-9765-4064d6595838))
  (fp_circle (center 101.2 5.6) (end 101.4 5.6)
    (stroke (width 0.1) (type solid)) (fill none) (layer "Dwgs.User") (tstamp 5e06b2f6-1c36-4fc4-ab91-1d70e094ffe7))
  (fp_circle (center 101.2 13.6) (end 101.4 13.6)
    (stroke (width 0.1) (type solid)) (fill none) (layer "Dwgs.User") (tstamp 58a43056-946f-4d90-a4ce-2fa3cebbcbad))
  (fp_circle (center 101.2 17.6) (end 101.4 17.6)
    (stroke (width 0.1) (type solid)) (fill none) (layer "Dwgs.User") (tstamp 9407594c-3be9-4ad2-bb21-23e7978a04ff))
  (fp_circle (center 101.2 25.6) (end 101.4 25.6)
    (stroke (width 0.1) (type solid)) (fill none) (layer "Dwgs.User") (tstamp 9e001bb1-d350-4969-9e9d-151c42583e64))
  (fp_circle (center 101.2 33.6) (end 101.4 33.6)
    (stroke (width 0.1) (type solid)) (fill none) (layer "Dwgs.User") (tstamp b02c4dfe-4fcf-4c34-a37c-ec3034ba58be))
  (fp_circle (center 101.8 6.4) (end 102 6.4)
    (stroke (width 0.1) (type solid)) (fill none) (layer "Dwgs.User") (tstamp f01c0568-3477-4a4c-9029-208b008bfe63))
  (fp_circle (center 101.8 14.4) (end 102 14.4)
    (stroke (width 0.1) (type solid)) (fill none) (layer "Dwgs.User") (tstamp fb41bef8-7e36-4e27-8f23-af9175ce3111))
  (fp_circle (center 101.8 18.4) (end 102 18.4)
    (stroke (width 0.1) (type solid)) (fill none) (layer "Dwgs.User") (tstamp 504e6ac1-41a3-458f-9c8b-3fc12bcda16b))
  (fp_circle (center 101.8 26.4) (end 102 26.4)
    (stroke (width 0.1) (type solid)) (fill none) (layer "Dwgs.User") (tstamp dafa41e6-5c42-41f5-afc2-d6f947feb96c))
  (fp_circle (center 101.8 34.4) (end 102 34.4)
    (stroke (width 0.1) (type solid)) (fill none) (layer "Dwgs.User") (tstamp 19c23c28-c05e-4fcb-962f-c5a34a6f0d59))
  (fp_circle (center 155.7 5.6) (end 155.9 5.6)
    (stroke (width 0.1) (type solid)) (fill none) (layer "Dwgs.User") (tstamp 5388d352-3f95-4ccb-bf3b-4bcd5e6f56dd))
  (fp_circle (center 155.7 13.6) (end 155.9 13.6)
    (stroke (width 0.1) (type solid)) (fill none) (layer "Dwgs.User") (tstamp 5d9cb5e3-f430-4d03-b6e5-02a8e0c0095c))
  (fp_circle (center 155.7 17.6) (end 155.9 17.6)
    (stroke (width 0.1) (type solid)) (fill none) (layer "Dwgs.User") (tstamp b4cf0ca6-780d-4b20-8d36-9febca27b96f))
  (fp_circle (center 155.7 25.6) (end 155.9 25.6)
    (stroke (width 0.1) (type solid)) (fill none) (layer "Dwgs.User") (tstamp c1eee573-a744-4496-9406-5c7c6bfcfb5c))
  (fp_circle (center 155.7 33.6) (end 155.9 33.6)
    (stroke (width 0.1) (type solid)) (fill none) (layer "Dwgs.User") (tstamp 71208aed-ea83-4bb7-856f-7c25fe8aa0f5))
  (fp_circle (center 156.3 6.4) (end 156.5 6.4)
    (stroke (width 0.1) (type solid)) (fill none) (layer "Dwgs.User") (tstamp f5d7e5d9-9736-49dc-a7af-b5955e44c6b6))
  (fp_circle (center 156.3 14.4) (end 156.5 14.4)
    (stroke (width 0.1) (type solid)) (fill none) (layer "Dwgs.User") (tstamp 44556372-1e72-4dce-92db-1cd9460cab5a))
  (fp_circle (center 156.3 18.4) (end 156.5 18.4)
    (stroke (width 0.1) (type solid)) (fill none) (layer "Dwgs.User") (tstamp 0803dab5-0690-4ff4-a240-43596677ed84))
  (fp_circle (center 156.3 26.4) (end 156.5 26.4)
    (stroke (width 0.1) (type solid)) (fill none) (layer "Dwgs.User") (tstamp 3f9feb5a-45d0-4e7f-b288-5c6d193a956f))
  (fp_circle (center 156.3 34.4) (end 156.5 34.4)
    (stroke (width 0.1) (type solid)) (fill none) (layer "Dwgs.User") (tstamp 78c3ac53-c240-4497-9395-0ea95856a792))
  (fp_poly
    (pts
      (xy 0 7)
      (xy -2 7)
      (xy -2 5)
      (xy 0 5)
    )

    (stroke (width 0.1) (type solid)) (fill solid) (layer "Dwgs.User") (tstamp fe00458d-c6a3-4792-8fa5-14a71973ce28))
  (fp_poly
    (pts
      (xy 0 11)
      (xy -2 11)
      (xy -2 9)
      (xy 0 9)
    )

    (stroke (width 0.1) (type solid)) (fill solid) (layer "Dwgs.User") (tstamp 36825944-6b3f-475e-b793-8f8d9974ce2e))
  (fp_poly
    (pts
      (xy 0 15)
      (xy -2 15)
      (xy -2 13)
      (xy 0 13)
    )

    (stroke (width 0.1) (type solid)) (fill solid) (layer "Dwgs.User") (tstamp 7622653e-e6c7-43c9-bcfd-bcd42a6419b9))
  (fp_poly
    (pts
      (xy 0 19)
      (xy -2 19)
      (xy -2 17)
      (xy 0 17)
    )

    (stroke (width 0.1) (type solid)) (fill solid) (layer "Dwgs.User") (tstamp 47b6367c-e0ca-47c1-af5f-a7722feb4ef0))
  (fp_poly
    (pts
      (xy 0 23)
      (xy -2 23)
      (xy -2 21)
      (xy 0 21)
    )

    (stroke (width 0.1) (type solid)) (fill solid) (layer "Dwgs.User") (tstamp bdead31b-5a34-4bbd-b428-f7219542d761))
  (fp_poly
    (pts
      (xy 0 27)
      (xy -2 27)
      (xy -2 25)
      (xy 0 25)
    )

    (stroke (width 0.1) (type solid)) (fill solid) (layer "Dwgs.User") (tstamp d44d4a7e-a866-476c-b82d-926cfe8dbd24))
  (fp_poly
    (pts
      (xy 0 31)
      (xy -2 31)
      (xy -2 29)
      (xy 0 29)
    )

    (stroke (width 0.1) (type solid)) (fill solid) (layer "Dwgs.User") (tstamp fc440826-06a4-484e-8355-447c23d76683))
  (fp_poly
    (pts
      (xy 0 35)
      (xy -2 35)
      (xy -2 33)
      (xy 0 33)
    )

    (stroke (width 0.1) (type solid)) (fill solid) (layer "Dwgs.User") (tstamp 8868839f-fdbd-4f07-862e-b8233cea46bd))
  (fp_poly
    (pts
      (xy 25 9)
      (xy -2 9)
      (xy -2 7)
      (xy 25 7)
    )

    (stroke (width 0.1) (type solid)) (fill solid) (layer "Eco1.User") (tstamp 13b118ee-fc59-484f-8b5d-95aa0caef6d9))
  (fp_poly
    (pts
      (xy 25 17)
      (xy -2 17)
      (xy -2 15)
      (xy 25 15)
    )

    (stroke (width 0.1) (type solid)) (fill solid) (layer "Eco1.User") (tstamp 48a34d41-7c62-47e2-a4a5-091ab194911b))
  (fp_poly
    (pts
      (xy 25 25)
      (xy -2 25)
      (xy -2 23)
      (xy 25 23)
    )

    (stroke (width 0.1) (type solid)) (fill solid) (layer "Eco1.User") (tstamp 6c414aff-561c-4335-9392-7b9c26aad15d))
  (fp_poly
    (pts
      (xy 25 33)
      (xy -2 33)
      (xy -2 31)
      (xy 25 31)
    )

    (stroke (width 0.1) (type solid)) (fill solid) (layer "Eco1.User") (tstamp 480fe211-f7fe-4afc-9f97-74d67e0b81f2))
  (fp_poly
    (pts
      (xy 25 13)
      (xy -2 13)
      (xy -2 11)
      (xy 25 11)
    )

    (stroke (width 0.1) (type solid)) (fill solid) (layer "Eco2.User") (tstamp 1bf81042-9aed-4a96-aae5-75385f9b6d2d))
  (fp_poly
    (pts
      (xy 25 21)
      (xy -2 21)
      (xy -2 19)
      (xy 25 19)
    )

    (stroke (width 0.1) (type solid)) (fill solid) (layer "Eco2.User") (tstamp bbfe2c77-7424-4978-8610-d4d49a6aad1a))
  (fp_poly
    (pts
      (xy 25 29)
      (xy -2 29)
      (xy -2 27)
      (xy 25 27)
    )

    (stroke (width 0.1) (type solid)) (fill solid) (layer "Eco2.User") (tstamp 2da76d9c-ad4e-4c61-adbe-8d6d55f179e4))
  (fp_rect (start -3 -13) (end 161 40)
    (stroke (width 0.05) (type default)) (fill none) (layer "F.CrtYd") (tstamp 74ac0bfb-994c-4267-b371-f644001e28c1))
)
