(footprint "C_0805_2012Metric" (version 20221018) (generator pcbnew)
  (layer "F.Cu")
  (descr "Capacitor SMD 0805 (2012 Metric), square (rectangular) end terminal, IPC_7351 nominal, (Body size source: IPC-SM-782 page 76, https://www.pcb-3d.com/wordpress/wp-content/uploads/ipc-sm-782a_amendment_1_and_2.pdf, https://docs.google.com/spreadsheets/d/1BsfQQcO9C6DZCsRaXUlFlo91Tg2WpOkGARC1WS5S8t0/edit?usp=sharing), generated with kicad-footprint-generator")
  (tags "capacitor")
  (attr smd)
  (fp_text reference "REF**" (at 0 -1.325) (layer "F.SilkS") hide
      (effects (font (size 0.5 0.5) (thickness 0.1) bold))
    (tstamp 748b2e42-8a67-4fcd-8eff-aa3682e30072)
  )
  (fp_text value "C_0805_2012Metric" (at 0 0.075) (layer "F.Fab")
      (effects (font (size 0.1 0.1) (thickness 0.025)))
    (tstamp e1cef26a-9b05-47d0-95ed-57ad6f7a78aa)
  )
  (fp_text user "${REFERENCE}" (at 0 -0.075) (layer "F.Fab")
      (effects (font (size 0.1 0.1) (thickness 0.025)))
    (tstamp c0d28e02-a811-416e-8ea3-8972062d277d)
  )
  (fp_line (start -0.261252 -0.9) (end 0.261252 -0.9)
    (stroke (width 0.12) (type solid)) (layer "F.SilkS") (tstamp e5b89156-25fd-4982-832b-7a101d828db8))
  (fp_line (start -0.261252 0.9) (end 0.261252 0.9)
    (stroke (width 0.12) (type solid)) (layer "F.SilkS") (tstamp a1537c18-e148-4e80-abe3-76952c047734))
  (fp_line (start -1.7 -0.98) (end 1.7 -0.98)
    (stroke (width 0.05) (type solid)) (layer "F.CrtYd") (tstamp 9fb88c89-f8d6-43df-af23-2e208e786425))
  (fp_line (start -1.7 0.98) (end -1.7 -0.98)
    (stroke (width 0.05) (type solid)) (layer "F.CrtYd") (tstamp 57f85840-bafd-4eb2-a30f-3aac019a2b34))
  (fp_line (start 1.7 -0.98) (end 1.7 0.98)
    (stroke (width 0.05) (type solid)) (layer "F.CrtYd") (tstamp 9b846abe-c163-4f56-abb1-1f90b748ef50))
  (fp_line (start 1.7 0.98) (end -1.7 0.98)
    (stroke (width 0.05) (type solid)) (layer "F.CrtYd") (tstamp 12661fea-1ffa-4545-aaad-52ab7216df74))
  (fp_line (start -1 -0.625) (end 1 -0.625)
    (stroke (width 0.1) (type solid)) (layer "F.Fab") (tstamp 4604630f-a6a4-4c66-955a-731baf7104b0))
  (fp_line (start -1 0.625) (end -1 -0.625)
    (stroke (width 0.1) (type solid)) (layer "F.Fab") (tstamp 586b9b4b-d05d-4b12-9dcf-1d926c022460))
  (fp_line (start 1 -0.625) (end 1 0.625)
    (stroke (width 0.1) (type solid)) (layer "F.Fab") (tstamp fc264de6-6f0a-480a-b498-0ace3025117e))
  (fp_line (start 1 0.625) (end -1 0.625)
    (stroke (width 0.1) (type solid)) (layer "F.Fab") (tstamp 8f48e2ee-4bde-4581-b821-e8812a62bf44))
  (pad "1" smd roundrect (at -0.95 0) (size 1 1.45) (layers "F.Cu" "F.Paste" "F.Mask") (roundrect_rratio 0.25) (tstamp 8fcab996-2ba6-4e37-8313-be9ac1a3cf10))
  (pad "2" smd roundrect (at 0.95 0) (size 1 1.45) (layers "F.Cu" "F.Paste" "F.Mask") (roundrect_rratio 0.25) (tstamp 1e36b295-7e96-456f-a51a-a71b62e7b4c1))
  (model "${KICAD6_3DMODEL_DIR}/Capacitor_SMD.3dshapes/C_0805_2012Metric.wrl"
    (offset (xyz 0 0 0))
    (scale (xyz 1 1 1))
    (rotate (xyz 0 0 0))
  )
)
