(footprint "Fiducial_1mm_Mask2mm" (version 20221018) (generator pcbnew)
  (layer "F.Cu")
  (descr "Circular Fiducial, 1mm bare copper, 2mm soldermask opening (Level A)")
  (tags "fiducial")
  (attr smd)
  (fp_text reference "REF**" (at 0 -1.7) (layer "F.SilkS") hide
      (effects (font (size 0.6 0.6) (thickness 0.1) bold))
    (tstamp c37555ce-b7e1-456d-b3c2-635dc0b61528)
  )
  (fp_text value "Fiducial_1mm_Mask2mm" (at 0 1.5) (layer "F.Fab")
      (effects (font (size 0.3 0.3) (thickness 0.06) bold))
    (tstamp 3acbc28f-3ec1-4fa0-88c7-c9b5881359fd)
  )
  (fp_text user "${REFERENCE}" (at 0 0) (layer "F.Fab") hide
      (effects (font (size 0.4 0.4) (thickness 0.06)))
    (tstamp 0d701298-1158-42a8-9060-c1ab8568ba0d)
  )
  (fp_circle (center 0 0) (end 1.25 0)
    (stroke (width 0.05) (type solid)) (fill none) (layer "F.CrtYd") (tstamp c96189ec-e3d2-4b4b-b34a-6d6219e1e661))
  (fp_circle (center 0 0) (end 1 0)
    (stroke (width 0.1) (type solid)) (fill none) (layer "F.Fab") (tstamp ae7ecfa2-e3b7-49f1-a311-a93e6aedc35d))
  (pad "" smd circle (at 0 0) (size 1 1) (layers "F.Cu" "F.Mask")
    (solder_mask_margin 0.5) (clearance 0.5) (tstamp 3f8888f6-f22f-4195-88da-429d6be85476))
)
