(module LOGO (layer F.Cu)
  (at 0 0)
 (fp_text reference "G***" (at 0 0) (layer F.SilkS) hide
  (effects (font (thickness 0.3)))
  )
  (fp_text value "LOGO" (at 0.75 0) (layer F.SilkS) hide
  (effects (font (thickness 0.3)))
  )
  (fp_poly (pts (xy 1.971040 -0.386080) (xy 1.696720 -0.386080) (xy 1.696720 0.716280) (xy 1.305560 0.716280) (xy 1.305560 -0.386080) (xy 1.031240 -0.386080) (xy 1.031240 -0.706120) (xy 1.971040 -0.706120)
     (xy 1.971040 -0.386080) )(layer F.Mask) (width  0.010000)
  )
  (fp_poly (pts (xy -0.554973 0.000617) (xy -0.556260 0.708660) (xy -1.274531 0.709947) (xy -1.992802 0.711235) (xy -1.989257 0.648987) (xy -1.986855 0.616266) (xy -1.983298 0.580277) (xy -1.978836 0.542647)
     (xy -1.973723 0.505006) (xy -1.968212 0.468981) (xy -1.962553 0.436200) (xy -1.957001 0.408292) (xy -1.951806 0.386886) (xy -1.947222 0.373608) (xy -1.946314 0.371930) (xy -1.940903 0.372248)
     (xy -1.925817 0.375079) (xy -1.901040 0.380424) (xy -1.866559 0.388287) (xy -1.822358 0.398673) (xy -1.768422 0.411583) (xy -1.704737 0.427023) (xy -1.631288 0.444996) (xy -1.548060 0.465504)
     (xy -1.455039 0.488553) (xy -1.352209 0.514144) (xy -1.262885 0.536448) (xy -1.181833 0.556696) (xy -1.103508 0.576231) (xy -1.028474 0.594912) (xy -0.957295 0.612601) (xy -0.890535 0.629159)
     (xy -0.828757 0.644447) (xy -0.772525 0.658326) (xy -0.722401 0.670657) (xy -0.678951 0.681301) (xy -0.642738 0.690119) (xy -0.614325 0.696973) (xy -0.594275 0.701723) (xy -0.583153 0.704229)
     (xy -0.580979 0.704591) (xy -0.585273 0.702266) (xy -0.598259 0.695909) (xy -0.619416 0.685763) (xy -0.648221 0.672076) (xy -0.684151 0.655091) (xy -0.726683 0.635056) (xy -0.775296 0.612214)
     (xy -0.829466 0.586811) (xy -0.888672 0.559093) (xy -0.952390 0.529306) (xy -1.020098 0.497693) (xy -1.091273 0.464501) (xy -1.165393 0.429975) (xy -1.216242 0.406311) (xy -1.853384 0.109909)
     (xy -1.833182 0.069731) (xy -1.819744 0.044402) (xy -1.803440 0.015894) (xy -1.785089 -0.014571) (xy -1.765511 -0.045774) (xy -1.745526 -0.076494) (xy -1.725955 -0.105510) (xy -1.707616 -0.131603)
     (xy -1.691329 -0.153551) (xy -1.677915 -0.170135) (xy -1.668193 -0.180133) (xy -1.663700 -0.182576) (xy -1.659223 -0.179404) (xy -1.647318 -0.170185) (xy -1.628441 -0.155283) (xy -1.603045 -0.135064)
     (xy -1.571583 -0.109892) (xy -1.534509 -0.080134) (xy -1.492277 -0.046153) (xy -1.445340 -0.008316) (xy -1.394152 0.033012) (xy -1.339167 0.077467) (xy -1.280838 0.124682) (xy -1.219618 0.174292)
     (xy -1.155963 0.225933) (xy -1.112520 0.261207) (xy -1.047546 0.313942) (xy -0.984729 0.364847) (xy -0.924521 0.413559) (xy -0.867374 0.459716) (xy -0.813739 0.502956) (xy -0.764067 0.542919)
     (xy -0.718809 0.579240) (xy -0.678418 0.611560) (xy -0.643343 0.639516) (xy -0.614037 0.662746) (xy -0.590951 0.680888) (xy -0.574536 0.693580) (xy -0.565243 0.700461) (xy -0.563225 0.701639)
     (xy -0.564056 0.696427) (xy -0.567232 0.681929) (xy -0.572615 0.658713) (xy -0.580064 0.627345) (xy -0.589442 0.588392) (xy -0.600610 0.542420) (xy -0.613429 0.489995) (xy -0.627760 0.431685)
     (xy -0.643465 0.368057) (xy -0.660404 0.299675) (xy -0.678439 0.227108) (xy -0.697432 0.150922) (xy -0.717243 0.071683) (xy -0.729477 0.022860) (xy -0.749748 -0.058005) (xy -0.769328 -0.136193)
     (xy -0.788076 -0.211134) (xy -0.805851 -0.282258) (xy -0.822510 -0.348996) (xy -0.837911 -0.410776) (xy -0.851913 -0.467030) (xy -0.864374 -0.517188) (xy -0.875153 -0.560679) (xy -0.884107 -0.596934)
     (xy -0.891094 -0.625383) (xy -0.895974 -0.645456) (xy -0.898603 -0.656583) (xy -0.899042 -0.658723) (xy -0.894280 -0.662952) (xy -0.880731 -0.667830) (xy -0.859734 -0.673140) (xy -0.832623 -0.678665)
     (xy -0.800738 -0.684188) (xy -0.765414 -0.689491) (xy -0.727988 -0.694357) (xy -0.689797 -0.698568) (xy -0.652177 -0.701907) (xy -0.621013 -0.703931) (xy -0.553685 -0.707426) (xy -0.554973 0.000617) )(layer F.Mask) (width  0.010000)
  )
  (fp_poly (pts (xy 0.383714 -0.705133) (xy 0.417172 -0.704951) (xy 0.444258 -0.704652) (xy 0.463945 -0.704244) (xy 0.475203 -0.703734) (xy 0.477520 -0.703331) (xy 0.474411 -0.699029) (xy 0.465389 -0.687381)
     (xy 0.450908 -0.668959) (xy 0.431422 -0.644331) (xy 0.407385 -0.614070) (xy 0.379252 -0.578746) (xy 0.347478 -0.538929) (xy 0.312517 -0.495190) (xy 0.274823 -0.448101) (xy 0.234851 -0.398230)
     (xy 0.197341 -0.351487) (xy 0.155611 -0.299513) (xy 0.115665 -0.249754) (xy 0.077964 -0.202788) (xy 0.042974 -0.159192) (xy 0.011155 -0.119543) (xy -0.017027 -0.084419) (xy -0.041111 -0.054397)
     (xy -0.060633 -0.030053) (xy -0.075129 -0.011965) (xy -0.084138 -0.000711) (xy -0.087162 0.003087) (xy -0.084816 0.008117) (xy -0.076071 0.020743) (xy -0.061068 0.040788) (xy -0.039949 0.068072)
     (xy -0.012854 0.102417) (xy 0.020075 0.143645) (xy 0.058698 0.191576) (xy 0.102872 0.246033) (xy 0.152458 0.306836) (xy 0.165781 0.323127) (xy 0.206736 0.373180) (xy 0.246437 0.421701)
     (xy 0.284323 0.468005) (xy 0.319835 0.511409) (xy 0.352414 0.551227) (xy 0.381499 0.586778) (xy 0.406531 0.617375) (xy 0.426950 0.642335) (xy 0.442197 0.660975) (xy 0.451711 0.672610)
     (xy 0.453150 0.674370) (xy 0.483252 0.711200) (xy 0.048260 0.710848) (xy -0.207010 0.436303) (xy -0.462280 0.161757) (xy -0.462280 -0.156047) (xy -0.214506 -0.429814) (xy 0.033269 -0.703580)
     (xy 0.255394 -0.704904) (xy 0.301796 -0.705116) (xy 0.344912 -0.705190) (xy 0.383714 -0.705133) )(layer F.Mask) (width  0.010000)
  )
  (fp_poly (pts (xy 0.939800 0.711200) (xy 0.548640 0.711200) (xy 0.548640 -0.706120) (xy 0.939800 -0.706120) (xy 0.939800 0.711200) )(layer F.Mask) (width  0.010000)
  )
  (fp_poly (pts (xy -0.861385 0.061953) (xy -0.825858 0.137589) (xy -0.791562 0.210681) (xy -0.758742 0.280704) (xy -0.727644 0.347132) (xy -0.698510 0.409440) (xy -0.671588 0.467103) (xy -0.647120 0.519594)
     (xy -0.625353 0.566389) (xy -0.606530 0.606962) (xy -0.590897 0.640788) (xy -0.578699 0.667340) (xy -0.570179 0.686094) (xy -0.565584 0.696523) (xy -0.564818 0.698590) (xy -0.568186 0.694946)
     (xy -0.577615 0.683879) (xy -0.592737 0.665836) (xy -0.613184 0.641262) (xy -0.638590 0.610602) (xy -0.668586 0.574303) (xy -0.702806 0.532810) (xy -0.740882 0.486570) (xy -0.782446 0.436027)
     (xy -0.827132 0.381627) (xy -0.874571 0.323817) (xy -0.924397 0.263042) (xy -0.976242 0.199747) (xy -1.012149 0.155878) (xy -1.457693 -0.388620) (xy -1.441317 -0.402625) (xy -1.421007 -0.418560)
     (xy -1.393694 -0.437931) (xy -1.361345 -0.459525) (xy -1.325929 -0.482128) (xy -1.289414 -0.504526) (xy -1.253771 -0.525504) (xy -1.220966 -0.543851) (xy -1.192970 -0.558351) (xy -1.176531 -0.565880)
     (xy -1.159739 -0.572896) (xy -0.861385 0.061953) )(layer F.Mask) (width  0.010000)
  )
)
