(footprint "MountingHole_2.4x6.4mm_M4_Pad" (version 20221018) (generator pcbnew)
  (layer "F.Cu")
  (descr "Mounting Hole 4.3x6.2mm, M4")
  (tags "mounting hole 4.3x6.2mm m4")
  (attr exclude_from_pos_files exclude_from_bom)
  (fp_text reference "REF**" (at 0 -5.3) (layer "F.SilkS")
      (effects (font (size 1 1) (thickness 0.15)))
    (tstamp ade5d5d3-f51c-4fb2-8f4a-b10fb702b42c)
  )
  (fp_text value "MountingHole_2.4x6.4mm_M4_Pad" (at 0 5.3) (layer "F.Fab")
      (effects (font (size 1 1) (thickness 0.15)))
    (tstamp bbda5a54-097c-4947-a72d-6457c2f646ab)
  )
  (fp_text user "${REFERENCE}" (at 0.01 0) (layer "F.Fab")
      (effects (font (size 1 1) (thickness 0.15)))
    (tstamp f7eb1ce3-343d-4161-92de-07b1d9daa533)
  )
  (fp_line (start -2.5 -1.8) (end 2.5 -1.8)
    (stroke (width 0.05) (type solid)) (layer "F.CrtYd") (tstamp ab1147e8-d874-4a4c-91fd-4d82d623ba28))
  (fp_line (start 2.5 1.8) (end -2.5 1.8)
    (stroke (width 0.05) (type solid)) (layer "F.CrtYd") (tstamp 0d232c9d-fa80-451a-9edb-a5f204ff6d5a))
  (fp_arc (start -2.5 1.8) (mid -4.3 0) (end -2.5 -1.8)
    (stroke (width 0.05) (type solid)) (layer "F.CrtYd") (tstamp 45edc568-3cb8-4fea-87b7-6b2102ba9071))
  (fp_arc (start 2.5 -1.8) (mid 4.3 0) (end 2.5 1.8)
    (stroke (width 0.05) (type solid)) (layer "F.CrtYd") (tstamp fd504c37-c576-4f1a-9357-d38a1f871a37))
  (pad "1" thru_hole oval (at 0 0) (size 8.4 3.4) (drill oval 6.4 2.4) (layers "*.Cu" "*.Mask") (tstamp 1c1f6a2d-610c-4f01-aa3f-bd04015a69c1))
)
