(footprint "mouse-bite-2.54mm-slot" (version 20221018) (generator pcbnew)
  (layer "F.Cu")
  (attr through_hole)
  (fp_text reference "mouse-bite-2.54mm-slot" (at 0 -1.8) (layer "F.SilkS") hide
      (effects (font (size 0.5 0.5) (thickness 0.1) bold))
    (tstamp 38716297-0e2f-404a-80bf-f5e4a1cc03a0)
  )
  (fp_text value "VAL**" (at 0 1.8) (layer "F.SilkS") hide
      (effects (font (size 0.5 0.5) (thickness 0.1) bold))
    (tstamp 5bea44a3-d65a-4840-a1a2-d1c54a3ef7ca)
  )
  (fp_arc (start -2.33 -1.27) (mid -1.06 0) (end -2.33 1.27)
    (stroke (width 0.1) (type solid)) (layer "F.SilkS") (tstamp b37b65c0-61c5-4b79-94b5-fd99406d7a02))
  (fp_arc (start 2.33 1.27) (mid 1.06 0) (end 2.33 -1.27)
    (stroke (width 0.1) (type solid)) (layer "F.SilkS") (tstamp 324eadc8-f7b0-42a3-8925-cdb70262bbd4))
  (fp_circle (center -2.33 0) (end -2.27 0)
    (stroke (width 0.05) (type solid)) (fill none) (layer "Dwgs.User") (tstamp 9827d561-41c2-4e23-8e48-d77c5d977bbb))
  (fp_circle (center 2.33 0) (end 2.33 -0.06)
    (stroke (width 0.05) (type solid)) (fill none) (layer "Dwgs.User") (tstamp 8d2f6565-7d68-43fc-93b5-8a34fba65a59))
  (fp_line (start -2.33 0) (end -2.33 0)
    (stroke (width 2.54) (type solid)) (layer "Eco1.User") (tstamp e70640ed-4053-4e0e-a1da-1ed561e06344))
  (fp_line (start 2.33 0) (end 2.33 0)
    (stroke (width 2.54) (type solid)) (layer "Eco1.User") (tstamp 493fc586-cb79-40a1-8c3f-c2f67bf43ab8))
  (pad "" np_thru_hole circle (at -0.8 -1.1) (size 0.5 0.5) (drill 0.5) (layers "*.Cu" "*.Mask") (tstamp 8fcf4120-f9ac-40c5-8ed0-f605666158ac))
  (pad "" np_thru_hole circle (at -0.8 1.1) (size 0.5 0.5) (drill 0.5) (layers "*.Cu" "*.Mask") (tstamp 513381d5-15b6-4688-a629-27fae0cec3ae))
  (pad "" np_thru_hole circle (at 0 -1.1) (size 0.5 0.5) (drill 0.5) (layers "*.Cu" "*.Mask") (tstamp 2bbde5f3-557f-422c-b3bd-9c8bb3f9b18f))
  (pad "" np_thru_hole circle (at 0 1.1) (size 0.5 0.5) (drill 0.5) (layers "*.Cu" "*.Mask") (tstamp 81b404e7-7e99-438e-9ae5-220b90291412))
  (pad "" np_thru_hole circle (at 0.8 -1.1) (size 0.5 0.5) (drill 0.5) (layers "*.Cu" "*.Mask") (tstamp 79935850-cd69-4c94-8800-8ab38b4cb5cf))
  (pad "" np_thru_hole circle (at 0.8 1.1) (size 0.5 0.5) (drill 0.5) (layers "*.Cu" "*.Mask") (tstamp ab89709c-ae0f-4281-b854-c2209a7ae497))
)
