(footprint "QFN-28-1EP_6x6mm_P0.65mm_EP4.25x4.25mm" (version 20221018) (generator pcbnew)
  (layer "F.Cu")
  (descr "QFN, 28 Pin (http://ww1.microchip.com/downloads/en/PackagingSpec/00000049BQ.pdf#page=289), generated with kicad-footprint-generator ipc_noLead_generator.py")
  (tags "QFN NoLead")
  (attr smd)
  (fp_text reference "REF**" (at 0 -4.3) (layer "F.SilkS") hide
      (effects (font (size 0.5 0.5) (thickness 0.1) bold))
    (tstamp a436084c-cac3-41e0-b8d1-440e13e9b8df)
  )
  (fp_text value "QFN-28-1EP_6x6mm_P0.65mm_EP4.25x4.25mm" (at 0 4.9) (layer "F.Fab")
      (effects (font (size 0.4 0.4) (thickness 0.1)))
    (tstamp 18b92deb-8933-4e9d-b60c-fbe129e97c29)
  )
  (fp_text user "${REFERENCE}" (at 0 4.1) (layer "F.Fab")
      (effects (font (size 0.4 0.4) (thickness 0.1)))
    (tstamp 04328b3a-9b72-4dd2-b631-cbdd72545e76)
  )
  (fp_line (start -3.11 3.11) (end -3.11 2.36)
    (stroke (width 0.12) (type solid)) (layer "F.SilkS") (tstamp e4973cb5-da38-441f-94de-2e30171d6413))
  (fp_line (start -2.36 -3.11) (end -3.11 -3.11)
    (stroke (width 0.12) (type solid)) (layer "F.SilkS") (tstamp 2614d198-0a0f-40a7-8ff9-116f7a9f29cc))
  (fp_line (start -2.36 3.11) (end -3.11 3.11)
    (stroke (width 0.12) (type solid)) (layer "F.SilkS") (tstamp ceb4dfea-4da0-48f0-92fd-fdd4e4492b2e))
  (fp_line (start 2.36 -3.11) (end 3.11 -3.11)
    (stroke (width 0.12) (type solid)) (layer "F.SilkS") (tstamp 808f5c3b-b44b-4945-a7b8-24bd216ec730))
  (fp_line (start 2.36 3.11) (end 3.11 3.11)
    (stroke (width 0.12) (type solid)) (layer "F.SilkS") (tstamp a965172f-0752-4088-b680-38466abac20e))
  (fp_line (start 3.11 -3.11) (end 3.11 -2.36)
    (stroke (width 0.12) (type solid)) (layer "F.SilkS") (tstamp c4765f43-1382-43b4-a6ed-e1f989df5859))
  (fp_line (start 3.11 3.11) (end 3.11 2.36)
    (stroke (width 0.12) (type solid)) (layer "F.SilkS") (tstamp ab9126d2-ba96-407f-8402-142a81830290))
  (fp_line (start -3.6 -3.6) (end -3.6 3.6)
    (stroke (width 0.05) (type solid)) (layer "F.CrtYd") (tstamp 9273d5de-4a4d-4b5c-93b0-3bb4b4ba3aec))
  (fp_line (start -3.6 3.6) (end 3.6 3.6)
    (stroke (width 0.05) (type solid)) (layer "F.CrtYd") (tstamp 50305849-8418-4567-9710-934a174f94ad))
  (fp_line (start 3.6 -3.6) (end -3.6 -3.6)
    (stroke (width 0.05) (type solid)) (layer "F.CrtYd") (tstamp 27bc2622-a706-4eee-8c55-15dafda912e4))
  (fp_line (start 3.6 3.6) (end 3.6 -3.6)
    (stroke (width 0.05) (type solid)) (layer "F.CrtYd") (tstamp d7f48be4-abbb-49d8-9bfe-249b1b0614e0))
  (fp_line (start -3 -2) (end -2 -3)
    (stroke (width 0.1) (type solid)) (layer "F.Fab") (tstamp 9c8790e4-26f0-4603-8d35-fd52ed7dc4f8))
  (fp_line (start -3 3) (end -3 -2)
    (stroke (width 0.1) (type solid)) (layer "F.Fab") (tstamp 3b918a23-936b-4f0a-a956-0fab68cf44a3))
  (fp_line (start -2 -3) (end 3 -3)
    (stroke (width 0.1) (type solid)) (layer "F.Fab") (tstamp 68f26cff-367a-4bf4-91cd-a8996d131398))
  (fp_line (start 3 -3) (end 3 3)
    (stroke (width 0.1) (type solid)) (layer "F.Fab") (tstamp ee585270-c292-4765-a3bf-6813c71dab90))
  (fp_line (start 3 3) (end -3 3)
    (stroke (width 0.1) (type solid)) (layer "F.Fab") (tstamp fbd8ac80-29d7-489a-ad90-18833fd60486))
  (pad "" smd roundrect (at -1.42 -1.42) (size 1.14 1.14) (layers "F.Paste") (roundrect_rratio 0.219298) (tstamp 7c40a1ed-38d1-453b-8b03-4e118a624a5b))
  (pad "" smd roundrect (at -1.42 0) (size 1.14 1.14) (layers "F.Paste") (roundrect_rratio 0.219298) (tstamp f3799882-a6b5-48c6-b6c7-a869d00fa4cd))
  (pad "" smd roundrect (at -1.42 1.42) (size 1.14 1.14) (layers "F.Paste") (roundrect_rratio 0.219298) (tstamp 118e9d10-8dfe-4abd-92b4-b06707c1d52f))
  (pad "" smd roundrect (at 0 -1.42) (size 1.14 1.14) (layers "F.Paste") (roundrect_rratio 0.219298) (tstamp 630b67a5-1d7e-41e4-88c7-1c9759c232fa))
  (pad "" smd roundrect (at 0 0) (size 1.14 1.14) (layers "F.Paste") (roundrect_rratio 0.219298) (tstamp 46e0bab0-a437-4e3f-b138-86a75d5542b0))
  (pad "" smd roundrect (at 0 1.42) (size 1.14 1.14) (layers "F.Paste") (roundrect_rratio 0.219298) (tstamp fe8a9335-96bb-458f-860e-19b897593187))
  (pad "" smd roundrect (at 1.42 -1.42) (size 1.14 1.14) (layers "F.Paste") (roundrect_rratio 0.219298) (tstamp 2df3472f-40b1-45dd-8729-4cb0b2b2ce9d))
  (pad "" smd roundrect (at 1.42 0) (size 1.14 1.14) (layers "F.Paste") (roundrect_rratio 0.219298) (tstamp 25683c80-4735-4bcb-8dd4-c86f362dafcd))
  (pad "" smd roundrect (at 1.42 1.42) (size 1.14 1.14) (layers "F.Paste") (roundrect_rratio 0.219298) (tstamp 956ca03e-c2af-457e-b474-4bcf4662bcb1))
  (pad "1" smd roundrect (at -2.8375 -1.95) (size 1.025 0.3) (layers "F.Cu" "F.Paste" "F.Mask") (roundrect_rratio 0.25) (tstamp 46fff6f0-3cf2-4909-99f5-00dbb581ba83))
  (pad "2" smd roundrect (at -2.8375 -1.3) (size 1.025 0.3) (layers "F.Cu" "F.Paste" "F.Mask") (roundrect_rratio 0.25) (tstamp d8a0e56d-4c10-4e01-896b-d279c3545345))
  (pad "3" smd roundrect (at -2.8375 -0.65) (size 1.025 0.3) (layers "F.Cu" "F.Paste" "F.Mask") (roundrect_rratio 0.25) (tstamp c308beba-8468-4623-8906-a2ed7bb74878))
  (pad "4" smd roundrect (at -2.8375 0) (size 1.025 0.3) (layers "F.Cu" "F.Paste" "F.Mask") (roundrect_rratio 0.25) (tstamp e382c1f9-7943-4d20-b05d-46030f388b96))
  (pad "5" smd roundrect (at -2.8375 0.65) (size 1.025 0.3) (layers "F.Cu" "F.Paste" "F.Mask") (roundrect_rratio 0.25) (tstamp 2ce1606e-07e9-46ec-974c-c59e4b0ca172))
  (pad "6" smd roundrect (at -2.8375 1.3) (size 1.025 0.3) (layers "F.Cu" "F.Paste" "F.Mask") (roundrect_rratio 0.25) (tstamp e981c765-f3ad-4932-9fbe-0efe54d5d933))
  (pad "7" smd roundrect (at -2.8375 1.95) (size 1.025 0.3) (layers "F.Cu" "F.Paste" "F.Mask") (roundrect_rratio 0.25) (tstamp c0d04347-0b8e-43be-a517-636931ce57d4))
  (pad "8" smd roundrect (at -1.95 2.8375) (size 0.3 1.025) (layers "F.Cu" "F.Paste" "F.Mask") (roundrect_rratio 0.25) (tstamp 6d444df7-b3bf-4b8c-b6c2-1149dd2079ac))
  (pad "9" smd roundrect (at -1.3 2.8375) (size 0.3 1.025) (layers "F.Cu" "F.Paste" "F.Mask") (roundrect_rratio 0.25) (tstamp 647cc3be-48f1-44ea-8808-21a3049dbb3f))
  (pad "10" smd roundrect (at -0.65 2.8375) (size 0.3 1.025) (layers "F.Cu" "F.Paste" "F.Mask") (roundrect_rratio 0.25) (tstamp a8d88e63-d04e-4a8f-afba-06c828f5634f))
  (pad "11" smd roundrect (at 0 2.8375) (size 0.3 1.025) (layers "F.Cu" "F.Paste" "F.Mask") (roundrect_rratio 0.25) (tstamp ebb3cbba-2872-4be3-b69b-7d7edb9718bb))
  (pad "12" smd roundrect (at 0.65 2.8375) (size 0.3 1.025) (layers "F.Cu" "F.Paste" "F.Mask") (roundrect_rratio 0.25) (tstamp 2f3725a0-c87d-4e30-a560-bb0cba12c923))
  (pad "13" smd roundrect (at 1.3 2.8375) (size 0.3 1.025) (layers "F.Cu" "F.Paste" "F.Mask") (roundrect_rratio 0.25) (tstamp edffb83f-8b96-48e5-aa84-8b41c6ae463c))
  (pad "14" smd roundrect (at 1.95 2.8375) (size 0.3 1.025) (layers "F.Cu" "F.Paste" "F.Mask") (roundrect_rratio 0.25) (tstamp 0229b5d1-5f5f-48d3-98f1-c8bb1b9dd3d1))
  (pad "15" smd roundrect (at 2.8375 1.95) (size 1.025 0.3) (layers "F.Cu" "F.Paste" "F.Mask") (roundrect_rratio 0.25) (tstamp 32a997fa-e9d3-4262-95ca-f32ae648f57a))
  (pad "16" smd roundrect (at 2.8375 1.3) (size 1.025 0.3) (layers "F.Cu" "F.Paste" "F.Mask") (roundrect_rratio 0.25) (tstamp 9a7d3e06-00f5-47ed-ad71-770c041a469d))
  (pad "17" smd roundrect (at 2.8375 0.65) (size 1.025 0.3) (layers "F.Cu" "F.Paste" "F.Mask") (roundrect_rratio 0.25) (tstamp 83057d8a-0e14-4f14-ae3a-77b0e8117ff4))
  (pad "18" smd roundrect (at 2.8375 0) (size 1.025 0.3) (layers "F.Cu" "F.Paste" "F.Mask") (roundrect_rratio 0.25) (tstamp c7de47eb-e861-4712-94c9-0eb706a781fa))
  (pad "19" smd roundrect (at 2.8375 -0.65) (size 1.025 0.3) (layers "F.Cu" "F.Paste" "F.Mask") (roundrect_rratio 0.25) (tstamp c1d1a3a2-3a9f-417d-96c2-f2c7ce44bbf8))
  (pad "20" smd roundrect (at 2.8375 -1.3) (size 1.025 0.3) (layers "F.Cu" "F.Paste" "F.Mask") (roundrect_rratio 0.25) (tstamp b2f4e4a0-4139-4781-a55c-613690836bdf))
  (pad "21" smd roundrect (at 2.8375 -1.95) (size 1.025 0.3) (layers "F.Cu" "F.Paste" "F.Mask") (roundrect_rratio 0.25) (tstamp 4f827f61-6e60-412f-8e29-9ee7ac879998))
  (pad "22" smd roundrect (at 1.95 -2.8375) (size 0.3 1.025) (layers "F.Cu" "F.Paste" "F.Mask") (roundrect_rratio 0.25) (tstamp e1214fe8-7065-46e1-9649-db8c5551810d))
  (pad "23" smd roundrect (at 1.3 -2.8375) (size 0.3 1.025) (layers "F.Cu" "F.Paste" "F.Mask") (roundrect_rratio 0.25) (tstamp c02a5613-f90e-49c9-90ce-8d14f2b93e1e))
  (pad "24" smd roundrect (at 0.65 -2.8375) (size 0.3 1.025) (layers "F.Cu" "F.Paste" "F.Mask") (roundrect_rratio 0.25) (tstamp 6e42b723-0cbf-4391-9d6e-023b6c321667))
  (pad "25" smd roundrect (at 0 -2.8375) (size 0.3 1.025) (layers "F.Cu" "F.Paste" "F.Mask") (roundrect_rratio 0.25) (tstamp a79ef5ef-d6a3-4cbf-adb5-c62dc1aef0cb))
  (pad "26" smd roundrect (at -0.65 -2.8375) (size 0.3 1.025) (layers "F.Cu" "F.Paste" "F.Mask") (roundrect_rratio 0.25) (tstamp 17c74553-4fa5-4032-a17e-75e1b581a325))
  (pad "27" smd roundrect (at -1.3 -2.8375) (size 0.3 1.025) (layers "F.Cu" "F.Paste" "F.Mask") (roundrect_rratio 0.25) (tstamp 22a48926-31e3-438b-9eac-b5244067f799))
  (pad "28" smd roundrect (at -1.95 -2.8375) (size 0.3 1.025) (layers "F.Cu" "F.Paste" "F.Mask") (roundrect_rratio 0.25) (tstamp 2e0765b1-7c37-4492-9273-41af9ee47ffb))
  (pad "29" smd rect (at 0 0) (size 4.25 4.25) (layers "F.Cu" "F.Mask") (tstamp 7c11931a-a5aa-4dc5-9af4-522dc8d15c56))
  (model "${KICAD6_3DMODEL_DIR}/Package_DFN_QFN.3dshapes/QFN-28-1EP_6x6mm_P0.65mm_EP4.25x4.25mm.wrl"
    (offset (xyz 0 0 0))
    (scale (xyz 1 1 1))
    (rotate (xyz 0 0 0))
  )
)
