ISO-10303-21;
HEADER;
FILE_DESCRIPTION(('STEP AP214'),'1');
FILE_NAME('UFBGA-176','2020-09-09T13:51:20',(''),(''),'','','');
FILE_SCHEMA(('AUTOMOTIVE_DESIGN'));
ENDSEC;
DATA;
#1=SHAPE_DEFINITION_REPRESENTATION(#2,#3);
#2=PRODUCT_DEFINITION_SHAPE('',$,#4);
#3=SHAPE_REPRESENTATION('',(#71,#80,#89,#98,#107,#116,#125,#134,#143,#152,#161,#170,#179,#188,#197,#206,#215,#224,#233,#242,#251,#260,#269,#278,#287,#296,#305,#314,#323,#332,#341,#350,#359,#368,#377,#386,#395,#404,#413,#422,#431,#440,#449,#458,#467,#476,#485,#494,#503,#512,#521,#530,#539,#548,#557,#566,#575,#584,#593,#602,#611,#620,#629,#638,#647,#656,#665,#674,#683,#692,#701,#710,#719,#728,#737,#746,#755,#764,#773,#782,#791,#800,#809,#818,#827,#836,#845,#854,#863,#872,#881,#890,#899,#908,#917,#926,#935,#944,#953,#962,#971,#980,#989,#998,#1007,#1016,#1025,#1034,#1043,#1052,#1061,#1070,#1079,#1088,#1097,#1106,#1115,#1124,#1133,#1142,#1151,#1160,#1169,#1178,#1187,#1196,#1205,#1214,#1223,#1232,#1241,#1250,#1259,#1268,#1277,#1286,#1295,#1304,#1313,#1322,#1331,#1340,#1349,#1358,#1367,#1376,#1385,#1394,#1403,#1412,#1421,#1430,#1439,#1448,#1457,#1466,#1475,#1484,#1493,#1502,#1511,#1520,#1529,#1538,#1547,#1556,#1565,#1574,#1583,#1592,#1601,#1610,#1619,#1628,#1637,#1646,#1655,#1664,#1673,#1682,#1691,#1700,#1709,#1718,#1727,#1736,#1745,#1754,#1763,#1772,#1781,#1790,#1799,#1808,#1817,#1826,#1835,#1844,#1853,#1862,#1871,#1881,#1937,#19),#11);
#4=PRODUCT_DEFINITION('design','example product_definition',#6,#5);
#5=PRODUCT_DEFINITION_CONTEXT('3D Mechanical Parts',#10,'design');
#6=PRODUCT_DEFINITION_FORMATION('1.0','first version',#8);
#7=APPLICATION_PROTOCOL_DEFINITION('international standard','automotive_design',2003,#10);
#8=PRODUCT('product','part','',(#9));
#9=PRODUCT_CONTEXT('3D Mechanical Parts',#10,'mechanical');
#10=APPLICATION_CONTEXT('Core Data for Automotive Mechanical Design Process');
#11=(GEOMETRIC_REPRESENTATION_CONTEXT(3) GLOBAL_UNCERTAINTY_ASSIGNED_CONTEXT((#12)) GLOBAL_UNIT_ASSIGNED_CONTEXT((#13,#14,#18)) REPRESENTATION_CONTEXT('ID1','3D'));
#12=UNCERTAINTY_MEASURE_WITH_UNIT(LENGTH_MEASURE(1.E-005),#13,'DISTANCE_ACCURACY_VALUE','Maximum model space distance between geometric entities at asserted connectivities');
#13=(LENGTH_UNIT() NAMED_UNIT(*) SI_UNIT(.MILLI.,.METRE.));
#14=(CONVERSION_BASED_UNIT('degree',#16) NAMED_UNIT(#15) PLANE_ANGLE_UNIT());
#15=DIMENSIONAL_EXPONENTS(0.,0.,0.,0.,0.,0.,0.);
#16=MEASURE_WITH_UNIT(PLANE_ANGLE_MEASURE(0.01745329252),#17);
#17=(NAMED_UNIT(*) PLANE_ANGLE_UNIT() SI_UNIT($,.RADIAN.));
#18=(NAMED_UNIT(*) SI_UNIT($,.STERADIAN.) SOLID_ANGLE_UNIT());
#19=AXIS2_PLACEMENT_3D('',#20,#21,#22);
#20=CARTESIAN_POINT('',(0.0,0.0,0.0));
#21=DIRECTION('',(0.0,0.0,1.0));
#22=DIRECTION('',(1.0,0.0,0.0));
#25=MECHANICAL_DESIGN_GEOMETRIC_PRESENTATION_REPRESENTATION($,(#73,#82,#91,#100,#109,#118,#127,#136,#145,#154,#163,#172,#181,#190,#199,#208,#217,#226,#235,#244,#253,#262,#271,#280,#289,#298,#307,#316,#325,#334,#343,#352,#361,#370,#379,#388,#397,#406,#415,#424,#433,#442,#451,#460,#469,#478,#487,#496,#505,#514,#523,#532,#541,#550,#559,#568,#577,#586,#595,#604,#613,#622,#631,#640,#649,#658,#667,#676,#685,#694,#703,#712,#721,#730,#739,#748,#757,#766,#775,#784,#793,#802,#811,#820,#829,#838,#847,#856,#865,#874,#883,#892,#901,#910,#919,#928,#937,#946,#955,#964,#973,#982,#991,#1000,#1009,#1018,#1027,#1036,#1045,#1054,#1063,#1072,#1081,#1090,#1099,#1108,#1117,#1126,#1135,#1144,#1153,#1162,#1171,#1180,#1189,#1198,#1207,#1216,#1225,#1234,#1243,#1252,#1261,#1270,#1279,#1288,#1297,#1306,#1315,#1324,#1333,#1342,#1351,#1360,#1369,#1378,#1387,#1396,#1405,#1414,#1423,#1432,#1441,#1450,#1459,#1468,#1477,#1486,#1495,#1504,#1513,#1522,#1531,#1540,#1549,#1558,#1567,#1576,#1585,#1594,#1603,#1612,#1621,#1630,#1639,#1648,#1657,#1666,#1675,#1684,#1693,#1702,#1711,#1720,#1729,#1738,#1747,#1756,#1765,#1774,#1783,#1792,#1801,#1810,#1819,#1828,#1837,#1846,#1855,#1864,#1873,#1933,#1934,#1935,#1939,#1988,#2037,#2086,#2135,#2184),#11);
#26=PRODUCT_CATEGORY_RELATIONSHIP('','',#27,#28);
#27=PRODUCT_CATEGORY('part','');
#28=PRODUCT_RELATED_PRODUCT_CATEGORY('','',(#8));
#34=PRESENTATION_STYLE_ASSIGNMENT((#35,#40));
#35=SURFACE_STYLE_USAGE(.BOTH.,#36);
#36=SURFACE_SIDE_STYLE('',(#37));
#37=SURFACE_STYLE_FILL_AREA(#38);
#38=FILL_AREA_STYLE('',(#39));
#39=FILL_AREA_STYLE_COLOUR('',#41);
#40=CURVE_STYLE('',#42,POSITIVE_LENGTH_MEASURE(0.1),#41);
#41=COLOUR_RGB('Aluminum',0.725,0.725,0.725);
#42=DRAUGHTING_PRE_DEFINED_CURVE_FONT('continuous');
#43=PRESENTATION_STYLE_ASSIGNMENT((#44,#49));
#44=SURFACE_STYLE_USAGE(.BOTH.,#45);
#45=SURFACE_SIDE_STYLE('',(#46));
#46=SURFACE_STYLE_FILL_AREA(#47);
#47=FILL_AREA_STYLE('',(#48));
#48=FILL_AREA_STYLE_COLOUR('',#50);
#49=CURVE_STYLE('',#51,POSITIVE_LENGTH_MEASURE(0.1),#50);
#50=COLOUR_RGB('Black',0.196,0.196,0.196);
#51=DRAUGHTING_PRE_DEFINED_CURVE_FONT('continuous');
#52=PRESENTATION_STYLE_ASSIGNMENT((#53,#58));
#53=SURFACE_STYLE_USAGE(.BOTH.,#54);
#54=SURFACE_SIDE_STYLE('',(#55));
#55=SURFACE_STYLE_FILL_AREA(#56);
#56=FILL_AREA_STYLE('',(#57));
#57=FILL_AREA_STYLE_COLOUR('',#59);
#58=CURVE_STYLE('',#60,POSITIVE_LENGTH_MEASURE(0.1),#59);
#59=COLOUR_RGB('Pin1',0.588,0.588,0.588);
#60=DRAUGHTING_PRE_DEFINED_CURVE_FONT('continuous');
#61=PRESENTATION_STYLE_ASSIGNMENT((#62,#67));
#62=SURFACE_STYLE_USAGE(.BOTH.,#63);
#63=SURFACE_SIDE_STYLE('',(#64));
#64=SURFACE_STYLE_FILL_AREA(#65);
#65=FILL_AREA_STYLE('',(#66));
#66=FILL_AREA_STYLE_COLOUR('',#68);
#67=CURVE_STYLE('',#69,POSITIVE_LENGTH_MEASURE(0.1),#68);
#68=COLOUR_RGB('HeatTab',0.588,0.588,0.588);
#69=DRAUGHTING_PRE_DEFINED_CURVE_FONT('continuous');
#71=MANIFOLD_SOLID_BREP($,#72);
#72=CLOSED_SHELL('',(#74));
#73=STYLED_ITEM('color',(#34),#74);
#74=ADVANCED_FACE('',(),#75,.T.);
#75=SPHERICAL_SURFACE('',#76,0.1524);
#76=AXIS2_PLACEMENT_3D('',#77,#78,#79);
#77=CARTESIAN_POINT('',(-4.55,4.55,0.152));
#78=DIRECTION('',(0.,0.,-1.));
#79=DIRECTION('',(-1.,0.,0.));
#80=MANIFOLD_SOLID_BREP($,#81);
#81=CLOSED_SHELL('',(#83));
#82=STYLED_ITEM('color',(#34),#83);
#83=ADVANCED_FACE('',(),#84,.T.);
#84=SPHERICAL_SURFACE('',#85,0.1524);
#85=AXIS2_PLACEMENT_3D('',#86,#87,#88);
#86=CARTESIAN_POINT('',(-3.9,4.55,0.152));
#87=DIRECTION('',(0.,0.,-1.));
#88=DIRECTION('',(-1.,0.,0.));
#89=MANIFOLD_SOLID_BREP($,#90);
#90=CLOSED_SHELL('',(#92));
#91=STYLED_ITEM('color',(#34),#92);
#92=ADVANCED_FACE('',(),#93,.T.);
#93=SPHERICAL_SURFACE('',#94,0.1524);
#94=AXIS2_PLACEMENT_3D('',#95,#96,#97);
#95=CARTESIAN_POINT('',(-3.25,4.55,0.152));
#96=DIRECTION('',(0.,0.,-1.));
#97=DIRECTION('',(-1.,0.,0.));
#98=MANIFOLD_SOLID_BREP($,#99);
#99=CLOSED_SHELL('',(#101));
#100=STYLED_ITEM('color',(#34),#101);
#101=ADVANCED_FACE('',(),#102,.T.);
#102=SPHERICAL_SURFACE('',#103,0.1524);
#103=AXIS2_PLACEMENT_3D('',#104,#105,#106);
#104=CARTESIAN_POINT('',(-2.6,4.55,0.152));
#105=DIRECTION('',(0.,0.,-1.));
#106=DIRECTION('',(-1.,0.,0.));
#107=MANIFOLD_SOLID_BREP($,#108);
#108=CLOSED_SHELL('',(#110));
#109=STYLED_ITEM('color',(#34),#110);
#110=ADVANCED_FACE('',(),#111,.T.);
#111=SPHERICAL_SURFACE('',#112,0.1524);
#112=AXIS2_PLACEMENT_3D('',#113,#114,#115);
#113=CARTESIAN_POINT('',(-1.95,4.55,0.152));
#114=DIRECTION('',(0.,0.,-1.));
#115=DIRECTION('',(-1.,0.,0.));
#116=MANIFOLD_SOLID_BREP($,#117);
#117=CLOSED_SHELL('',(#119));
#118=STYLED_ITEM('color',(#34),#119);
#119=ADVANCED_FACE('',(),#120,.T.);
#120=SPHERICAL_SURFACE('',#121,0.1524);
#121=AXIS2_PLACEMENT_3D('',#122,#123,#124);
#122=CARTESIAN_POINT('',(-1.3,4.55,0.152));
#123=DIRECTION('',(0.,0.,-1.));
#124=DIRECTION('',(-1.,0.,0.));
#125=MANIFOLD_SOLID_BREP($,#126);
#126=CLOSED_SHELL('',(#128));
#127=STYLED_ITEM('color',(#34),#128);
#128=ADVANCED_FACE('',(),#129,.T.);
#129=SPHERICAL_SURFACE('',#130,0.1524);
#130=AXIS2_PLACEMENT_3D('',#131,#132,#133);
#131=CARTESIAN_POINT('',(-0.65,4.55,0.152));
#132=DIRECTION('',(0.,0.,-1.));
#133=DIRECTION('',(-1.,0.,0.));
#134=MANIFOLD_SOLID_BREP($,#135);
#135=CLOSED_SHELL('',(#137));
#136=STYLED_ITEM('color',(#34),#137);
#137=ADVANCED_FACE('',(),#138,.T.);
#138=SPHERICAL_SURFACE('',#139,0.1524);
#139=AXIS2_PLACEMENT_3D('',#140,#141,#142);
#140=CARTESIAN_POINT('',(0.0,4.55,0.152));
#141=DIRECTION('',(0.,0.,-1.));
#142=DIRECTION('',(-1.,0.,0.));
#143=MANIFOLD_SOLID_BREP($,#144);
#144=CLOSED_SHELL('',(#146));
#145=STYLED_ITEM('color',(#34),#146);
#146=ADVANCED_FACE('',(),#147,.T.);
#147=SPHERICAL_SURFACE('',#148,0.1524);
#148=AXIS2_PLACEMENT_3D('',#149,#150,#151);
#149=CARTESIAN_POINT('',(0.65,4.55,0.152));
#150=DIRECTION('',(0.,0.,-1.));
#151=DIRECTION('',(-1.,0.,0.));
#152=MANIFOLD_SOLID_BREP($,#153);
#153=CLOSED_SHELL('',(#155));
#154=STYLED_ITEM('color',(#34),#155);
#155=ADVANCED_FACE('',(),#156,.T.);
#156=SPHERICAL_SURFACE('',#157,0.1524);
#157=AXIS2_PLACEMENT_3D('',#158,#159,#160);
#158=CARTESIAN_POINT('',(1.3,4.55,0.152));
#159=DIRECTION('',(0.,0.,-1.));
#160=DIRECTION('',(-1.,0.,0.));
#161=MANIFOLD_SOLID_BREP($,#162);
#162=CLOSED_SHELL('',(#164));
#163=STYLED_ITEM('color',(#34),#164);
#164=ADVANCED_FACE('',(),#165,.T.);
#165=SPHERICAL_SURFACE('',#166,0.1524);
#166=AXIS2_PLACEMENT_3D('',#167,#168,#169);
#167=CARTESIAN_POINT('',(1.95,4.55,0.152));
#168=DIRECTION('',(0.,0.,-1.));
#169=DIRECTION('',(-1.,0.,0.));
#170=MANIFOLD_SOLID_BREP($,#171);
#171=CLOSED_SHELL('',(#173));
#172=STYLED_ITEM('color',(#34),#173);
#173=ADVANCED_FACE('',(),#174,.T.);
#174=SPHERICAL_SURFACE('',#175,0.1524);
#175=AXIS2_PLACEMENT_3D('',#176,#177,#178);
#176=CARTESIAN_POINT('',(2.6,4.55,0.152));
#177=DIRECTION('',(0.,0.,-1.));
#178=DIRECTION('',(-1.,0.,0.));
#179=MANIFOLD_SOLID_BREP($,#180);
#180=CLOSED_SHELL('',(#182));
#181=STYLED_ITEM('color',(#34),#182);
#182=ADVANCED_FACE('',(),#183,.T.);
#183=SPHERICAL_SURFACE('',#184,0.1524);
#184=AXIS2_PLACEMENT_3D('',#185,#186,#187);
#185=CARTESIAN_POINT('',(3.25,4.55,0.152));
#186=DIRECTION('',(0.,0.,-1.));
#187=DIRECTION('',(-1.,0.,0.));
#188=MANIFOLD_SOLID_BREP($,#189);
#189=CLOSED_SHELL('',(#191));
#190=STYLED_ITEM('color',(#34),#191);
#191=ADVANCED_FACE('',(),#192,.T.);
#192=SPHERICAL_SURFACE('',#193,0.1524);
#193=AXIS2_PLACEMENT_3D('',#194,#195,#196);
#194=CARTESIAN_POINT('',(3.9,4.55,0.152));
#195=DIRECTION('',(0.,0.,-1.));
#196=DIRECTION('',(-1.,0.,0.));
#197=MANIFOLD_SOLID_BREP($,#198);
#198=CLOSED_SHELL('',(#200));
#199=STYLED_ITEM('color',(#34),#200);
#200=ADVANCED_FACE('',(),#201,.T.);
#201=SPHERICAL_SURFACE('',#202,0.1524);
#202=AXIS2_PLACEMENT_3D('',#203,#204,#205);
#203=CARTESIAN_POINT('',(4.55,4.55,0.152));
#204=DIRECTION('',(0.,0.,-1.));
#205=DIRECTION('',(-1.,0.,0.));
#206=MANIFOLD_SOLID_BREP($,#207);
#207=CLOSED_SHELL('',(#209));
#208=STYLED_ITEM('color',(#34),#209);
#209=ADVANCED_FACE('',(),#210,.T.);
#210=SPHERICAL_SURFACE('',#211,0.1524);
#211=AXIS2_PLACEMENT_3D('',#212,#213,#214);
#212=CARTESIAN_POINT('',(-4.55,3.9,0.152));
#213=DIRECTION('',(0.,0.,-1.));
#214=DIRECTION('',(-1.,0.,0.));
#215=MANIFOLD_SOLID_BREP($,#216);
#216=CLOSED_SHELL('',(#218));
#217=STYLED_ITEM('color',(#34),#218);
#218=ADVANCED_FACE('',(),#219,.T.);
#219=SPHERICAL_SURFACE('',#220,0.1524);
#220=AXIS2_PLACEMENT_3D('',#221,#222,#223);
#221=CARTESIAN_POINT('',(-3.9,3.9,0.152));
#222=DIRECTION('',(0.,0.,-1.));
#223=DIRECTION('',(-1.,0.,0.));
#224=MANIFOLD_SOLID_BREP($,#225);
#225=CLOSED_SHELL('',(#227));
#226=STYLED_ITEM('color',(#34),#227);
#227=ADVANCED_FACE('',(),#228,.T.);
#228=SPHERICAL_SURFACE('',#229,0.1524);
#229=AXIS2_PLACEMENT_3D('',#230,#231,#232);
#230=CARTESIAN_POINT('',(-3.25,3.9,0.152));
#231=DIRECTION('',(0.,0.,-1.));
#232=DIRECTION('',(-1.,0.,0.));
#233=MANIFOLD_SOLID_BREP($,#234);
#234=CLOSED_SHELL('',(#236));
#235=STYLED_ITEM('color',(#34),#236);
#236=ADVANCED_FACE('',(),#237,.T.);
#237=SPHERICAL_SURFACE('',#238,0.1524);
#238=AXIS2_PLACEMENT_3D('',#239,#240,#241);
#239=CARTESIAN_POINT('',(-2.6,3.9,0.152));
#240=DIRECTION('',(0.,0.,-1.));
#241=DIRECTION('',(-1.,0.,0.));
#242=MANIFOLD_SOLID_BREP($,#243);
#243=CLOSED_SHELL('',(#245));
#244=STYLED_ITEM('color',(#34),#245);
#245=ADVANCED_FACE('',(),#246,.T.);
#246=SPHERICAL_SURFACE('',#247,0.1524);
#247=AXIS2_PLACEMENT_3D('',#248,#249,#250);
#248=CARTESIAN_POINT('',(-1.95,3.9,0.152));
#249=DIRECTION('',(0.,0.,-1.));
#250=DIRECTION('',(-1.,0.,0.));
#251=MANIFOLD_SOLID_BREP($,#252);
#252=CLOSED_SHELL('',(#254));
#253=STYLED_ITEM('color',(#34),#254);
#254=ADVANCED_FACE('',(),#255,.T.);
#255=SPHERICAL_SURFACE('',#256,0.1524);
#256=AXIS2_PLACEMENT_3D('',#257,#258,#259);
#257=CARTESIAN_POINT('',(-1.3,3.9,0.152));
#258=DIRECTION('',(0.,0.,-1.));
#259=DIRECTION('',(-1.,0.,0.));
#260=MANIFOLD_SOLID_BREP($,#261);
#261=CLOSED_SHELL('',(#263));
#262=STYLED_ITEM('color',(#34),#263);
#263=ADVANCED_FACE('',(),#264,.T.);
#264=SPHERICAL_SURFACE('',#265,0.1524);
#265=AXIS2_PLACEMENT_3D('',#266,#267,#268);
#266=CARTESIAN_POINT('',(-0.65,3.9,0.152));
#267=DIRECTION('',(0.,0.,-1.));
#268=DIRECTION('',(-1.,0.,0.));
#269=MANIFOLD_SOLID_BREP($,#270);
#270=CLOSED_SHELL('',(#272));
#271=STYLED_ITEM('color',(#34),#272);
#272=ADVANCED_FACE('',(),#273,.T.);
#273=SPHERICAL_SURFACE('',#274,0.1524);
#274=AXIS2_PLACEMENT_3D('',#275,#276,#277);
#275=CARTESIAN_POINT('',(0.0,3.9,0.152));
#276=DIRECTION('',(0.,0.,-1.));
#277=DIRECTION('',(-1.,0.,0.));
#278=MANIFOLD_SOLID_BREP($,#279);
#279=CLOSED_SHELL('',(#281));
#280=STYLED_ITEM('color',(#34),#281);
#281=ADVANCED_FACE('',(),#282,.T.);
#282=SPHERICAL_SURFACE('',#283,0.1524);
#283=AXIS2_PLACEMENT_3D('',#284,#285,#286);
#284=CARTESIAN_POINT('',(0.65,3.9,0.152));
#285=DIRECTION('',(0.,0.,-1.));
#286=DIRECTION('',(-1.,0.,0.));
#287=MANIFOLD_SOLID_BREP($,#288);
#288=CLOSED_SHELL('',(#290));
#289=STYLED_ITEM('color',(#34),#290);
#290=ADVANCED_FACE('',(),#291,.T.);
#291=SPHERICAL_SURFACE('',#292,0.1524);
#292=AXIS2_PLACEMENT_3D('',#293,#294,#295);
#293=CARTESIAN_POINT('',(1.3,3.9,0.152));
#294=DIRECTION('',(0.,0.,-1.));
#295=DIRECTION('',(-1.,0.,0.));
#296=MANIFOLD_SOLID_BREP($,#297);
#297=CLOSED_SHELL('',(#299));
#298=STYLED_ITEM('color',(#34),#299);
#299=ADVANCED_FACE('',(),#300,.T.);
#300=SPHERICAL_SURFACE('',#301,0.1524);
#301=AXIS2_PLACEMENT_3D('',#302,#303,#304);
#302=CARTESIAN_POINT('',(1.95,3.9,0.152));
#303=DIRECTION('',(0.,0.,-1.));
#304=DIRECTION('',(-1.,0.,0.));
#305=MANIFOLD_SOLID_BREP($,#306);
#306=CLOSED_SHELL('',(#308));
#307=STYLED_ITEM('color',(#34),#308);
#308=ADVANCED_FACE('',(),#309,.T.);
#309=SPHERICAL_SURFACE('',#310,0.1524);
#310=AXIS2_PLACEMENT_3D('',#311,#312,#313);
#311=CARTESIAN_POINT('',(2.6,3.9,0.152));
#312=DIRECTION('',(0.,0.,-1.));
#313=DIRECTION('',(-1.,0.,0.));
#314=MANIFOLD_SOLID_BREP($,#315);
#315=CLOSED_SHELL('',(#317));
#316=STYLED_ITEM('color',(#34),#317);
#317=ADVANCED_FACE('',(),#318,.T.);
#318=SPHERICAL_SURFACE('',#319,0.1524);
#319=AXIS2_PLACEMENT_3D('',#320,#321,#322);
#320=CARTESIAN_POINT('',(3.25,3.9,0.152));
#321=DIRECTION('',(0.,0.,-1.));
#322=DIRECTION('',(-1.,0.,0.));
#323=MANIFOLD_SOLID_BREP($,#324);
#324=CLOSED_SHELL('',(#326));
#325=STYLED_ITEM('color',(#34),#326);
#326=ADVANCED_FACE('',(),#327,.T.);
#327=SPHERICAL_SURFACE('',#328,0.1524);
#328=AXIS2_PLACEMENT_3D('',#329,#330,#331);
#329=CARTESIAN_POINT('',(3.9,3.9,0.152));
#330=DIRECTION('',(0.,0.,-1.));
#331=DIRECTION('',(-1.,0.,0.));
#332=MANIFOLD_SOLID_BREP($,#333);
#333=CLOSED_SHELL('',(#335));
#334=STYLED_ITEM('color',(#34),#335);
#335=ADVANCED_FACE('',(),#336,.T.);
#336=SPHERICAL_SURFACE('',#337,0.1524);
#337=AXIS2_PLACEMENT_3D('',#338,#339,#340);
#338=CARTESIAN_POINT('',(4.55,3.9,0.152));
#339=DIRECTION('',(0.,0.,-1.));
#340=DIRECTION('',(-1.,0.,0.));
#341=MANIFOLD_SOLID_BREP($,#342);
#342=CLOSED_SHELL('',(#344));
#343=STYLED_ITEM('color',(#34),#344);
#344=ADVANCED_FACE('',(),#345,.T.);
#345=SPHERICAL_SURFACE('',#346,0.1524);
#346=AXIS2_PLACEMENT_3D('',#347,#348,#349);
#347=CARTESIAN_POINT('',(-4.55,3.25,0.152));
#348=DIRECTION('',(0.,0.,-1.));
#349=DIRECTION('',(-1.,0.,0.));
#350=MANIFOLD_SOLID_BREP($,#351);
#351=CLOSED_SHELL('',(#353));
#352=STYLED_ITEM('color',(#34),#353);
#353=ADVANCED_FACE('',(),#354,.T.);
#354=SPHERICAL_SURFACE('',#355,0.1524);
#355=AXIS2_PLACEMENT_3D('',#356,#357,#358);
#356=CARTESIAN_POINT('',(-3.9,3.25,0.152));
#357=DIRECTION('',(0.,0.,-1.));
#358=DIRECTION('',(-1.,0.,0.));
#359=MANIFOLD_SOLID_BREP($,#360);
#360=CLOSED_SHELL('',(#362));
#361=STYLED_ITEM('color',(#34),#362);
#362=ADVANCED_FACE('',(),#363,.T.);
#363=SPHERICAL_SURFACE('',#364,0.1524);
#364=AXIS2_PLACEMENT_3D('',#365,#366,#367);
#365=CARTESIAN_POINT('',(-3.25,3.25,0.152));
#366=DIRECTION('',(0.,0.,-1.));
#367=DIRECTION('',(-1.,0.,0.));
#368=MANIFOLD_SOLID_BREP($,#369);
#369=CLOSED_SHELL('',(#371));
#370=STYLED_ITEM('color',(#34),#371);
#371=ADVANCED_FACE('',(),#372,.T.);
#372=SPHERICAL_SURFACE('',#373,0.1524);
#373=AXIS2_PLACEMENT_3D('',#374,#375,#376);
#374=CARTESIAN_POINT('',(-2.6,3.25,0.152));
#375=DIRECTION('',(0.,0.,-1.));
#376=DIRECTION('',(-1.,0.,0.));
#377=MANIFOLD_SOLID_BREP($,#378);
#378=CLOSED_SHELL('',(#380));
#379=STYLED_ITEM('color',(#34),#380);
#380=ADVANCED_FACE('',(),#381,.T.);
#381=SPHERICAL_SURFACE('',#382,0.1524);
#382=AXIS2_PLACEMENT_3D('',#383,#384,#385);
#383=CARTESIAN_POINT('',(-1.95,3.25,0.152));
#384=DIRECTION('',(0.,0.,-1.));
#385=DIRECTION('',(-1.,0.,0.));
#386=MANIFOLD_SOLID_BREP($,#387);
#387=CLOSED_SHELL('',(#389));
#388=STYLED_ITEM('color',(#34),#389);
#389=ADVANCED_FACE('',(),#390,.T.);
#390=SPHERICAL_SURFACE('',#391,0.1524);
#391=AXIS2_PLACEMENT_3D('',#392,#393,#394);
#392=CARTESIAN_POINT('',(-1.3,3.25,0.152));
#393=DIRECTION('',(0.,0.,-1.));
#394=DIRECTION('',(-1.,0.,0.));
#395=MANIFOLD_SOLID_BREP($,#396);
#396=CLOSED_SHELL('',(#398));
#397=STYLED_ITEM('color',(#34),#398);
#398=ADVANCED_FACE('',(),#399,.T.);
#399=SPHERICAL_SURFACE('',#400,0.1524);
#400=AXIS2_PLACEMENT_3D('',#401,#402,#403);
#401=CARTESIAN_POINT('',(-0.65,3.25,0.152));
#402=DIRECTION('',(0.,0.,-1.));
#403=DIRECTION('',(-1.,0.,0.));
#404=MANIFOLD_SOLID_BREP($,#405);
#405=CLOSED_SHELL('',(#407));
#406=STYLED_ITEM('color',(#34),#407);
#407=ADVANCED_FACE('',(),#408,.T.);
#408=SPHERICAL_SURFACE('',#409,0.1524);
#409=AXIS2_PLACEMENT_3D('',#410,#411,#412);
#410=CARTESIAN_POINT('',(0.0,3.25,0.152));
#411=DIRECTION('',(0.,0.,-1.));
#412=DIRECTION('',(-1.,0.,0.));
#413=MANIFOLD_SOLID_BREP($,#414);
#414=CLOSED_SHELL('',(#416));
#415=STYLED_ITEM('color',(#34),#416);
#416=ADVANCED_FACE('',(),#417,.T.);
#417=SPHERICAL_SURFACE('',#418,0.1524);
#418=AXIS2_PLACEMENT_3D('',#419,#420,#421);
#419=CARTESIAN_POINT('',(0.65,3.25,0.152));
#420=DIRECTION('',(0.,0.,-1.));
#421=DIRECTION('',(-1.,0.,0.));
#422=MANIFOLD_SOLID_BREP($,#423);
#423=CLOSED_SHELL('',(#425));
#424=STYLED_ITEM('color',(#34),#425);
#425=ADVANCED_FACE('',(),#426,.T.);
#426=SPHERICAL_SURFACE('',#427,0.1524);
#427=AXIS2_PLACEMENT_3D('',#428,#429,#430);
#428=CARTESIAN_POINT('',(1.3,3.25,0.152));
#429=DIRECTION('',(0.,0.,-1.));
#430=DIRECTION('',(-1.,0.,0.));
#431=MANIFOLD_SOLID_BREP($,#432);
#432=CLOSED_SHELL('',(#434));
#433=STYLED_ITEM('color',(#34),#434);
#434=ADVANCED_FACE('',(),#435,.T.);
#435=SPHERICAL_SURFACE('',#436,0.1524);
#436=AXIS2_PLACEMENT_3D('',#437,#438,#439);
#437=CARTESIAN_POINT('',(1.95,3.25,0.152));
#438=DIRECTION('',(0.,0.,-1.));
#439=DIRECTION('',(-1.,0.,0.));
#440=MANIFOLD_SOLID_BREP($,#441);
#441=CLOSED_SHELL('',(#443));
#442=STYLED_ITEM('color',(#34),#443);
#443=ADVANCED_FACE('',(),#444,.T.);
#444=SPHERICAL_SURFACE('',#445,0.1524);
#445=AXIS2_PLACEMENT_3D('',#446,#447,#448);
#446=CARTESIAN_POINT('',(2.6,3.25,0.152));
#447=DIRECTION('',(0.,0.,-1.));
#448=DIRECTION('',(-1.,0.,0.));
#449=MANIFOLD_SOLID_BREP($,#450);
#450=CLOSED_SHELL('',(#452));
#451=STYLED_ITEM('color',(#34),#452);
#452=ADVANCED_FACE('',(),#453,.T.);
#453=SPHERICAL_SURFACE('',#454,0.1524);
#454=AXIS2_PLACEMENT_3D('',#455,#456,#457);
#455=CARTESIAN_POINT('',(3.25,3.25,0.152));
#456=DIRECTION('',(0.,0.,-1.));
#457=DIRECTION('',(-1.,0.,0.));
#458=MANIFOLD_SOLID_BREP($,#459);
#459=CLOSED_SHELL('',(#461));
#460=STYLED_ITEM('color',(#34),#461);
#461=ADVANCED_FACE('',(),#462,.T.);
#462=SPHERICAL_SURFACE('',#463,0.1524);
#463=AXIS2_PLACEMENT_3D('',#464,#465,#466);
#464=CARTESIAN_POINT('',(3.9,3.25,0.152));
#465=DIRECTION('',(0.,0.,-1.));
#466=DIRECTION('',(-1.,0.,0.));
#467=MANIFOLD_SOLID_BREP($,#468);
#468=CLOSED_SHELL('',(#470));
#469=STYLED_ITEM('color',(#34),#470);
#470=ADVANCED_FACE('',(),#471,.T.);
#471=SPHERICAL_SURFACE('',#472,0.1524);
#472=AXIS2_PLACEMENT_3D('',#473,#474,#475);
#473=CARTESIAN_POINT('',(4.55,3.25,0.152));
#474=DIRECTION('',(0.,0.,-1.));
#475=DIRECTION('',(-1.,0.,0.));
#476=MANIFOLD_SOLID_BREP($,#477);
#477=CLOSED_SHELL('',(#479));
#478=STYLED_ITEM('color',(#34),#479);
#479=ADVANCED_FACE('',(),#480,.T.);
#480=SPHERICAL_SURFACE('',#481,0.1524);
#481=AXIS2_PLACEMENT_3D('',#482,#483,#484);
#482=CARTESIAN_POINT('',(-4.55,2.6,0.152));
#483=DIRECTION('',(0.,0.,-1.));
#484=DIRECTION('',(-1.,0.,0.));
#485=MANIFOLD_SOLID_BREP($,#486);
#486=CLOSED_SHELL('',(#488));
#487=STYLED_ITEM('color',(#34),#488);
#488=ADVANCED_FACE('',(),#489,.T.);
#489=SPHERICAL_SURFACE('',#490,0.1524);
#490=AXIS2_PLACEMENT_3D('',#491,#492,#493);
#491=CARTESIAN_POINT('',(-3.9,2.6,0.152));
#492=DIRECTION('',(0.,0.,-1.));
#493=DIRECTION('',(-1.,0.,0.));
#494=MANIFOLD_SOLID_BREP($,#495);
#495=CLOSED_SHELL('',(#497));
#496=STYLED_ITEM('color',(#34),#497);
#497=ADVANCED_FACE('',(),#498,.T.);
#498=SPHERICAL_SURFACE('',#499,0.1524);
#499=AXIS2_PLACEMENT_3D('',#500,#501,#502);
#500=CARTESIAN_POINT('',(-3.25,2.6,0.152));
#501=DIRECTION('',(0.,0.,-1.));
#502=DIRECTION('',(-1.,0.,0.));
#503=MANIFOLD_SOLID_BREP($,#504);
#504=CLOSED_SHELL('',(#506));
#505=STYLED_ITEM('color',(#34),#506);
#506=ADVANCED_FACE('',(),#507,.T.);
#507=SPHERICAL_SURFACE('',#508,0.1524);
#508=AXIS2_PLACEMENT_3D('',#509,#510,#511);
#509=CARTESIAN_POINT('',(-2.6,2.6,0.152));
#510=DIRECTION('',(0.,0.,-1.));
#511=DIRECTION('',(-1.,0.,0.));
#512=MANIFOLD_SOLID_BREP($,#513);
#513=CLOSED_SHELL('',(#515));
#514=STYLED_ITEM('color',(#34),#515);
#515=ADVANCED_FACE('',(),#516,.T.);
#516=SPHERICAL_SURFACE('',#517,0.1524);
#517=AXIS2_PLACEMENT_3D('',#518,#519,#520);
#518=CARTESIAN_POINT('',(-1.95,2.6,0.152));
#519=DIRECTION('',(0.,0.,-1.));
#520=DIRECTION('',(-1.,0.,0.));
#521=MANIFOLD_SOLID_BREP($,#522);
#522=CLOSED_SHELL('',(#524));
#523=STYLED_ITEM('color',(#34),#524);
#524=ADVANCED_FACE('',(),#525,.T.);
#525=SPHERICAL_SURFACE('',#526,0.1524);
#526=AXIS2_PLACEMENT_3D('',#527,#528,#529);
#527=CARTESIAN_POINT('',(-1.3,2.6,0.152));
#528=DIRECTION('',(0.,0.,-1.));
#529=DIRECTION('',(-1.,0.,0.));
#530=MANIFOLD_SOLID_BREP($,#531);
#531=CLOSED_SHELL('',(#533));
#532=STYLED_ITEM('color',(#34),#533);
#533=ADVANCED_FACE('',(),#534,.T.);
#534=SPHERICAL_SURFACE('',#535,0.1524);
#535=AXIS2_PLACEMENT_3D('',#536,#537,#538);
#536=CARTESIAN_POINT('',(-0.65,2.6,0.152));
#537=DIRECTION('',(0.,0.,-1.));
#538=DIRECTION('',(-1.,0.,0.));
#539=MANIFOLD_SOLID_BREP($,#540);
#540=CLOSED_SHELL('',(#542));
#541=STYLED_ITEM('color',(#34),#542);
#542=ADVANCED_FACE('',(),#543,.T.);
#543=SPHERICAL_SURFACE('',#544,0.1524);
#544=AXIS2_PLACEMENT_3D('',#545,#546,#547);
#545=CARTESIAN_POINT('',(0.0,2.6,0.152));
#546=DIRECTION('',(0.,0.,-1.));
#547=DIRECTION('',(-1.,0.,0.));
#548=MANIFOLD_SOLID_BREP($,#549);
#549=CLOSED_SHELL('',(#551));
#550=STYLED_ITEM('color',(#34),#551);
#551=ADVANCED_FACE('',(),#552,.T.);
#552=SPHERICAL_SURFACE('',#553,0.1524);
#553=AXIS2_PLACEMENT_3D('',#554,#555,#556);
#554=CARTESIAN_POINT('',(0.65,2.6,0.152));
#555=DIRECTION('',(0.,0.,-1.));
#556=DIRECTION('',(-1.,0.,0.));
#557=MANIFOLD_SOLID_BREP($,#558);
#558=CLOSED_SHELL('',(#560));
#559=STYLED_ITEM('color',(#34),#560);
#560=ADVANCED_FACE('',(),#561,.T.);
#561=SPHERICAL_SURFACE('',#562,0.1524);
#562=AXIS2_PLACEMENT_3D('',#563,#564,#565);
#563=CARTESIAN_POINT('',(1.3,2.6,0.152));
#564=DIRECTION('',(0.,0.,-1.));
#565=DIRECTION('',(-1.,0.,0.));
#566=MANIFOLD_SOLID_BREP($,#567);
#567=CLOSED_SHELL('',(#569));
#568=STYLED_ITEM('color',(#34),#569);
#569=ADVANCED_FACE('',(),#570,.T.);
#570=SPHERICAL_SURFACE('',#571,0.1524);
#571=AXIS2_PLACEMENT_3D('',#572,#573,#574);
#572=CARTESIAN_POINT('',(1.95,2.6,0.152));
#573=DIRECTION('',(0.,0.,-1.));
#574=DIRECTION('',(-1.,0.,0.));
#575=MANIFOLD_SOLID_BREP($,#576);
#576=CLOSED_SHELL('',(#578));
#577=STYLED_ITEM('color',(#34),#578);
#578=ADVANCED_FACE('',(),#579,.T.);
#579=SPHERICAL_SURFACE('',#580,0.1524);
#580=AXIS2_PLACEMENT_3D('',#581,#582,#583);
#581=CARTESIAN_POINT('',(2.6,2.6,0.152));
#582=DIRECTION('',(0.,0.,-1.));
#583=DIRECTION('',(-1.,0.,0.));
#584=MANIFOLD_SOLID_BREP($,#585);
#585=CLOSED_SHELL('',(#587));
#586=STYLED_ITEM('color',(#34),#587);
#587=ADVANCED_FACE('',(),#588,.T.);
#588=SPHERICAL_SURFACE('',#589,0.1524);
#589=AXIS2_PLACEMENT_3D('',#590,#591,#592);
#590=CARTESIAN_POINT('',(3.25,2.6,0.152));
#591=DIRECTION('',(0.,0.,-1.));
#592=DIRECTION('',(-1.,0.,0.));
#593=MANIFOLD_SOLID_BREP($,#594);
#594=CLOSED_SHELL('',(#596));
#595=STYLED_ITEM('color',(#34),#596);
#596=ADVANCED_FACE('',(),#597,.T.);
#597=SPHERICAL_SURFACE('',#598,0.1524);
#598=AXIS2_PLACEMENT_3D('',#599,#600,#601);
#599=CARTESIAN_POINT('',(3.9,2.6,0.152));
#600=DIRECTION('',(0.,0.,-1.));
#601=DIRECTION('',(-1.,0.,0.));
#602=MANIFOLD_SOLID_BREP($,#603);
#603=CLOSED_SHELL('',(#605));
#604=STYLED_ITEM('color',(#34),#605);
#605=ADVANCED_FACE('',(),#606,.T.);
#606=SPHERICAL_SURFACE('',#607,0.1524);
#607=AXIS2_PLACEMENT_3D('',#608,#609,#610);
#608=CARTESIAN_POINT('',(4.55,2.6,0.152));
#609=DIRECTION('',(0.,0.,-1.));
#610=DIRECTION('',(-1.,0.,0.));
#611=MANIFOLD_SOLID_BREP($,#612);
#612=CLOSED_SHELL('',(#614));
#613=STYLED_ITEM('color',(#34),#614);
#614=ADVANCED_FACE('',(),#615,.T.);
#615=SPHERICAL_SURFACE('',#616,0.1524);
#616=AXIS2_PLACEMENT_3D('',#617,#618,#619);
#617=CARTESIAN_POINT('',(-4.55,1.95,0.152));
#618=DIRECTION('',(0.,0.,-1.));
#619=DIRECTION('',(-1.,0.,0.));
#620=MANIFOLD_SOLID_BREP($,#621);
#621=CLOSED_SHELL('',(#623));
#622=STYLED_ITEM('color',(#34),#623);
#623=ADVANCED_FACE('',(),#624,.T.);
#624=SPHERICAL_SURFACE('',#625,0.1524);
#625=AXIS2_PLACEMENT_3D('',#626,#627,#628);
#626=CARTESIAN_POINT('',(-3.9,1.95,0.152));
#627=DIRECTION('',(0.,0.,-1.));
#628=DIRECTION('',(-1.,0.,0.));
#629=MANIFOLD_SOLID_BREP($,#630);
#630=CLOSED_SHELL('',(#632));
#631=STYLED_ITEM('color',(#34),#632);
#632=ADVANCED_FACE('',(),#633,.T.);
#633=SPHERICAL_SURFACE('',#634,0.1524);
#634=AXIS2_PLACEMENT_3D('',#635,#636,#637);
#635=CARTESIAN_POINT('',(-3.25,1.95,0.152));
#636=DIRECTION('',(0.,0.,-1.));
#637=DIRECTION('',(-1.,0.,0.));
#638=MANIFOLD_SOLID_BREP($,#639);
#639=CLOSED_SHELL('',(#641));
#640=STYLED_ITEM('color',(#34),#641);
#641=ADVANCED_FACE('',(),#642,.T.);
#642=SPHERICAL_SURFACE('',#643,0.1524);
#643=AXIS2_PLACEMENT_3D('',#644,#645,#646);
#644=CARTESIAN_POINT('',(-2.6,1.95,0.152));
#645=DIRECTION('',(0.,0.,-1.));
#646=DIRECTION('',(-1.,0.,0.));
#647=MANIFOLD_SOLID_BREP($,#648);
#648=CLOSED_SHELL('',(#650));
#649=STYLED_ITEM('color',(#34),#650);
#650=ADVANCED_FACE('',(),#651,.T.);
#651=SPHERICAL_SURFACE('',#652,0.1524);
#652=AXIS2_PLACEMENT_3D('',#653,#654,#655);
#653=CARTESIAN_POINT('',(2.6,1.95,0.152));
#654=DIRECTION('',(0.,0.,-1.));
#655=DIRECTION('',(-1.,0.,0.));
#656=MANIFOLD_SOLID_BREP($,#657);
#657=CLOSED_SHELL('',(#659));
#658=STYLED_ITEM('color',(#34),#659);
#659=ADVANCED_FACE('',(),#660,.T.);
#660=SPHERICAL_SURFACE('',#661,0.1524);
#661=AXIS2_PLACEMENT_3D('',#662,#663,#664);
#662=CARTESIAN_POINT('',(3.25,1.95,0.152));
#663=DIRECTION('',(0.,0.,-1.));
#664=DIRECTION('',(-1.,0.,0.));
#665=MANIFOLD_SOLID_BREP($,#666);
#666=CLOSED_SHELL('',(#668));
#667=STYLED_ITEM('color',(#34),#668);
#668=ADVANCED_FACE('',(),#669,.T.);
#669=SPHERICAL_SURFACE('',#670,0.1524);
#670=AXIS2_PLACEMENT_3D('',#671,#672,#673);
#671=CARTESIAN_POINT('',(3.9,1.95,0.152));
#672=DIRECTION('',(0.,0.,-1.));
#673=DIRECTION('',(-1.,0.,0.));
#674=MANIFOLD_SOLID_BREP($,#675);
#675=CLOSED_SHELL('',(#677));
#676=STYLED_ITEM('color',(#34),#677);
#677=ADVANCED_FACE('',(),#678,.T.);
#678=SPHERICAL_SURFACE('',#679,0.1524);
#679=AXIS2_PLACEMENT_3D('',#680,#681,#682);
#680=CARTESIAN_POINT('',(4.55,1.95,0.152));
#681=DIRECTION('',(0.,0.,-1.));
#682=DIRECTION('',(-1.,0.,0.));
#683=MANIFOLD_SOLID_BREP($,#684);
#684=CLOSED_SHELL('',(#686));
#685=STYLED_ITEM('color',(#34),#686);
#686=ADVANCED_FACE('',(),#687,.T.);
#687=SPHERICAL_SURFACE('',#688,0.1524);
#688=AXIS2_PLACEMENT_3D('',#689,#690,#691);
#689=CARTESIAN_POINT('',(-4.55,1.3,0.152));
#690=DIRECTION('',(0.,0.,-1.));
#691=DIRECTION('',(-1.,0.,0.));
#692=MANIFOLD_SOLID_BREP($,#693);
#693=CLOSED_SHELL('',(#695));
#694=STYLED_ITEM('color',(#34),#695);
#695=ADVANCED_FACE('',(),#696,.T.);
#696=SPHERICAL_SURFACE('',#697,0.1524);
#697=AXIS2_PLACEMENT_3D('',#698,#699,#700);
#698=CARTESIAN_POINT('',(-3.9,1.3,0.152));
#699=DIRECTION('',(0.,0.,-1.));
#700=DIRECTION('',(-1.,0.,0.));
#701=MANIFOLD_SOLID_BREP($,#702);
#702=CLOSED_SHELL('',(#704));
#703=STYLED_ITEM('color',(#34),#704);
#704=ADVANCED_FACE('',(),#705,.T.);
#705=SPHERICAL_SURFACE('',#706,0.1524);
#706=AXIS2_PLACEMENT_3D('',#707,#708,#709);
#707=CARTESIAN_POINT('',(-3.25,1.3,0.152));
#708=DIRECTION('',(0.,0.,-1.));
#709=DIRECTION('',(-1.,0.,0.));
#710=MANIFOLD_SOLID_BREP($,#711);
#711=CLOSED_SHELL('',(#713));
#712=STYLED_ITEM('color',(#34),#713);
#713=ADVANCED_FACE('',(),#714,.T.);
#714=SPHERICAL_SURFACE('',#715,0.1524);
#715=AXIS2_PLACEMENT_3D('',#716,#717,#718);
#716=CARTESIAN_POINT('',(-2.6,1.3,0.152));
#717=DIRECTION('',(0.,0.,-1.));
#718=DIRECTION('',(-1.,0.,0.));
#719=MANIFOLD_SOLID_BREP($,#720);
#720=CLOSED_SHELL('',(#722));
#721=STYLED_ITEM('color',(#34),#722);
#722=ADVANCED_FACE('',(),#723,.T.);
#723=SPHERICAL_SURFACE('',#724,0.1524);
#724=AXIS2_PLACEMENT_3D('',#725,#726,#727);
#725=CARTESIAN_POINT('',(-1.3,1.3,0.152));
#726=DIRECTION('',(0.,0.,-1.));
#727=DIRECTION('',(-1.,0.,0.));
#728=MANIFOLD_SOLID_BREP($,#729);
#729=CLOSED_SHELL('',(#731));
#730=STYLED_ITEM('color',(#34),#731);
#731=ADVANCED_FACE('',(),#732,.T.);
#732=SPHERICAL_SURFACE('',#733,0.1524);
#733=AXIS2_PLACEMENT_3D('',#734,#735,#736);
#734=CARTESIAN_POINT('',(-0.65,1.3,0.152));
#735=DIRECTION('',(0.,0.,-1.));
#736=DIRECTION('',(-1.,0.,0.));
#737=MANIFOLD_SOLID_BREP($,#738);
#738=CLOSED_SHELL('',(#740));
#739=STYLED_ITEM('color',(#34),#740);
#740=ADVANCED_FACE('',(),#741,.T.);
#741=SPHERICAL_SURFACE('',#742,0.1524);
#742=AXIS2_PLACEMENT_3D('',#743,#744,#745);
#743=CARTESIAN_POINT('',(0.0,1.3,0.152));
#744=DIRECTION('',(0.,0.,-1.));
#745=DIRECTION('',(-1.,0.,0.));
#746=MANIFOLD_SOLID_BREP($,#747);
#747=CLOSED_SHELL('',(#749));
#748=STYLED_ITEM('color',(#34),#749);
#749=ADVANCED_FACE('',(),#750,.T.);
#750=SPHERICAL_SURFACE('',#751,0.1524);
#751=AXIS2_PLACEMENT_3D('',#752,#753,#754);
#752=CARTESIAN_POINT('',(0.65,1.3,0.152));
#753=DIRECTION('',(0.,0.,-1.));
#754=DIRECTION('',(-1.,0.,0.));
#755=MANIFOLD_SOLID_BREP($,#756);
#756=CLOSED_SHELL('',(#758));
#757=STYLED_ITEM('color',(#34),#758);
#758=ADVANCED_FACE('',(),#759,.T.);
#759=SPHERICAL_SURFACE('',#760,0.1524);
#760=AXIS2_PLACEMENT_3D('',#761,#762,#763);
#761=CARTESIAN_POINT('',(1.3,1.3,0.152));
#762=DIRECTION('',(0.,0.,-1.));
#763=DIRECTION('',(-1.,0.,0.));
#764=MANIFOLD_SOLID_BREP($,#765);
#765=CLOSED_SHELL('',(#767));
#766=STYLED_ITEM('color',(#34),#767);
#767=ADVANCED_FACE('',(),#768,.T.);
#768=SPHERICAL_SURFACE('',#769,0.1524);
#769=AXIS2_PLACEMENT_3D('',#770,#771,#772);
#770=CARTESIAN_POINT('',(2.6,1.3,0.152));
#771=DIRECTION('',(0.,0.,-1.));
#772=DIRECTION('',(-1.,0.,0.));
#773=MANIFOLD_SOLID_BREP($,#774);
#774=CLOSED_SHELL('',(#776));
#775=STYLED_ITEM('color',(#34),#776);
#776=ADVANCED_FACE('',(),#777,.T.);
#777=SPHERICAL_SURFACE('',#778,0.1524);
#778=AXIS2_PLACEMENT_3D('',#779,#780,#781);
#779=CARTESIAN_POINT('',(3.25,1.3,0.152));
#780=DIRECTION('',(0.,0.,-1.));
#781=DIRECTION('',(-1.,0.,0.));
#782=MANIFOLD_SOLID_BREP($,#783);
#783=CLOSED_SHELL('',(#785));
#784=STYLED_ITEM('color',(#34),#785);
#785=ADVANCED_FACE('',(),#786,.T.);
#786=SPHERICAL_SURFACE('',#787,0.1524);
#787=AXIS2_PLACEMENT_3D('',#788,#789,#790);
#788=CARTESIAN_POINT('',(3.9,1.3,0.152));
#789=DIRECTION('',(0.,0.,-1.));
#790=DIRECTION('',(-1.,0.,0.));
#791=MANIFOLD_SOLID_BREP($,#792);
#792=CLOSED_SHELL('',(#794));
#793=STYLED_ITEM('color',(#34),#794);
#794=ADVANCED_FACE('',(),#795,.T.);
#795=SPHERICAL_SURFACE('',#796,0.1524);
#796=AXIS2_PLACEMENT_3D('',#797,#798,#799);
#797=CARTESIAN_POINT('',(4.55,1.3,0.152));
#798=DIRECTION('',(0.,0.,-1.));
#799=DIRECTION('',(-1.,0.,0.));
#800=MANIFOLD_SOLID_BREP($,#801);
#801=CLOSED_SHELL('',(#803));
#802=STYLED_ITEM('color',(#34),#803);
#803=ADVANCED_FACE('',(),#804,.T.);
#804=SPHERICAL_SURFACE('',#805,0.1524);
#805=AXIS2_PLACEMENT_3D('',#806,#807,#808);
#806=CARTESIAN_POINT('',(-4.55,0.65,0.152));
#807=DIRECTION('',(0.,0.,-1.));
#808=DIRECTION('',(-1.,0.,0.));
#809=MANIFOLD_SOLID_BREP($,#810);
#810=CLOSED_SHELL('',(#812));
#811=STYLED_ITEM('color',(#34),#812);
#812=ADVANCED_FACE('',(),#813,.T.);
#813=SPHERICAL_SURFACE('',#814,0.1524);
#814=AXIS2_PLACEMENT_3D('',#815,#816,#817);
#815=CARTESIAN_POINT('',(-3.9,0.65,0.152));
#816=DIRECTION('',(0.,0.,-1.));
#817=DIRECTION('',(-1.,0.,0.));
#818=MANIFOLD_SOLID_BREP($,#819);
#819=CLOSED_SHELL('',(#821));
#820=STYLED_ITEM('color',(#34),#821);
#821=ADVANCED_FACE('',(),#822,.T.);
#822=SPHERICAL_SURFACE('',#823,0.1524);
#823=AXIS2_PLACEMENT_3D('',#824,#825,#826);
#824=CARTESIAN_POINT('',(-3.25,0.65,0.152));
#825=DIRECTION('',(0.,0.,-1.));
#826=DIRECTION('',(-1.,0.,0.));
#827=MANIFOLD_SOLID_BREP($,#828);
#828=CLOSED_SHELL('',(#830));
#829=STYLED_ITEM('color',(#34),#830);
#830=ADVANCED_FACE('',(),#831,.T.);
#831=SPHERICAL_SURFACE('',#832,0.1524);
#832=AXIS2_PLACEMENT_3D('',#833,#834,#835);
#833=CARTESIAN_POINT('',(-2.6,0.65,0.152));
#834=DIRECTION('',(0.,0.,-1.));
#835=DIRECTION('',(-1.,0.,0.));
#836=MANIFOLD_SOLID_BREP($,#837);
#837=CLOSED_SHELL('',(#839));
#838=STYLED_ITEM('color',(#34),#839);
#839=ADVANCED_FACE('',(),#840,.T.);
#840=SPHERICAL_SURFACE('',#841,0.1524);
#841=AXIS2_PLACEMENT_3D('',#842,#843,#844);
#842=CARTESIAN_POINT('',(-1.3,0.65,0.152));
#843=DIRECTION('',(0.,0.,-1.));
#844=DIRECTION('',(-1.,0.,0.));
#845=MANIFOLD_SOLID_BREP($,#846);
#846=CLOSED_SHELL('',(#848));
#847=STYLED_ITEM('color',(#34),#848);
#848=ADVANCED_FACE('',(),#849,.T.);
#849=SPHERICAL_SURFACE('',#850,0.1524);
#850=AXIS2_PLACEMENT_3D('',#851,#852,#853);
#851=CARTESIAN_POINT('',(-0.65,0.65,0.152));
#852=DIRECTION('',(0.,0.,-1.));
#853=DIRECTION('',(-1.,0.,0.));
#854=MANIFOLD_SOLID_BREP($,#855);
#855=CLOSED_SHELL('',(#857));
#856=STYLED_ITEM('color',(#34),#857);
#857=ADVANCED_FACE('',(),#858,.T.);
#858=SPHERICAL_SURFACE('',#859,0.1524);
#859=AXIS2_PLACEMENT_3D('',#860,#861,#862);
#860=CARTESIAN_POINT('',(0.0,0.65,0.152));
#861=DIRECTION('',(0.,0.,-1.));
#862=DIRECTION('',(-1.,0.,0.));
#863=MANIFOLD_SOLID_BREP($,#864);
#864=CLOSED_SHELL('',(#866));
#865=STYLED_ITEM('color',(#34),#866);
#866=ADVANCED_FACE('',(),#867,.T.);
#867=SPHERICAL_SURFACE('',#868,0.1524);
#868=AXIS2_PLACEMENT_3D('',#869,#870,#871);
#869=CARTESIAN_POINT('',(0.65,0.65,0.152));
#870=DIRECTION('',(0.,0.,-1.));
#871=DIRECTION('',(-1.,0.,0.));
#872=MANIFOLD_SOLID_BREP($,#873);
#873=CLOSED_SHELL('',(#875));
#874=STYLED_ITEM('color',(#34),#875);
#875=ADVANCED_FACE('',(),#876,.T.);
#876=SPHERICAL_SURFACE('',#877,0.1524);
#877=AXIS2_PLACEMENT_3D('',#878,#879,#880);
#878=CARTESIAN_POINT('',(1.3,0.65,0.152));
#879=DIRECTION('',(0.,0.,-1.));
#880=DIRECTION('',(-1.,0.,0.));
#881=MANIFOLD_SOLID_BREP($,#882);
#882=CLOSED_SHELL('',(#884));
#883=STYLED_ITEM('color',(#34),#884);
#884=ADVANCED_FACE('',(),#885,.T.);
#885=SPHERICAL_SURFACE('',#886,0.1524);
#886=AXIS2_PLACEMENT_3D('',#887,#888,#889);
#887=CARTESIAN_POINT('',(2.6,0.65,0.152));
#888=DIRECTION('',(0.,0.,-1.));
#889=DIRECTION('',(-1.,0.,0.));
#890=MANIFOLD_SOLID_BREP($,#891);
#891=CLOSED_SHELL('',(#893));
#892=STYLED_ITEM('color',(#34),#893);
#893=ADVANCED_FACE('',(),#894,.T.);
#894=SPHERICAL_SURFACE('',#895,0.1524);
#895=AXIS2_PLACEMENT_3D('',#896,#897,#898);
#896=CARTESIAN_POINT('',(3.25,0.65,0.152));
#897=DIRECTION('',(0.,0.,-1.));
#898=DIRECTION('',(-1.,0.,0.));
#899=MANIFOLD_SOLID_BREP($,#900);
#900=CLOSED_SHELL('',(#902));
#901=STYLED_ITEM('color',(#34),#902);
#902=ADVANCED_FACE('',(),#903,.T.);
#903=SPHERICAL_SURFACE('',#904,0.1524);
#904=AXIS2_PLACEMENT_3D('',#905,#906,#907);
#905=CARTESIAN_POINT('',(3.9,0.65,0.152));
#906=DIRECTION('',(0.,0.,-1.));
#907=DIRECTION('',(-1.,0.,0.));
#908=MANIFOLD_SOLID_BREP($,#909);
#909=CLOSED_SHELL('',(#911));
#910=STYLED_ITEM('color',(#34),#911);
#911=ADVANCED_FACE('',(),#912,.T.);
#912=SPHERICAL_SURFACE('',#913,0.1524);
#913=AXIS2_PLACEMENT_3D('',#914,#915,#916);
#914=CARTESIAN_POINT('',(4.55,0.65,0.152));
#915=DIRECTION('',(0.,0.,-1.));
#916=DIRECTION('',(-1.,0.,0.));
#917=MANIFOLD_SOLID_BREP($,#918);
#918=CLOSED_SHELL('',(#920));
#919=STYLED_ITEM('color',(#34),#920);
#920=ADVANCED_FACE('',(),#921,.T.);
#921=SPHERICAL_SURFACE('',#922,0.1524);
#922=AXIS2_PLACEMENT_3D('',#923,#924,#925);
#923=CARTESIAN_POINT('',(-4.55,0.0,0.152));
#924=DIRECTION('',(0.,0.,-1.));
#925=DIRECTION('',(-1.,0.,0.));
#926=MANIFOLD_SOLID_BREP($,#927);
#927=CLOSED_SHELL('',(#929));
#928=STYLED_ITEM('color',(#34),#929);
#929=ADVANCED_FACE('',(),#930,.T.);
#930=SPHERICAL_SURFACE('',#931,0.1524);
#931=AXIS2_PLACEMENT_3D('',#932,#933,#934);
#932=CARTESIAN_POINT('',(-3.9,0.0,0.152));
#933=DIRECTION('',(0.,0.,-1.));
#934=DIRECTION('',(-1.,0.,0.));
#935=MANIFOLD_SOLID_BREP($,#936);
#936=CLOSED_SHELL('',(#938));
#937=STYLED_ITEM('color',(#34),#938);
#938=ADVANCED_FACE('',(),#939,.T.);
#939=SPHERICAL_SURFACE('',#940,0.1524);
#940=AXIS2_PLACEMENT_3D('',#941,#942,#943);
#941=CARTESIAN_POINT('',(-3.25,0.0,0.152));
#942=DIRECTION('',(0.,0.,-1.));
#943=DIRECTION('',(-1.,0.,0.));
#944=MANIFOLD_SOLID_BREP($,#945);
#945=CLOSED_SHELL('',(#947));
#946=STYLED_ITEM('color',(#34),#947);
#947=ADVANCED_FACE('',(),#948,.T.);
#948=SPHERICAL_SURFACE('',#949,0.1524);
#949=AXIS2_PLACEMENT_3D('',#950,#951,#952);
#950=CARTESIAN_POINT('',(-2.6,0.0,0.152));
#951=DIRECTION('',(0.,0.,-1.));
#952=DIRECTION('',(-1.,0.,0.));
#953=MANIFOLD_SOLID_BREP($,#954);
#954=CLOSED_SHELL('',(#956));
#955=STYLED_ITEM('color',(#34),#956);
#956=ADVANCED_FACE('',(),#957,.T.);
#957=SPHERICAL_SURFACE('',#958,0.1524);
#958=AXIS2_PLACEMENT_3D('',#959,#960,#961);
#959=CARTESIAN_POINT('',(-1.3,0.0,0.152));
#960=DIRECTION('',(0.,0.,-1.));
#961=DIRECTION('',(-1.,0.,0.));
#962=MANIFOLD_SOLID_BREP($,#963);
#963=CLOSED_SHELL('',(#965));
#964=STYLED_ITEM('color',(#34),#965);
#965=ADVANCED_FACE('',(),#966,.T.);
#966=SPHERICAL_SURFACE('',#967,0.1524);
#967=AXIS2_PLACEMENT_3D('',#968,#969,#970);
#968=CARTESIAN_POINT('',(-0.65,0.0,0.152));
#969=DIRECTION('',(0.,0.,-1.));
#970=DIRECTION('',(-1.,0.,0.));
#971=MANIFOLD_SOLID_BREP($,#972);
#972=CLOSED_SHELL('',(#974));
#973=STYLED_ITEM('color',(#34),#974);
#974=ADVANCED_FACE('',(),#975,.T.);
#975=SPHERICAL_SURFACE('',#976,0.1524);
#976=AXIS2_PLACEMENT_3D('',#977,#978,#979);
#977=CARTESIAN_POINT('',(0.0,0.0,0.152));
#978=DIRECTION('',(0.,0.,-1.));
#979=DIRECTION('',(-1.,0.,0.));
#980=MANIFOLD_SOLID_BREP($,#981);
#981=CLOSED_SHELL('',(#983));
#982=STYLED_ITEM('color',(#34),#983);
#983=ADVANCED_FACE('',(),#984,.T.);
#984=SPHERICAL_SURFACE('',#985,0.1524);
#985=AXIS2_PLACEMENT_3D('',#986,#987,#988);
#986=CARTESIAN_POINT('',(0.65,0.0,0.152));
#987=DIRECTION('',(0.,0.,-1.));
#988=DIRECTION('',(-1.,0.,0.));
#989=MANIFOLD_SOLID_BREP($,#990);
#990=CLOSED_SHELL('',(#992));
#991=STYLED_ITEM('color',(#34),#992);
#992=ADVANCED_FACE('',(),#993,.T.);
#993=SPHERICAL_SURFACE('',#994,0.1524);
#994=AXIS2_PLACEMENT_3D('',#995,#996,#997);
#995=CARTESIAN_POINT('',(1.3,0.0,0.152));
#996=DIRECTION('',(0.,0.,-1.));
#997=DIRECTION('',(-1.,0.,0.));
#998=MANIFOLD_SOLID_BREP($,#999);
#999=CLOSED_SHELL('',(#1001));
#1000=STYLED_ITEM('color',(#34),#1001);
#1001=ADVANCED_FACE('',(),#1002,.T.);
#1002=SPHERICAL_SURFACE('',#1003,0.1524);
#1003=AXIS2_PLACEMENT_3D('',#1004,#1005,#1006);
#1004=CARTESIAN_POINT('',(2.6,0.0,0.152));
#1005=DIRECTION('',(0.,0.,-1.));
#1006=DIRECTION('',(-1.,0.,0.));
#1007=MANIFOLD_SOLID_BREP($,#1008);
#1008=CLOSED_SHELL('',(#1010));
#1009=STYLED_ITEM('color',(#34),#1010);
#1010=ADVANCED_FACE('',(),#1011,.T.);
#1011=SPHERICAL_SURFACE('',#1012,0.1524);
#1012=AXIS2_PLACEMENT_3D('',#1013,#1014,#1015);
#1013=CARTESIAN_POINT('',(3.25,0.0,0.152));
#1014=DIRECTION('',(0.,0.,-1.));
#1015=DIRECTION('',(-1.,0.,0.));
#1016=MANIFOLD_SOLID_BREP($,#1017);
#1017=CLOSED_SHELL('',(#1019));
#1018=STYLED_ITEM('color',(#34),#1019);
#1019=ADVANCED_FACE('',(),#1020,.T.);
#1020=SPHERICAL_SURFACE('',#1021,0.1524);
#1021=AXIS2_PLACEMENT_3D('',#1022,#1023,#1024);
#1022=CARTESIAN_POINT('',(3.9,0.0,0.152));
#1023=DIRECTION('',(0.,0.,-1.));
#1024=DIRECTION('',(-1.,0.,0.));
#1025=MANIFOLD_SOLID_BREP($,#1026);
#1026=CLOSED_SHELL('',(#1028));
#1027=STYLED_ITEM('color',(#34),#1028);
#1028=ADVANCED_FACE('',(),#1029,.T.);
#1029=SPHERICAL_SURFACE('',#1030,0.1524);
#1030=AXIS2_PLACEMENT_3D('',#1031,#1032,#1033);
#1031=CARTESIAN_POINT('',(4.55,0.0,0.152));
#1032=DIRECTION('',(0.,0.,-1.));
#1033=DIRECTION('',(-1.,0.,0.));
#1034=MANIFOLD_SOLID_BREP($,#1035);
#1035=CLOSED_SHELL('',(#1037));
#1036=STYLED_ITEM('color',(#34),#1037);
#1037=ADVANCED_FACE('',(),#1038,.T.);
#1038=SPHERICAL_SURFACE('',#1039,0.1524);
#1039=AXIS2_PLACEMENT_3D('',#1040,#1041,#1042);
#1040=CARTESIAN_POINT('',(-4.55,-0.65,0.152));
#1041=DIRECTION('',(0.,0.,-1.));
#1042=DIRECTION('',(-1.,0.,0.));
#1043=MANIFOLD_SOLID_BREP($,#1044);
#1044=CLOSED_SHELL('',(#1046));
#1045=STYLED_ITEM('color',(#34),#1046);
#1046=ADVANCED_FACE('',(),#1047,.T.);
#1047=SPHERICAL_SURFACE('',#1048,0.1524);
#1048=AXIS2_PLACEMENT_3D('',#1049,#1050,#1051);
#1049=CARTESIAN_POINT('',(-3.9,-0.65,0.152));
#1050=DIRECTION('',(0.,0.,-1.));
#1051=DIRECTION('',(-1.,0.,0.));
#1052=MANIFOLD_SOLID_BREP($,#1053);
#1053=CLOSED_SHELL('',(#1055));
#1054=STYLED_ITEM('color',(#34),#1055);
#1055=ADVANCED_FACE('',(),#1056,.T.);
#1056=SPHERICAL_SURFACE('',#1057,0.1524);
#1057=AXIS2_PLACEMENT_3D('',#1058,#1059,#1060);
#1058=CARTESIAN_POINT('',(-3.25,-0.65,0.152));
#1059=DIRECTION('',(0.,0.,-1.));
#1060=DIRECTION('',(-1.,0.,0.));
#1061=MANIFOLD_SOLID_BREP($,#1062);
#1062=CLOSED_SHELL('',(#1064));
#1063=STYLED_ITEM('color',(#34),#1064);
#1064=ADVANCED_FACE('',(),#1065,.T.);
#1065=SPHERICAL_SURFACE('',#1066,0.1524);
#1066=AXIS2_PLACEMENT_3D('',#1067,#1068,#1069);
#1067=CARTESIAN_POINT('',(-2.6,-0.65,0.152));
#1068=DIRECTION('',(0.,0.,-1.));
#1069=DIRECTION('',(-1.,0.,0.));
#1070=MANIFOLD_SOLID_BREP($,#1071);
#1071=CLOSED_SHELL('',(#1073));
#1072=STYLED_ITEM('color',(#34),#1073);
#1073=ADVANCED_FACE('',(),#1074,.T.);
#1074=SPHERICAL_SURFACE('',#1075,0.1524);
#1075=AXIS2_PLACEMENT_3D('',#1076,#1077,#1078);
#1076=CARTESIAN_POINT('',(-1.3,-0.65,0.152));
#1077=DIRECTION('',(0.,0.,-1.));
#1078=DIRECTION('',(-1.,0.,0.));
#1079=MANIFOLD_SOLID_BREP($,#1080);
#1080=CLOSED_SHELL('',(#1082));
#1081=STYLED_ITEM('color',(#34),#1082);
#1082=ADVANCED_FACE('',(),#1083,.T.);
#1083=SPHERICAL_SURFACE('',#1084,0.1524);
#1084=AXIS2_PLACEMENT_3D('',#1085,#1086,#1087);
#1085=CARTESIAN_POINT('',(-0.65,-0.65,0.152));
#1086=DIRECTION('',(0.,0.,-1.));
#1087=DIRECTION('',(-1.,0.,0.));
#1088=MANIFOLD_SOLID_BREP($,#1089);
#1089=CLOSED_SHELL('',(#1091));
#1090=STYLED_ITEM('color',(#34),#1091);
#1091=ADVANCED_FACE('',(),#1092,.T.);
#1092=SPHERICAL_SURFACE('',#1093,0.1524);
#1093=AXIS2_PLACEMENT_3D('',#1094,#1095,#1096);
#1094=CARTESIAN_POINT('',(0.0,-0.65,0.152));
#1095=DIRECTION('',(0.,0.,-1.));
#1096=DIRECTION('',(-1.,0.,0.));
#1097=MANIFOLD_SOLID_BREP($,#1098);
#1098=CLOSED_SHELL('',(#1100));
#1099=STYLED_ITEM('color',(#34),#1100);
#1100=ADVANCED_FACE('',(),#1101,.T.);
#1101=SPHERICAL_SURFACE('',#1102,0.1524);
#1102=AXIS2_PLACEMENT_3D('',#1103,#1104,#1105);
#1103=CARTESIAN_POINT('',(0.65,-0.65,0.152));
#1104=DIRECTION('',(0.,0.,-1.));
#1105=DIRECTION('',(-1.,0.,0.));
#1106=MANIFOLD_SOLID_BREP($,#1107);
#1107=CLOSED_SHELL('',(#1109));
#1108=STYLED_ITEM('color',(#34),#1109);
#1109=ADVANCED_FACE('',(),#1110,.T.);
#1110=SPHERICAL_SURFACE('',#1111,0.1524);
#1111=AXIS2_PLACEMENT_3D('',#1112,#1113,#1114);
#1112=CARTESIAN_POINT('',(1.3,-0.65,0.152));
#1113=DIRECTION('',(0.,0.,-1.));
#1114=DIRECTION('',(-1.,0.,0.));
#1115=MANIFOLD_SOLID_BREP($,#1116);
#1116=CLOSED_SHELL('',(#1118));
#1117=STYLED_ITEM('color',(#34),#1118);
#1118=ADVANCED_FACE('',(),#1119,.T.);
#1119=SPHERICAL_SURFACE('',#1120,0.1524);
#1120=AXIS2_PLACEMENT_3D('',#1121,#1122,#1123);
#1121=CARTESIAN_POINT('',(2.6,-0.65,0.152));
#1122=DIRECTION('',(0.,0.,-1.));
#1123=DIRECTION('',(-1.,0.,0.));
#1124=MANIFOLD_SOLID_BREP($,#1125);
#1125=CLOSED_SHELL('',(#1127));
#1126=STYLED_ITEM('color',(#34),#1127);
#1127=ADVANCED_FACE('',(),#1128,.T.);
#1128=SPHERICAL_SURFACE('',#1129,0.1524);
#1129=AXIS2_PLACEMENT_3D('',#1130,#1131,#1132);
#1130=CARTESIAN_POINT('',(3.25,-0.65,0.152));
#1131=DIRECTION('',(0.,0.,-1.));
#1132=DIRECTION('',(-1.,0.,0.));
#1133=MANIFOLD_SOLID_BREP($,#1134);
#1134=CLOSED_SHELL('',(#1136));
#1135=STYLED_ITEM('color',(#34),#1136);
#1136=ADVANCED_FACE('',(),#1137,.T.);
#1137=SPHERICAL_SURFACE('',#1138,0.1524);
#1138=AXIS2_PLACEMENT_3D('',#1139,#1140,#1141);
#1139=CARTESIAN_POINT('',(3.9,-0.65,0.152));
#1140=DIRECTION('',(0.,0.,-1.));
#1141=DIRECTION('',(-1.,0.,0.));
#1142=MANIFOLD_SOLID_BREP($,#1143);
#1143=CLOSED_SHELL('',(#1145));
#1144=STYLED_ITEM('color',(#34),#1145);
#1145=ADVANCED_FACE('',(),#1146,.T.);
#1146=SPHERICAL_SURFACE('',#1147,0.1524);
#1147=AXIS2_PLACEMENT_3D('',#1148,#1149,#1150);
#1148=CARTESIAN_POINT('',(4.55,-0.65,0.152));
#1149=DIRECTION('',(0.,0.,-1.));
#1150=DIRECTION('',(-1.,0.,0.));
#1151=MANIFOLD_SOLID_BREP($,#1152);
#1152=CLOSED_SHELL('',(#1154));
#1153=STYLED_ITEM('color',(#34),#1154);
#1154=ADVANCED_FACE('',(),#1155,.T.);
#1155=SPHERICAL_SURFACE('',#1156,0.1524);
#1156=AXIS2_PLACEMENT_3D('',#1157,#1158,#1159);
#1157=CARTESIAN_POINT('',(-4.55,-1.3,0.152));
#1158=DIRECTION('',(0.,0.,-1.));
#1159=DIRECTION('',(-1.,0.,0.));
#1160=MANIFOLD_SOLID_BREP($,#1161);
#1161=CLOSED_SHELL('',(#1163));
#1162=STYLED_ITEM('color',(#34),#1163);
#1163=ADVANCED_FACE('',(),#1164,.T.);
#1164=SPHERICAL_SURFACE('',#1165,0.1524);
#1165=AXIS2_PLACEMENT_3D('',#1166,#1167,#1168);
#1166=CARTESIAN_POINT('',(-3.9,-1.3,0.152));
#1167=DIRECTION('',(0.,0.,-1.));
#1168=DIRECTION('',(-1.,0.,0.));
#1169=MANIFOLD_SOLID_BREP($,#1170);
#1170=CLOSED_SHELL('',(#1172));
#1171=STYLED_ITEM('color',(#34),#1172);
#1172=ADVANCED_FACE('',(),#1173,.T.);
#1173=SPHERICAL_SURFACE('',#1174,0.1524);
#1174=AXIS2_PLACEMENT_3D('',#1175,#1176,#1177);
#1175=CARTESIAN_POINT('',(-3.25,-1.3,0.152));
#1176=DIRECTION('',(0.,0.,-1.));
#1177=DIRECTION('',(-1.,0.,0.));
#1178=MANIFOLD_SOLID_BREP($,#1179);
#1179=CLOSED_SHELL('',(#1181));
#1180=STYLED_ITEM('color',(#34),#1181);
#1181=ADVANCED_FACE('',(),#1182,.T.);
#1182=SPHERICAL_SURFACE('',#1183,0.1524);
#1183=AXIS2_PLACEMENT_3D('',#1184,#1185,#1186);
#1184=CARTESIAN_POINT('',(-2.6,-1.3,0.152));
#1185=DIRECTION('',(0.,0.,-1.));
#1186=DIRECTION('',(-1.,0.,0.));
#1187=MANIFOLD_SOLID_BREP($,#1188);
#1188=CLOSED_SHELL('',(#1190));
#1189=STYLED_ITEM('color',(#34),#1190);
#1190=ADVANCED_FACE('',(),#1191,.T.);
#1191=SPHERICAL_SURFACE('',#1192,0.1524);
#1192=AXIS2_PLACEMENT_3D('',#1193,#1194,#1195);
#1193=CARTESIAN_POINT('',(-1.3,-1.3,0.152));
#1194=DIRECTION('',(0.,0.,-1.));
#1195=DIRECTION('',(-1.,0.,0.));
#1196=MANIFOLD_SOLID_BREP($,#1197);
#1197=CLOSED_SHELL('',(#1199));
#1198=STYLED_ITEM('color',(#34),#1199);
#1199=ADVANCED_FACE('',(),#1200,.T.);
#1200=SPHERICAL_SURFACE('',#1201,0.1524);
#1201=AXIS2_PLACEMENT_3D('',#1202,#1203,#1204);
#1202=CARTESIAN_POINT('',(-0.65,-1.3,0.152));
#1203=DIRECTION('',(0.,0.,-1.));
#1204=DIRECTION('',(-1.,0.,0.));
#1205=MANIFOLD_SOLID_BREP($,#1206);
#1206=CLOSED_SHELL('',(#1208));
#1207=STYLED_ITEM('color',(#34),#1208);
#1208=ADVANCED_FACE('',(),#1209,.T.);
#1209=SPHERICAL_SURFACE('',#1210,0.1524);
#1210=AXIS2_PLACEMENT_3D('',#1211,#1212,#1213);
#1211=CARTESIAN_POINT('',(0.0,-1.3,0.152));
#1212=DIRECTION('',(0.,0.,-1.));
#1213=DIRECTION('',(-1.,0.,0.));
#1214=MANIFOLD_SOLID_BREP($,#1215);
#1215=CLOSED_SHELL('',(#1217));
#1216=STYLED_ITEM('color',(#34),#1217);
#1217=ADVANCED_FACE('',(),#1218,.T.);
#1218=SPHERICAL_SURFACE('',#1219,0.1524);
#1219=AXIS2_PLACEMENT_3D('',#1220,#1221,#1222);
#1220=CARTESIAN_POINT('',(0.65,-1.3,0.152));
#1221=DIRECTION('',(0.,0.,-1.));
#1222=DIRECTION('',(-1.,0.,0.));
#1223=MANIFOLD_SOLID_BREP($,#1224);
#1224=CLOSED_SHELL('',(#1226));
#1225=STYLED_ITEM('color',(#34),#1226);
#1226=ADVANCED_FACE('',(),#1227,.T.);
#1227=SPHERICAL_SURFACE('',#1228,0.1524);
#1228=AXIS2_PLACEMENT_3D('',#1229,#1230,#1231);
#1229=CARTESIAN_POINT('',(1.3,-1.3,0.152));
#1230=DIRECTION('',(0.,0.,-1.));
#1231=DIRECTION('',(-1.,0.,0.));
#1232=MANIFOLD_SOLID_BREP($,#1233);
#1233=CLOSED_SHELL('',(#1235));
#1234=STYLED_ITEM('color',(#34),#1235);
#1235=ADVANCED_FACE('',(),#1236,.T.);
#1236=SPHERICAL_SURFACE('',#1237,0.1524);
#1237=AXIS2_PLACEMENT_3D('',#1238,#1239,#1240);
#1238=CARTESIAN_POINT('',(2.6,-1.3,0.152));
#1239=DIRECTION('',(0.,0.,-1.));
#1240=DIRECTION('',(-1.,0.,0.));
#1241=MANIFOLD_SOLID_BREP($,#1242);
#1242=CLOSED_SHELL('',(#1244));
#1243=STYLED_ITEM('color',(#34),#1244);
#1244=ADVANCED_FACE('',(),#1245,.T.);
#1245=SPHERICAL_SURFACE('',#1246,0.1524);
#1246=AXIS2_PLACEMENT_3D('',#1247,#1248,#1249);
#1247=CARTESIAN_POINT('',(3.25,-1.3,0.152));
#1248=DIRECTION('',(0.,0.,-1.));
#1249=DIRECTION('',(-1.,0.,0.));
#1250=MANIFOLD_SOLID_BREP($,#1251);
#1251=CLOSED_SHELL('',(#1253));
#1252=STYLED_ITEM('color',(#34),#1253);
#1253=ADVANCED_FACE('',(),#1254,.T.);
#1254=SPHERICAL_SURFACE('',#1255,0.1524);
#1255=AXIS2_PLACEMENT_3D('',#1256,#1257,#1258);
#1256=CARTESIAN_POINT('',(3.9,-1.3,0.152));
#1257=DIRECTION('',(0.,0.,-1.));
#1258=DIRECTION('',(-1.,0.,0.));
#1259=MANIFOLD_SOLID_BREP($,#1260);
#1260=CLOSED_SHELL('',(#1262));
#1261=STYLED_ITEM('color',(#34),#1262);
#1262=ADVANCED_FACE('',(),#1263,.T.);
#1263=SPHERICAL_SURFACE('',#1264,0.1524);
#1264=AXIS2_PLACEMENT_3D('',#1265,#1266,#1267);
#1265=CARTESIAN_POINT('',(4.55,-1.3,0.152));
#1266=DIRECTION('',(0.,0.,-1.));
#1267=DIRECTION('',(-1.,0.,0.));
#1268=MANIFOLD_SOLID_BREP($,#1269);
#1269=CLOSED_SHELL('',(#1271));
#1270=STYLED_ITEM('color',(#34),#1271);
#1271=ADVANCED_FACE('',(),#1272,.T.);
#1272=SPHERICAL_SURFACE('',#1273,0.1524);
#1273=AXIS2_PLACEMENT_3D('',#1274,#1275,#1276);
#1274=CARTESIAN_POINT('',(-4.55,-1.95,0.152));
#1275=DIRECTION('',(0.,0.,-1.));
#1276=DIRECTION('',(-1.,0.,0.));
#1277=MANIFOLD_SOLID_BREP($,#1278);
#1278=CLOSED_SHELL('',(#1280));
#1279=STYLED_ITEM('color',(#34),#1280);
#1280=ADVANCED_FACE('',(),#1281,.T.);
#1281=SPHERICAL_SURFACE('',#1282,0.1524);
#1282=AXIS2_PLACEMENT_3D('',#1283,#1284,#1285);
#1283=CARTESIAN_POINT('',(-3.9,-1.95,0.152));
#1284=DIRECTION('',(0.,0.,-1.));
#1285=DIRECTION('',(-1.,0.,0.));
#1286=MANIFOLD_SOLID_BREP($,#1287);
#1287=CLOSED_SHELL('',(#1289));
#1288=STYLED_ITEM('color',(#34),#1289);
#1289=ADVANCED_FACE('',(),#1290,.T.);
#1290=SPHERICAL_SURFACE('',#1291,0.1524);
#1291=AXIS2_PLACEMENT_3D('',#1292,#1293,#1294);
#1292=CARTESIAN_POINT('',(-3.25,-1.95,0.152));
#1293=DIRECTION('',(0.,0.,-1.));
#1294=DIRECTION('',(-1.,0.,0.));
#1295=MANIFOLD_SOLID_BREP($,#1296);
#1296=CLOSED_SHELL('',(#1298));
#1297=STYLED_ITEM('color',(#34),#1298);
#1298=ADVANCED_FACE('',(),#1299,.T.);
#1299=SPHERICAL_SURFACE('',#1300,0.1524);
#1300=AXIS2_PLACEMENT_3D('',#1301,#1302,#1303);
#1301=CARTESIAN_POINT('',(-2.6,-1.95,0.152));
#1302=DIRECTION('',(0.,0.,-1.));
#1303=DIRECTION('',(-1.,0.,0.));
#1304=MANIFOLD_SOLID_BREP($,#1305);
#1305=CLOSED_SHELL('',(#1307));
#1306=STYLED_ITEM('color',(#34),#1307);
#1307=ADVANCED_FACE('',(),#1308,.T.);
#1308=SPHERICAL_SURFACE('',#1309,0.1524);
#1309=AXIS2_PLACEMENT_3D('',#1310,#1311,#1312);
#1310=CARTESIAN_POINT('',(2.6,-1.95,0.152));
#1311=DIRECTION('',(0.,0.,-1.));
#1312=DIRECTION('',(-1.,0.,0.));
#1313=MANIFOLD_SOLID_BREP($,#1314);
#1314=CLOSED_SHELL('',(#1316));
#1315=STYLED_ITEM('color',(#34),#1316);
#1316=ADVANCED_FACE('',(),#1317,.T.);
#1317=SPHERICAL_SURFACE('',#1318,0.1524);
#1318=AXIS2_PLACEMENT_3D('',#1319,#1320,#1321);
#1319=CARTESIAN_POINT('',(3.25,-1.95,0.152));
#1320=DIRECTION('',(0.,0.,-1.));
#1321=DIRECTION('',(-1.,0.,0.));
#1322=MANIFOLD_SOLID_BREP($,#1323);
#1323=CLOSED_SHELL('',(#1325));
#1324=STYLED_ITEM('color',(#34),#1325);
#1325=ADVANCED_FACE('',(),#1326,.T.);
#1326=SPHERICAL_SURFACE('',#1327,0.1524);
#1327=AXIS2_PLACEMENT_3D('',#1328,#1329,#1330);
#1328=CARTESIAN_POINT('',(3.9,-1.95,0.152));
#1329=DIRECTION('',(0.,0.,-1.));
#1330=DIRECTION('',(-1.,0.,0.));
#1331=MANIFOLD_SOLID_BREP($,#1332);
#1332=CLOSED_SHELL('',(#1334));
#1333=STYLED_ITEM('color',(#34),#1334);
#1334=ADVANCED_FACE('',(),#1335,.T.);
#1335=SPHERICAL_SURFACE('',#1336,0.1524);
#1336=AXIS2_PLACEMENT_3D('',#1337,#1338,#1339);
#1337=CARTESIAN_POINT('',(4.55,-1.95,0.152));
#1338=DIRECTION('',(0.,0.,-1.));
#1339=DIRECTION('',(-1.,0.,0.));
#1340=MANIFOLD_SOLID_BREP($,#1341);
#1341=CLOSED_SHELL('',(#1343));
#1342=STYLED_ITEM('color',(#34),#1343);
#1343=ADVANCED_FACE('',(),#1344,.T.);
#1344=SPHERICAL_SURFACE('',#1345,0.1524);
#1345=AXIS2_PLACEMENT_3D('',#1346,#1347,#1348);
#1346=CARTESIAN_POINT('',(-4.55,-2.6,0.152));
#1347=DIRECTION('',(0.,0.,-1.));
#1348=DIRECTION('',(-1.,0.,0.));
#1349=MANIFOLD_SOLID_BREP($,#1350);
#1350=CLOSED_SHELL('',(#1352));
#1351=STYLED_ITEM('color',(#34),#1352);
#1352=ADVANCED_FACE('',(),#1353,.T.);
#1353=SPHERICAL_SURFACE('',#1354,0.1524);
#1354=AXIS2_PLACEMENT_3D('',#1355,#1356,#1357);
#1355=CARTESIAN_POINT('',(-3.9,-2.6,0.152));
#1356=DIRECTION('',(0.,0.,-1.));
#1357=DIRECTION('',(-1.,0.,0.));
#1358=MANIFOLD_SOLID_BREP($,#1359);
#1359=CLOSED_SHELL('',(#1361));
#1360=STYLED_ITEM('color',(#34),#1361);
#1361=ADVANCED_FACE('',(),#1362,.T.);
#1362=SPHERICAL_SURFACE('',#1363,0.1524);
#1363=AXIS2_PLACEMENT_3D('',#1364,#1365,#1366);
#1364=CARTESIAN_POINT('',(-3.25,-2.6,0.152));
#1365=DIRECTION('',(0.,0.,-1.));
#1366=DIRECTION('',(-1.,0.,0.));
#1367=MANIFOLD_SOLID_BREP($,#1368);
#1368=CLOSED_SHELL('',(#1370));
#1369=STYLED_ITEM('color',(#34),#1370);
#1370=ADVANCED_FACE('',(),#1371,.T.);
#1371=SPHERICAL_SURFACE('',#1372,0.1524);
#1372=AXIS2_PLACEMENT_3D('',#1373,#1374,#1375);
#1373=CARTESIAN_POINT('',(-2.6,-2.6,0.152));
#1374=DIRECTION('',(0.,0.,-1.));
#1375=DIRECTION('',(-1.,0.,0.));
#1376=MANIFOLD_SOLID_BREP($,#1377);
#1377=CLOSED_SHELL('',(#1379));
#1378=STYLED_ITEM('color',(#34),#1379);
#1379=ADVANCED_FACE('',(),#1380,.T.);
#1380=SPHERICAL_SURFACE('',#1381,0.1524);
#1381=AXIS2_PLACEMENT_3D('',#1382,#1383,#1384);
#1382=CARTESIAN_POINT('',(-1.95,-2.6,0.152));
#1383=DIRECTION('',(0.,0.,-1.));
#1384=DIRECTION('',(-1.,0.,0.));
#1385=MANIFOLD_SOLID_BREP($,#1386);
#1386=CLOSED_SHELL('',(#1388));
#1387=STYLED_ITEM('color',(#34),#1388);
#1388=ADVANCED_FACE('',(),#1389,.T.);
#1389=SPHERICAL_SURFACE('',#1390,0.1524);
#1390=AXIS2_PLACEMENT_3D('',#1391,#1392,#1393);
#1391=CARTESIAN_POINT('',(-1.3,-2.6,0.152));
#1392=DIRECTION('',(0.,0.,-1.));
#1393=DIRECTION('',(-1.,0.,0.));
#1394=MANIFOLD_SOLID_BREP($,#1395);
#1395=CLOSED_SHELL('',(#1397));
#1396=STYLED_ITEM('color',(#34),#1397);
#1397=ADVANCED_FACE('',(),#1398,.T.);
#1398=SPHERICAL_SURFACE('',#1399,0.1524);
#1399=AXIS2_PLACEMENT_3D('',#1400,#1401,#1402);
#1400=CARTESIAN_POINT('',(-0.65,-2.6,0.152));
#1401=DIRECTION('',(0.,0.,-1.));
#1402=DIRECTION('',(-1.,0.,0.));
#1403=MANIFOLD_SOLID_BREP($,#1404);
#1404=CLOSED_SHELL('',(#1406));
#1405=STYLED_ITEM('color',(#34),#1406);
#1406=ADVANCED_FACE('',(),#1407,.T.);
#1407=SPHERICAL_SURFACE('',#1408,0.1524);
#1408=AXIS2_PLACEMENT_3D('',#1409,#1410,#1411);
#1409=CARTESIAN_POINT('',(0.0,-2.6,0.152));
#1410=DIRECTION('',(0.,0.,-1.));
#1411=DIRECTION('',(-1.,0.,0.));
#1412=MANIFOLD_SOLID_BREP($,#1413);
#1413=CLOSED_SHELL('',(#1415));
#1414=STYLED_ITEM('color',(#34),#1415);
#1415=ADVANCED_FACE('',(),#1416,.T.);
#1416=SPHERICAL_SURFACE('',#1417,0.1524);
#1417=AXIS2_PLACEMENT_3D('',#1418,#1419,#1420);
#1418=CARTESIAN_POINT('',(0.65,-2.6,0.152));
#1419=DIRECTION('',(0.,0.,-1.));
#1420=DIRECTION('',(-1.,0.,0.));
#1421=MANIFOLD_SOLID_BREP($,#1422);
#1422=CLOSED_SHELL('',(#1424));
#1423=STYLED_ITEM('color',(#34),#1424);
#1424=ADVANCED_FACE('',(),#1425,.T.);
#1425=SPHERICAL_SURFACE('',#1426,0.1524);
#1426=AXIS2_PLACEMENT_3D('',#1427,#1428,#1429);
#1427=CARTESIAN_POINT('',(1.3,-2.6,0.152));
#1428=DIRECTION('',(0.,0.,-1.));
#1429=DIRECTION('',(-1.,0.,0.));
#1430=MANIFOLD_SOLID_BREP($,#1431);
#1431=CLOSED_SHELL('',(#1433));
#1432=STYLED_ITEM('color',(#34),#1433);
#1433=ADVANCED_FACE('',(),#1434,.T.);
#1434=SPHERICAL_SURFACE('',#1435,0.1524);
#1435=AXIS2_PLACEMENT_3D('',#1436,#1437,#1438);
#1436=CARTESIAN_POINT('',(1.95,-2.6,0.152));
#1437=DIRECTION('',(0.,0.,-1.));
#1438=DIRECTION('',(-1.,0.,0.));
#1439=MANIFOLD_SOLID_BREP($,#1440);
#1440=CLOSED_SHELL('',(#1442));
#1441=STYLED_ITEM('color',(#34),#1442);
#1442=ADVANCED_FACE('',(),#1443,.T.);
#1443=SPHERICAL_SURFACE('',#1444,0.1524);
#1444=AXIS2_PLACEMENT_3D('',#1445,#1446,#1447);
#1445=CARTESIAN_POINT('',(2.6,-2.6,0.152));
#1446=DIRECTION('',(0.,0.,-1.));
#1447=DIRECTION('',(-1.,0.,0.));
#1448=MANIFOLD_SOLID_BREP($,#1449);
#1449=CLOSED_SHELL('',(#1451));
#1450=STYLED_ITEM('color',(#34),#1451);
#1451=ADVANCED_FACE('',(),#1452,.T.);
#1452=SPHERICAL_SURFACE('',#1453,0.1524);
#1453=AXIS2_PLACEMENT_3D('',#1454,#1455,#1456);
#1454=CARTESIAN_POINT('',(3.25,-2.6,0.152));
#1455=DIRECTION('',(0.,0.,-1.));
#1456=DIRECTION('',(-1.,0.,0.));
#1457=MANIFOLD_SOLID_BREP($,#1458);
#1458=CLOSED_SHELL('',(#1460));
#1459=STYLED_ITEM('color',(#34),#1460);
#1460=ADVANCED_FACE('',(),#1461,.T.);
#1461=SPHERICAL_SURFACE('',#1462,0.1524);
#1462=AXIS2_PLACEMENT_3D('',#1463,#1464,#1465);
#1463=CARTESIAN_POINT('',(3.9,-2.6,0.152));
#1464=DIRECTION('',(0.,0.,-1.));
#1465=DIRECTION('',(-1.,0.,0.));
#1466=MANIFOLD_SOLID_BREP($,#1467);
#1467=CLOSED_SHELL('',(#1469));
#1468=STYLED_ITEM('color',(#34),#1469);
#1469=ADVANCED_FACE('',(),#1470,.T.);
#1470=SPHERICAL_SURFACE('',#1471,0.1524);
#1471=AXIS2_PLACEMENT_3D('',#1472,#1473,#1474);
#1472=CARTESIAN_POINT('',(4.55,-2.6,0.152));
#1473=DIRECTION('',(0.,0.,-1.));
#1474=DIRECTION('',(-1.,0.,0.));
#1475=MANIFOLD_SOLID_BREP($,#1476);
#1476=CLOSED_SHELL('',(#1478));
#1477=STYLED_ITEM('color',(#34),#1478);
#1478=ADVANCED_FACE('',(),#1479,.T.);
#1479=SPHERICAL_SURFACE('',#1480,0.1524);
#1480=AXIS2_PLACEMENT_3D('',#1481,#1482,#1483);
#1481=CARTESIAN_POINT('',(-4.55,-3.25,0.152));
#1482=DIRECTION('',(0.,0.,-1.));
#1483=DIRECTION('',(-1.,0.,0.));
#1484=MANIFOLD_SOLID_BREP($,#1485);
#1485=CLOSED_SHELL('',(#1487));
#1486=STYLED_ITEM('color',(#34),#1487);
#1487=ADVANCED_FACE('',(),#1488,.T.);
#1488=SPHERICAL_SURFACE('',#1489,0.1524);
#1489=AXIS2_PLACEMENT_3D('',#1490,#1491,#1492);
#1490=CARTESIAN_POINT('',(-3.9,-3.25,0.152));
#1491=DIRECTION('',(0.,0.,-1.));
#1492=DIRECTION('',(-1.,0.,0.));
#1493=MANIFOLD_SOLID_BREP($,#1494);
#1494=CLOSED_SHELL('',(#1496));
#1495=STYLED_ITEM('color',(#34),#1496);
#1496=ADVANCED_FACE('',(),#1497,.T.);
#1497=SPHERICAL_SURFACE('',#1498,0.1524);
#1498=AXIS2_PLACEMENT_3D('',#1499,#1500,#1501);
#1499=CARTESIAN_POINT('',(-3.25,-3.25,0.152));
#1500=DIRECTION('',(0.,0.,-1.));
#1501=DIRECTION('',(-1.,0.,0.));
#1502=MANIFOLD_SOLID_BREP($,#1503);
#1503=CLOSED_SHELL('',(#1505));
#1504=STYLED_ITEM('color',(#34),#1505);
#1505=ADVANCED_FACE('',(),#1506,.T.);
#1506=SPHERICAL_SURFACE('',#1507,0.1524);
#1507=AXIS2_PLACEMENT_3D('',#1508,#1509,#1510);
#1508=CARTESIAN_POINT('',(-2.6,-3.25,0.152));
#1509=DIRECTION('',(0.,0.,-1.));
#1510=DIRECTION('',(-1.,0.,0.));
#1511=MANIFOLD_SOLID_BREP($,#1512);
#1512=CLOSED_SHELL('',(#1514));
#1513=STYLED_ITEM('color',(#34),#1514);
#1514=ADVANCED_FACE('',(),#1515,.T.);
#1515=SPHERICAL_SURFACE('',#1516,0.1524);
#1516=AXIS2_PLACEMENT_3D('',#1517,#1518,#1519);
#1517=CARTESIAN_POINT('',(-1.95,-3.25,0.152));
#1518=DIRECTION('',(0.,0.,-1.));
#1519=DIRECTION('',(-1.,0.,0.));
#1520=MANIFOLD_SOLID_BREP($,#1521);
#1521=CLOSED_SHELL('',(#1523));
#1522=STYLED_ITEM('color',(#34),#1523);
#1523=ADVANCED_FACE('',(),#1524,.T.);
#1524=SPHERICAL_SURFACE('',#1525,0.1524);
#1525=AXIS2_PLACEMENT_3D('',#1526,#1527,#1528);
#1526=CARTESIAN_POINT('',(-1.3,-3.25,0.152));
#1527=DIRECTION('',(0.,0.,-1.));
#1528=DIRECTION('',(-1.,0.,0.));
#1529=MANIFOLD_SOLID_BREP($,#1530);
#1530=CLOSED_SHELL('',(#1532));
#1531=STYLED_ITEM('color',(#34),#1532);
#1532=ADVANCED_FACE('',(),#1533,.T.);
#1533=SPHERICAL_SURFACE('',#1534,0.1524);
#1534=AXIS2_PLACEMENT_3D('',#1535,#1536,#1537);
#1535=CARTESIAN_POINT('',(-0.65,-3.25,0.152));
#1536=DIRECTION('',(0.,0.,-1.));
#1537=DIRECTION('',(-1.,0.,0.));
#1538=MANIFOLD_SOLID_BREP($,#1539);
#1539=CLOSED_SHELL('',(#1541));
#1540=STYLED_ITEM('color',(#34),#1541);
#1541=ADVANCED_FACE('',(),#1542,.T.);
#1542=SPHERICAL_SURFACE('',#1543,0.1524);
#1543=AXIS2_PLACEMENT_3D('',#1544,#1545,#1546);
#1544=CARTESIAN_POINT('',(0.0,-3.25,0.152));
#1545=DIRECTION('',(0.,0.,-1.));
#1546=DIRECTION('',(-1.,0.,0.));
#1547=MANIFOLD_SOLID_BREP($,#1548);
#1548=CLOSED_SHELL('',(#1550));
#1549=STYLED_ITEM('color',(#34),#1550);
#1550=ADVANCED_FACE('',(),#1551,.T.);
#1551=SPHERICAL_SURFACE('',#1552,0.1524);
#1552=AXIS2_PLACEMENT_3D('',#1553,#1554,#1555);
#1553=CARTESIAN_POINT('',(0.65,-3.25,0.152));
#1554=DIRECTION('',(0.,0.,-1.));
#1555=DIRECTION('',(-1.,0.,0.));
#1556=MANIFOLD_SOLID_BREP($,#1557);
#1557=CLOSED_SHELL('',(#1559));
#1558=STYLED_ITEM('color',(#34),#1559);
#1559=ADVANCED_FACE('',(),#1560,.T.);
#1560=SPHERICAL_SURFACE('',#1561,0.1524);
#1561=AXIS2_PLACEMENT_3D('',#1562,#1563,#1564);
#1562=CARTESIAN_POINT('',(1.3,-3.25,0.152));
#1563=DIRECTION('',(0.,0.,-1.));
#1564=DIRECTION('',(-1.,0.,0.));
#1565=MANIFOLD_SOLID_BREP($,#1566);
#1566=CLOSED_SHELL('',(#1568));
#1567=STYLED_ITEM('color',(#34),#1568);
#1568=ADVANCED_FACE('',(),#1569,.T.);
#1569=SPHERICAL_SURFACE('',#1570,0.1524);
#1570=AXIS2_PLACEMENT_3D('',#1571,#1572,#1573);
#1571=CARTESIAN_POINT('',(1.95,-3.25,0.152));
#1572=DIRECTION('',(0.,0.,-1.));
#1573=DIRECTION('',(-1.,0.,0.));
#1574=MANIFOLD_SOLID_BREP($,#1575);
#1575=CLOSED_SHELL('',(#1577));
#1576=STYLED_ITEM('color',(#34),#1577);
#1577=ADVANCED_FACE('',(),#1578,.T.);
#1578=SPHERICAL_SURFACE('',#1579,0.1524);
#1579=AXIS2_PLACEMENT_3D('',#1580,#1581,#1582);
#1580=CARTESIAN_POINT('',(2.6,-3.25,0.152));
#1581=DIRECTION('',(0.,0.,-1.));
#1582=DIRECTION('',(-1.,0.,0.));
#1583=MANIFOLD_SOLID_BREP($,#1584);
#1584=CLOSED_SHELL('',(#1586));
#1585=STYLED_ITEM('color',(#34),#1586);
#1586=ADVANCED_FACE('',(),#1587,.T.);
#1587=SPHERICAL_SURFACE('',#1588,0.1524);
#1588=AXIS2_PLACEMENT_3D('',#1589,#1590,#1591);
#1589=CARTESIAN_POINT('',(3.25,-3.25,0.152));
#1590=DIRECTION('',(0.,0.,-1.));
#1591=DIRECTION('',(-1.,0.,0.));
#1592=MANIFOLD_SOLID_BREP($,#1593);
#1593=CLOSED_SHELL('',(#1595));
#1594=STYLED_ITEM('color',(#34),#1595);
#1595=ADVANCED_FACE('',(),#1596,.T.);
#1596=SPHERICAL_SURFACE('',#1597,0.1524);
#1597=AXIS2_PLACEMENT_3D('',#1598,#1599,#1600);
#1598=CARTESIAN_POINT('',(3.9,-3.25,0.152));
#1599=DIRECTION('',(0.,0.,-1.));
#1600=DIRECTION('',(-1.,0.,0.));
#1601=MANIFOLD_SOLID_BREP($,#1602);
#1602=CLOSED_SHELL('',(#1604));
#1603=STYLED_ITEM('color',(#34),#1604);
#1604=ADVANCED_FACE('',(),#1605,.T.);
#1605=SPHERICAL_SURFACE('',#1606,0.1524);
#1606=AXIS2_PLACEMENT_3D('',#1607,#1608,#1609);
#1607=CARTESIAN_POINT('',(4.55,-3.25,0.152));
#1608=DIRECTION('',(0.,0.,-1.));
#1609=DIRECTION('',(-1.,0.,0.));
#1610=MANIFOLD_SOLID_BREP($,#1611);
#1611=CLOSED_SHELL('',(#1613));
#1612=STYLED_ITEM('color',(#34),#1613);
#1613=ADVANCED_FACE('',(),#1614,.T.);
#1614=SPHERICAL_SURFACE('',#1615,0.1524);
#1615=AXIS2_PLACEMENT_3D('',#1616,#1617,#1618);
#1616=CARTESIAN_POINT('',(-4.55,-3.9,0.152));
#1617=DIRECTION('',(0.,0.,-1.));
#1618=DIRECTION('',(-1.,0.,0.));
#1619=MANIFOLD_SOLID_BREP($,#1620);
#1620=CLOSED_SHELL('',(#1622));
#1621=STYLED_ITEM('color',(#34),#1622);
#1622=ADVANCED_FACE('',(),#1623,.T.);
#1623=SPHERICAL_SURFACE('',#1624,0.1524);
#1624=AXIS2_PLACEMENT_3D('',#1625,#1626,#1627);
#1625=CARTESIAN_POINT('',(-3.9,-3.9,0.152));
#1626=DIRECTION('',(0.,0.,-1.));
#1627=DIRECTION('',(-1.,0.,0.));
#1628=MANIFOLD_SOLID_BREP($,#1629);
#1629=CLOSED_SHELL('',(#1631));
#1630=STYLED_ITEM('color',(#34),#1631);
#1631=ADVANCED_FACE('',(),#1632,.T.);
#1632=SPHERICAL_SURFACE('',#1633,0.1524);
#1633=AXIS2_PLACEMENT_3D('',#1634,#1635,#1636);
#1634=CARTESIAN_POINT('',(-3.25,-3.9,0.152));
#1635=DIRECTION('',(0.,0.,-1.));
#1636=DIRECTION('',(-1.,0.,0.));
#1637=MANIFOLD_SOLID_BREP($,#1638);
#1638=CLOSED_SHELL('',(#1640));
#1639=STYLED_ITEM('color',(#34),#1640);
#1640=ADVANCED_FACE('',(),#1641,.T.);
#1641=SPHERICAL_SURFACE('',#1642,0.1524);
#1642=AXIS2_PLACEMENT_3D('',#1643,#1644,#1645);
#1643=CARTESIAN_POINT('',(-2.6,-3.9,0.152));
#1644=DIRECTION('',(0.,0.,-1.));
#1645=DIRECTION('',(-1.,0.,0.));
#1646=MANIFOLD_SOLID_BREP($,#1647);
#1647=CLOSED_SHELL('',(#1649));
#1648=STYLED_ITEM('color',(#34),#1649);
#1649=ADVANCED_FACE('',(),#1650,.T.);
#1650=SPHERICAL_SURFACE('',#1651,0.1524);
#1651=AXIS2_PLACEMENT_3D('',#1652,#1653,#1654);
#1652=CARTESIAN_POINT('',(-1.95,-3.9,0.152));
#1653=DIRECTION('',(0.,0.,-1.));
#1654=DIRECTION('',(-1.,0.,0.));
#1655=MANIFOLD_SOLID_BREP($,#1656);
#1656=CLOSED_SHELL('',(#1658));
#1657=STYLED_ITEM('color',(#34),#1658);
#1658=ADVANCED_FACE('',(),#1659,.T.);
#1659=SPHERICAL_SURFACE('',#1660,0.1524);
#1660=AXIS2_PLACEMENT_3D('',#1661,#1662,#1663);
#1661=CARTESIAN_POINT('',(-1.3,-3.9,0.152));
#1662=DIRECTION('',(0.,0.,-1.));
#1663=DIRECTION('',(-1.,0.,0.));
#1664=MANIFOLD_SOLID_BREP($,#1665);
#1665=CLOSED_SHELL('',(#1667));
#1666=STYLED_ITEM('color',(#34),#1667);
#1667=ADVANCED_FACE('',(),#1668,.T.);
#1668=SPHERICAL_SURFACE('',#1669,0.1524);
#1669=AXIS2_PLACEMENT_3D('',#1670,#1671,#1672);
#1670=CARTESIAN_POINT('',(-0.65,-3.9,0.152));
#1671=DIRECTION('',(0.,0.,-1.));
#1672=DIRECTION('',(-1.,0.,0.));
#1673=MANIFOLD_SOLID_BREP($,#1674);
#1674=CLOSED_SHELL('',(#1676));
#1675=STYLED_ITEM('color',(#34),#1676);
#1676=ADVANCED_FACE('',(),#1677,.T.);
#1677=SPHERICAL_SURFACE('',#1678,0.1524);
#1678=AXIS2_PLACEMENT_3D('',#1679,#1680,#1681);
#1679=CARTESIAN_POINT('',(0.0,-3.9,0.152));
#1680=DIRECTION('',(0.,0.,-1.));
#1681=DIRECTION('',(-1.,0.,0.));
#1682=MANIFOLD_SOLID_BREP($,#1683);
#1683=CLOSED_SHELL('',(#1685));
#1684=STYLED_ITEM('color',(#34),#1685);
#1685=ADVANCED_FACE('',(),#1686,.T.);
#1686=SPHERICAL_SURFACE('',#1687,0.1524);
#1687=AXIS2_PLACEMENT_3D('',#1688,#1689,#1690);
#1688=CARTESIAN_POINT('',(0.65,-3.9,0.152));
#1689=DIRECTION('',(0.,0.,-1.));
#1690=DIRECTION('',(-1.,0.,0.));
#1691=MANIFOLD_SOLID_BREP($,#1692);
#1692=CLOSED_SHELL('',(#1694));
#1693=STYLED_ITEM('color',(#34),#1694);
#1694=ADVANCED_FACE('',(),#1695,.T.);
#1695=SPHERICAL_SURFACE('',#1696,0.1524);
#1696=AXIS2_PLACEMENT_3D('',#1697,#1698,#1699);
#1697=CARTESIAN_POINT('',(1.3,-3.9,0.152));
#1698=DIRECTION('',(0.,0.,-1.));
#1699=DIRECTION('',(-1.,0.,0.));
#1700=MANIFOLD_SOLID_BREP($,#1701);
#1701=CLOSED_SHELL('',(#1703));
#1702=STYLED_ITEM('color',(#34),#1703);
#1703=ADVANCED_FACE('',(),#1704,.T.);
#1704=SPHERICAL_SURFACE('',#1705,0.1524);
#1705=AXIS2_PLACEMENT_3D('',#1706,#1707,#1708);
#1706=CARTESIAN_POINT('',(1.95,-3.9,0.152));
#1707=DIRECTION('',(0.,0.,-1.));
#1708=DIRECTION('',(-1.,0.,0.));
#1709=MANIFOLD_SOLID_BREP($,#1710);
#1710=CLOSED_SHELL('',(#1712));
#1711=STYLED_ITEM('color',(#34),#1712);
#1712=ADVANCED_FACE('',(),#1713,.T.);
#1713=SPHERICAL_SURFACE('',#1714,0.1524);
#1714=AXIS2_PLACEMENT_3D('',#1715,#1716,#1717);
#1715=CARTESIAN_POINT('',(2.6,-3.9,0.152));
#1716=DIRECTION('',(0.,0.,-1.));
#1717=DIRECTION('',(-1.,0.,0.));
#1718=MANIFOLD_SOLID_BREP($,#1719);
#1719=CLOSED_SHELL('',(#1721));
#1720=STYLED_ITEM('color',(#34),#1721);
#1721=ADVANCED_FACE('',(),#1722,.T.);
#1722=SPHERICAL_SURFACE('',#1723,0.1524);
#1723=AXIS2_PLACEMENT_3D('',#1724,#1725,#1726);
#1724=CARTESIAN_POINT('',(3.25,-3.9,0.152));
#1725=DIRECTION('',(0.,0.,-1.));
#1726=DIRECTION('',(-1.,0.,0.));
#1727=MANIFOLD_SOLID_BREP($,#1728);
#1728=CLOSED_SHELL('',(#1730));
#1729=STYLED_ITEM('color',(#34),#1730);
#1730=ADVANCED_FACE('',(),#1731,.T.);
#1731=SPHERICAL_SURFACE('',#1732,0.1524);
#1732=AXIS2_PLACEMENT_3D('',#1733,#1734,#1735);
#1733=CARTESIAN_POINT('',(3.9,-3.9,0.152));
#1734=DIRECTION('',(0.,0.,-1.));
#1735=DIRECTION('',(-1.,0.,0.));
#1736=MANIFOLD_SOLID_BREP($,#1737);
#1737=CLOSED_SHELL('',(#1739));
#1738=STYLED_ITEM('color',(#34),#1739);
#1739=ADVANCED_FACE('',(),#1740,.T.);
#1740=SPHERICAL_SURFACE('',#1741,0.1524);
#1741=AXIS2_PLACEMENT_3D('',#1742,#1743,#1744);
#1742=CARTESIAN_POINT('',(4.55,-3.9,0.152));
#1743=DIRECTION('',(0.,0.,-1.));
#1744=DIRECTION('',(-1.,0.,0.));
#1745=MANIFOLD_SOLID_BREP($,#1746);
#1746=CLOSED_SHELL('',(#1748));
#1747=STYLED_ITEM('color',(#34),#1748);
#1748=ADVANCED_FACE('',(),#1749,.T.);
#1749=SPHERICAL_SURFACE('',#1750,0.1524);
#1750=AXIS2_PLACEMENT_3D('',#1751,#1752,#1753);
#1751=CARTESIAN_POINT('',(-4.55,-4.55,0.152));
#1752=DIRECTION('',(0.,0.,-1.));
#1753=DIRECTION('',(-1.,0.,0.));
#1754=MANIFOLD_SOLID_BREP($,#1755);
#1755=CLOSED_SHELL('',(#1757));
#1756=STYLED_ITEM('color',(#34),#1757);
#1757=ADVANCED_FACE('',(),#1758,.T.);
#1758=SPHERICAL_SURFACE('',#1759,0.1524);
#1759=AXIS2_PLACEMENT_3D('',#1760,#1761,#1762);
#1760=CARTESIAN_POINT('',(-3.9,-4.55,0.152));
#1761=DIRECTION('',(0.,0.,-1.));
#1762=DIRECTION('',(-1.,0.,0.));
#1763=MANIFOLD_SOLID_BREP($,#1764);
#1764=CLOSED_SHELL('',(#1766));
#1765=STYLED_ITEM('color',(#34),#1766);
#1766=ADVANCED_FACE('',(),#1767,.T.);
#1767=SPHERICAL_SURFACE('',#1768,0.1524);
#1768=AXIS2_PLACEMENT_3D('',#1769,#1770,#1771);
#1769=CARTESIAN_POINT('',(-3.25,-4.55,0.152));
#1770=DIRECTION('',(0.,0.,-1.));
#1771=DIRECTION('',(-1.,0.,0.));
#1772=MANIFOLD_SOLID_BREP($,#1773);
#1773=CLOSED_SHELL('',(#1775));
#1774=STYLED_ITEM('color',(#34),#1775);
#1775=ADVANCED_FACE('',(),#1776,.T.);
#1776=SPHERICAL_SURFACE('',#1777,0.1524);
#1777=AXIS2_PLACEMENT_3D('',#1778,#1779,#1780);
#1778=CARTESIAN_POINT('',(-2.6,-4.55,0.152));
#1779=DIRECTION('',(0.,0.,-1.));
#1780=DIRECTION('',(-1.,0.,0.));
#1781=MANIFOLD_SOLID_BREP($,#1782);
#1782=CLOSED_SHELL('',(#1784));
#1783=STYLED_ITEM('color',(#34),#1784);
#1784=ADVANCED_FACE('',(),#1785,.T.);
#1785=SPHERICAL_SURFACE('',#1786,0.1524);
#1786=AXIS2_PLACEMENT_3D('',#1787,#1788,#1789);
#1787=CARTESIAN_POINT('',(-1.95,-4.55,0.152));
#1788=DIRECTION('',(0.,0.,-1.));
#1789=DIRECTION('',(-1.,0.,0.));
#1790=MANIFOLD_SOLID_BREP($,#1791);
#1791=CLOSED_SHELL('',(#1793));
#1792=STYLED_ITEM('color',(#34),#1793);
#1793=ADVANCED_FACE('',(),#1794,.T.);
#1794=SPHERICAL_SURFACE('',#1795,0.1524);
#1795=AXIS2_PLACEMENT_3D('',#1796,#1797,#1798);
#1796=CARTESIAN_POINT('',(-1.3,-4.55,0.152));
#1797=DIRECTION('',(0.,0.,-1.));
#1798=DIRECTION('',(-1.,0.,0.));
#1799=MANIFOLD_SOLID_BREP($,#1800);
#1800=CLOSED_SHELL('',(#1802));
#1801=STYLED_ITEM('color',(#34),#1802);
#1802=ADVANCED_FACE('',(),#1803,.T.);
#1803=SPHERICAL_SURFACE('',#1804,0.1524);
#1804=AXIS2_PLACEMENT_3D('',#1805,#1806,#1807);
#1805=CARTESIAN_POINT('',(-0.65,-4.55,0.152));
#1806=DIRECTION('',(0.,0.,-1.));
#1807=DIRECTION('',(-1.,0.,0.));
#1808=MANIFOLD_SOLID_BREP($,#1809);
#1809=CLOSED_SHELL('',(#1811));
#1810=STYLED_ITEM('color',(#34),#1811);
#1811=ADVANCED_FACE('',(),#1812,.T.);
#1812=SPHERICAL_SURFACE('',#1813,0.1524);
#1813=AXIS2_PLACEMENT_3D('',#1814,#1815,#1816);
#1814=CARTESIAN_POINT('',(0.0,-4.55,0.152));
#1815=DIRECTION('',(0.,0.,-1.));
#1816=DIRECTION('',(-1.,0.,0.));
#1817=MANIFOLD_SOLID_BREP($,#1818);
#1818=CLOSED_SHELL('',(#1820));
#1819=STYLED_ITEM('color',(#34),#1820);
#1820=ADVANCED_FACE('',(),#1821,.T.);
#1821=SPHERICAL_SURFACE('',#1822,0.1524);
#1822=AXIS2_PLACEMENT_3D('',#1823,#1824,#1825);
#1823=CARTESIAN_POINT('',(0.65,-4.55,0.152));
#1824=DIRECTION('',(0.,0.,-1.));
#1825=DIRECTION('',(-1.,0.,0.));
#1826=MANIFOLD_SOLID_BREP($,#1827);
#1827=CLOSED_SHELL('',(#1829));
#1828=STYLED_ITEM('color',(#34),#1829);
#1829=ADVANCED_FACE('',(),#1830,.T.);
#1830=SPHERICAL_SURFACE('',#1831,0.1524);
#1831=AXIS2_PLACEMENT_3D('',#1832,#1833,#1834);
#1832=CARTESIAN_POINT('',(1.3,-4.55,0.152));
#1833=DIRECTION('',(0.,0.,-1.));
#1834=DIRECTION('',(-1.,0.,0.));
#1835=MANIFOLD_SOLID_BREP($,#1836);
#1836=CLOSED_SHELL('',(#1838));
#1837=STYLED_ITEM('color',(#34),#1838);
#1838=ADVANCED_FACE('',(),#1839,.T.);
#1839=SPHERICAL_SURFACE('',#1840,0.1524);
#1840=AXIS2_PLACEMENT_3D('',#1841,#1842,#1843);
#1841=CARTESIAN_POINT('',(1.95,-4.55,0.152));
#1842=DIRECTION('',(0.,0.,-1.));
#1843=DIRECTION('',(-1.,0.,0.));
#1844=MANIFOLD_SOLID_BREP($,#1845);
#1845=CLOSED_SHELL('',(#1847));
#1846=STYLED_ITEM('color',(#34),#1847);
#1847=ADVANCED_FACE('',(),#1848,.T.);
#1848=SPHERICAL_SURFACE('',#1849,0.1524);
#1849=AXIS2_PLACEMENT_3D('',#1850,#1851,#1852);
#1850=CARTESIAN_POINT('',(2.6,-4.55,0.152));
#1851=DIRECTION('',(0.,0.,-1.));
#1852=DIRECTION('',(-1.,0.,0.));
#1853=MANIFOLD_SOLID_BREP($,#1854);
#1854=CLOSED_SHELL('',(#1856));
#1855=STYLED_ITEM('color',(#34),#1856);
#1856=ADVANCED_FACE('',(),#1857,.T.);
#1857=SPHERICAL_SURFACE('',#1858,0.1524);
#1858=AXIS2_PLACEMENT_3D('',#1859,#1860,#1861);
#1859=CARTESIAN_POINT('',(3.25,-4.55,0.152));
#1860=DIRECTION('',(0.,0.,-1.));
#1861=DIRECTION('',(-1.,0.,0.));
#1862=MANIFOLD_SOLID_BREP($,#1863);
#1863=CLOSED_SHELL('',(#1865));
#1864=STYLED_ITEM('color',(#34),#1865);
#1865=ADVANCED_FACE('',(),#1866,.T.);
#1866=SPHERICAL_SURFACE('',#1867,0.1524);
#1867=AXIS2_PLACEMENT_3D('',#1868,#1869,#1870);
#1868=CARTESIAN_POINT('',(3.9,-4.55,0.152));
#1869=DIRECTION('',(0.,0.,-1.));
#1870=DIRECTION('',(-1.,0.,0.));
#1871=MANIFOLD_SOLID_BREP($,#1872);
#1872=CLOSED_SHELL('',(#1874));
#1873=STYLED_ITEM('color',(#34),#1874);
#1874=ADVANCED_FACE('',(),#1875,.T.);
#1875=SPHERICAL_SURFACE('',#1876,0.1524);
#1876=AXIS2_PLACEMENT_3D('',#1877,#1878,#1879);
#1877=CARTESIAN_POINT('',(4.55,-4.55,0.152));
#1878=DIRECTION('',(0.,0.,-1.));
#1879=DIRECTION('',(-1.,0.,0.));
#1881=MANIFOLD_SOLID_BREP($,#1882);
#1882=CLOSED_SHELL('',(#1883,#1884,#1885));
#1883=ADVANCED_FACE($,(#1889,#1888),#1906,.T.);
#1884=ADVANCED_FACE($,(#1890),#1886,.F.);
#1885=ADVANCED_FACE($,(#1891),#1887,.T.);
#1886=PLANE($,#1911);
#1887=PLANE($,#1912);
#1888=FACE_BOUND($,#1893,.T.);
#1889=FACE_OUTER_BOUND($,#1892,.T.);
#1890=FACE_OUTER_BOUND($,#1894,.T.);
#1891=FACE_OUTER_BOUND($,#1895,.T.);
#1892=EDGE_LOOP($,(#1902));
#1893=EDGE_LOOP($,(#1903));
#1894=EDGE_LOOP($,(#1904));
#1895=EDGE_LOOP($,(#1905));
#1896=CIRCLE($,#1909,0.254);
#1897=CIRCLE($,#1910,0.254);
#1898=VERTEX_POINT('',#1927);
#1899=VERTEX_POINT('',#1929);
#1900=EDGE_CURVE($,#1898,#1898,#1896,.T.);
#1901=EDGE_CURVE($,#1899,#1899,#1897,.T.);
#1902=ORIENTED_EDGE($,*,*,#1900,.F.);
#1903=ORIENTED_EDGE($,*,*,#1901,.F.);
#1904=ORIENTED_EDGE($,*,*,#1901,.T.);
#1905=ORIENTED_EDGE($,*,*,#1900,.T.);
#1906=CYLINDRICAL_SURFACE($,#1908,0.254);
#1907=AXIS2_PLACEMENT_3D('placement',#1925,#1913,#1914);
#1908=AXIS2_PLACEMENT_3D($,#1926,#1915,#1916);
#1909=AXIS2_PLACEMENT_3D($,#1928,#1917,#1918);
#1910=AXIS2_PLACEMENT_3D($,#1930,#1919,#1920);
#1911=AXIS2_PLACEMENT_3D($,#1931,#1921,#1922);
#1912=AXIS2_PLACEMENT_3D($,#1932,#1923,#1924);
#1913=DIRECTION('axis',(0.,1.,0.));
#1914=DIRECTION('refdir',(1.,0.,0.));
#1915=DIRECTION('',(0.,0.,1.));
#1916=DIRECTION('',(1.,0.,0.));
#1917=DIRECTION('',(0.,0.,1.));
#1918=DIRECTION('',(1.,0.,0.));
#1919=DIRECTION('',(0.,0.,-1.));
#1920=DIRECTION('',(1.,0.,0.));
#1921=DIRECTION('',(0.,0.,1.));
#1922=DIRECTION('',(0.,1.,0.));
#1923=DIRECTION('',(0.,0.,1.));
#1924=DIRECTION('',(0.,1.,0.));
#1925=CARTESIAN_POINT('',(0.,0.,0.));
#1926=CARTESIAN_POINT('',(-4.064,4.064,0.61));
#1927=CARTESIAN_POINT('',(-4.318,4.064,0.612));
#1928=CARTESIAN_POINT('',(-4.064,4.064,0.612));
#1929=CARTESIAN_POINT('',(-4.318,4.064,0.61));
#1930=CARTESIAN_POINT('',(-4.064,4.064,0.61));
#1931=CARTESIAN_POINT('',(-4.064,4.064,0.61));
#1932=CARTESIAN_POINT('',(-4.064,4.064,0.612));
#1933=STYLED_ITEM('color',(#52),#1883);
#1934=STYLED_ITEM('color',(#52),#1884);
#1935=STYLED_ITEM('color',(#52),#1885);
#1937=MANIFOLD_SOLID_BREP($,#1938);
#1938=CLOSED_SHELL('',(#1940,#1989,#2038,#2087,#2136,#2185));
#1939=STYLED_ITEM('',(#43),#1940);
#1940=ADVANCED_FACE('',(#1946),#1941,.T.);
#1941=PLANE('',#1942);
#1942=AXIS2_PLACEMENT_3D('',#1943,#1944,#1945);
#1943=CARTESIAN_POINT('',(-5.08,-5.08,0.304));
#1944=DIRECTION('',(0.0,-1.0,0.0));
#1945=DIRECTION('',(0.,0.,1.));
#1946=FACE_OUTER_BOUND('',#1947,.T.);
#1947=EDGE_LOOP('',(#1948,#1958,#1968,#1978));
#1951=CARTESIAN_POINT('',(5.08,-5.08,0.304));
#1950=VERTEX_POINT('',#1951);
#1953=CARTESIAN_POINT('',(-5.08,-5.08,0.304));
#1952=VERTEX_POINT('',#1953);
#1949=EDGE_CURVE('',#1950,#1952,#1954,.T.);
#1954=LINE('',#1951,#1956);
#1956=VECTOR('',#1957,10.16);
#1957=DIRECTION('',(-1.0,0.0,0.0));
#1948=ORIENTED_EDGE('',*,*,#1949,.F.);
#1961=CARTESIAN_POINT('',(5.08,-5.08,0.61));
#1960=VERTEX_POINT('',#1961);
#1959=EDGE_CURVE('',#1960,#1950,#1964,.T.);
#1964=LINE('',#1961,#1966);
#1966=VECTOR('',#1967,0.3058000000066);
#1967=DIRECTION('',(0.0,0.0,-1.0));
#1958=ORIENTED_EDGE('',*,*,#1959,.F.);
#1971=CARTESIAN_POINT('',(-5.08,-5.08,0.61));
#1970=VERTEX_POINT('',#1971);
#1969=EDGE_CURVE('',#1970,#1960,#1974,.T.);
#1974=LINE('',#1971,#1976);
#1976=VECTOR('',#1977,10.16);
#1977=DIRECTION('',(1.0,0.0,0.0));
#1968=ORIENTED_EDGE('',*,*,#1969,.F.);
#1979=EDGE_CURVE('',#1952,#1970,#1984,.T.);
#1984=LINE('',#1953,#1986);
#1986=VECTOR('',#1987,0.3058000000066);
#1987=DIRECTION('',(0.0,0.0,1.0));
#1978=ORIENTED_EDGE('',*,*,#1979,.F.);
#1988=STYLED_ITEM('',(#43),#1989);
#1989=ADVANCED_FACE('',(#1995),#1990,.T.);
#1990=PLANE('',#1991);
#1991=AXIS2_PLACEMENT_3D('',#1992,#1993,#1994);
#1992=CARTESIAN_POINT('',(5.08,-5.08,0.304));
#1993=DIRECTION('',(1.0,0.0,0.0));
#1994=DIRECTION('',(0.,0.,1.));
#1995=FACE_OUTER_BOUND('',#1996,.T.);
#1996=EDGE_LOOP('',(#1997,#2007,#2017,#2027));
#2000=CARTESIAN_POINT('',(5.08,5.08,0.304));
#1999=VERTEX_POINT('',#2000);
#1998=EDGE_CURVE('',#1999,#1950,#2003,.T.);
#2003=LINE('',#2000,#2005);
#2005=VECTOR('',#2006,10.16);
#2006=DIRECTION('',(0.0,-1.0,0.0));
#1997=ORIENTED_EDGE('',*,*,#1998,.F.);
#2010=CARTESIAN_POINT('',(5.08,5.08,0.61));
#2009=VERTEX_POINT('',#2010);
#2008=EDGE_CURVE('',#2009,#1999,#2013,.T.);
#2013=LINE('',#2010,#2015);
#2015=VECTOR('',#2016,0.3058000000066);
#2016=DIRECTION('',(0.0,0.0,-1.0));
#2007=ORIENTED_EDGE('',*,*,#2008,.F.);
#2018=EDGE_CURVE('',#1960,#2009,#2023,.T.);
#2023=LINE('',#1961,#2025);
#2025=VECTOR('',#2026,10.16);
#2026=DIRECTION('',(0.0,1.0,0.0));
#2017=ORIENTED_EDGE('',*,*,#2018,.F.);
#2027=ORIENTED_EDGE('',*,*,#1959,.T.);
#2037=STYLED_ITEM('',(#43),#2038);
#2038=ADVANCED_FACE('',(#2044),#2039,.T.);
#2039=PLANE('',#2040);
#2040=AXIS2_PLACEMENT_3D('',#2041,#2042,#2043);
#2041=CARTESIAN_POINT('',(5.08,5.08,0.304));
#2042=DIRECTION('',(0.0,1.0,0.0));
#2043=DIRECTION('',(0.,0.,1.));
#2044=FACE_OUTER_BOUND('',#2045,.T.);
#2045=EDGE_LOOP('',(#2046,#2056,#2066,#2076));
#2049=CARTESIAN_POINT('',(-5.08,5.08,0.304));
#2048=VERTEX_POINT('',#2049);
#2047=EDGE_CURVE('',#2048,#1999,#2052,.T.);
#2052=LINE('',#2049,#2054);
#2054=VECTOR('',#2055,10.16);
#2055=DIRECTION('',(1.0,0.0,0.0));
#2046=ORIENTED_EDGE('',*,*,#2047,.F.);
#2059=CARTESIAN_POINT('',(-5.08,5.08,0.61));
#2058=VERTEX_POINT('',#2059);
#2057=EDGE_CURVE('',#2058,#2048,#2062,.T.);
#2062=LINE('',#2059,#2064);
#2064=VECTOR('',#2065,0.3058000000066);
#2065=DIRECTION('',(0.0,0.0,-1.0));
#2056=ORIENTED_EDGE('',*,*,#2057,.F.);
#2067=EDGE_CURVE('',#2009,#2058,#2072,.T.);
#2072=LINE('',#2010,#2074);
#2074=VECTOR('',#2075,10.16);
#2075=DIRECTION('',(-1.0,0.0,0.0));
#2066=ORIENTED_EDGE('',*,*,#2067,.F.);
#2076=ORIENTED_EDGE('',*,*,#2008,.T.);
#2086=STYLED_ITEM('',(#43),#2087);
#2087=ADVANCED_FACE('',(#2093),#2088,.T.);
#2088=PLANE('',#2089);
#2089=AXIS2_PLACEMENT_3D('',#2090,#2091,#2092);
#2090=CARTESIAN_POINT('',(-5.08,5.08,0.304));
#2091=DIRECTION('',(-1.0,0.0,0.0));
#2092=DIRECTION('',(0.,0.,1.));
#2093=FACE_OUTER_BOUND('',#2094,.T.);
#2094=EDGE_LOOP('',(#2095,#2105,#2115,#2125));
#2096=EDGE_CURVE('',#1952,#2048,#2101,.T.);
#2101=LINE('',#1953,#2103);
#2103=VECTOR('',#2104,10.16);
#2104=DIRECTION('',(0.0,1.0,0.0));
#2095=ORIENTED_EDGE('',*,*,#2096,.F.);
#2105=ORIENTED_EDGE('',*,*,#1979,.T.);
#2116=EDGE_CURVE('',#2058,#1970,#2121,.T.);
#2121=LINE('',#2059,#2123);
#2123=VECTOR('',#2124,10.16);
#2124=DIRECTION('',(0.0,-1.0,0.0));
#2115=ORIENTED_EDGE('',*,*,#2116,.F.);
#2125=ORIENTED_EDGE('',*,*,#2057,.T.);
#2135=STYLED_ITEM('',(#43),#2136);
#2136=ADVANCED_FACE('',(#2142),#2137,.T.);
#2137=PLANE('',#2138);
#2138=AXIS2_PLACEMENT_3D('',#2139,#2140,#2141);
#2139=CARTESIAN_POINT('',(-5.08,5.08,0.304));
#2140=DIRECTION('',(0.0,0.0,-1.0));
#2141=DIRECTION('',(0.,1.,0.));
#2142=FACE_OUTER_BOUND('',#2143,.T.);
#2143=EDGE_LOOP('',(#2144,#2154,#2164,#2174));
#2144=ORIENTED_EDGE('',*,*,#2047,.T.);
#2154=ORIENTED_EDGE('',*,*,#1998,.T.);
#2164=ORIENTED_EDGE('',*,*,#1949,.T.);
#2174=ORIENTED_EDGE('',*,*,#2096,.T.);
#2184=STYLED_ITEM('',(#43),#2185);
#2185=ADVANCED_FACE('',(#2191),#2186,.T.);
#2186=PLANE('',#2187);
#2187=AXIS2_PLACEMENT_3D('',#2188,#2189,#2190);
#2188=CARTESIAN_POINT('',(-5.08,-5.08,0.61));
#2189=DIRECTION('',(0.0,0.0,1.0));
#2190=DIRECTION('',(0.,1.,0.));
#2191=FACE_OUTER_BOUND('',#2192,.T.);
#2192=EDGE_LOOP('',(#2193,#2203,#2213,#2223));
#2193=ORIENTED_EDGE('',*,*,#1969,.T.);
#2203=ORIENTED_EDGE('',*,*,#2018,.T.);
#2213=ORIENTED_EDGE('',*,*,#2067,.T.);
#2223=ORIENTED_EDGE('',*,*,#2116,.T.);
ENDSEC;
END-ISO-10303-21;
