"Id";"Designator";"Footprint";"Quantity";"Designation";"Supplier and ref";
1;"C1,C29,C15,C18,C43,C44,C54,C56,C58,C33,C8,C4,C6,C10,C21,C23,C24,C25,C26,C31,C32,C34,C35,C36,C37,C38,C39,C22,C30,C20,C28,C53,C55,C57,C27,C59,C60,C2";"C_0402_1005Metric";38;"0.1uF";;;

3;"R5,R15,R16,R49,R20,R31,R6,R48,R13,R17,R18,R14,R21,R19";"R_0402_1005Metric";14;"10k";;;
4;"U1,U2";"MSOP-8_3x3mm_P0.65mm";2;"LTC4307CMS8";;;
5;"C3,C19,C50";"C_0805_2012Metric";3;"47uF";;;
6;"C5,C7,C11,C48,C49,C52,C63";"C_0603_1608Metric";7;"2.2uF";;;
7;"FB1,FB2,FB3";"L_0603_1608Metric";3;"220 ohm @ 100MHz";;;
8;"U9,U7,U5,U10,U6,U8";"QFN-28-1EP_6x6mm_P0.65mm_EP4.25x4.25mm_HatchedDAP3x3";6;"MCP23S17_ML";;;
9;"C13,C14,C16,C17,C9,C12";"C_0402_1005Metric";6;"9pF";;;
10;"Y2";"Crystal_SMD_2012-2Pin_2.0x1.2mm";1;"32.768kHz";;;
11;"U4";"STM32H7_TFBGA240_NSMD-300-400";1;"STM32H755XIH6";;;
12;"Y3,Y1";"Crystal_SMD_2016-4Pin_2.0x1.6mm";2;"25MHz";;;
13;"C45,C51";"C_0402_1005Metric";2;"1uF";;;
14;"C62,C42,C47,C46,C41";"C_0603_1608Metric";5;"10uF";;;
15;"L1";"L_1008_2520Metric";1;"2.2uH";;;
16;"R41,R45,R43,R42,R44,R46";"R_0402_1005Metric";6;"100";;;
17;"D3,D2";"D_0603_1608Metric";2;"CCS15S30,L3F";;;




22;"U11";"LFCSP-8-1EP_3x3mm_for_ADM7172";1;"ADM717xACPZ-3.3-R7";;;
23;"U12";"W25Q01JVZEIM_WSON-8-1EP_8x6mm_P1.27mm_EP3.45x4.45mm";1;"W25N01GVZEIG";;;
24;"SW1,SW2";"SW_SPST_B3U-1000P";2;"SW_Push";;;



28;"U3";"QFN-32-1EP_5x5mm_P0.5mm_EP3.1x3.1mm_ThermalVias_Tented_SpreadOut";1;"KSZ8091MNX";;;
29;"D1";"LED_0603_1608Metric";1;"RED";;;
30;"R7,R9,R8";"R_0402_1005Metric";3;"1k";;;

32;"R11";"R_0402_1005Metric";1;"6.49k";;;
33;"R12";"R_0402_1005Metric";1;"220";;;
34;"C40";"C_0402_1005Metric";1;"220pF";;;
35;"U13";"SOT-666";1;"USBLC6-2P6";;;
36;"C61";"C_0402_1005Metric";1;"1nF";;;
37;"R30";"R_0402_1005Metric";1;"330";;;
38;"U14";"TPS2115ADRB";1;"TPS2115ADRBR";;;
39;"R39,R32,R34";"R_0402_1005Metric";3;"0";;;
40;"J2";"USB_Micro-B_Molex_47346-0001";1;"USB_B_Micro";;;
41;"R47";"R_0402_1005Metric";1;"4.7k";;;
