%TF.GenerationSoftware,KiCad,Pcbnew,7.0.11-7.0.11~ubuntu22.04.1*%
%TF.CreationDate,2025-01-13T10:39:29+01:00*%
%TF.ProjectId,openipmc-hw,6f70656e-6970-46d6-932d-68772e6b6963,1.2*%
%TF.SameCoordinates,PX96ae380PY41b54a0*%
%TF.FileFunction,NonPlated,1,8,NPTH*%
%TF.FilePolarity,Positive*%
%FSLAX46Y46*%
G04 Gerber Fmt 4.6, Leading zero omitted, Abs format (unit mm)*
G04 Created by KiCad (PCBNEW 7.0.11-7.0.11~ubuntu22.04.1) date 2025-01-13 10:39:29*
%MOMM*%
%LPD*%
G01*
G04 APERTURE LIST*
G04 APERTURE END LIST*
M02*
