%TF.GenerationSoftware,KiCad,Pcbnew,7.0.11-7.0.11~ubuntu22.04.1*%
%TF.CreationDate,2025-01-13T10:39:24+01:00*%
%TF.ProjectId,openipmc-hw,6f70656e-6970-46d6-932d-68772e6b6963,1.2*%
%TF.SameCoordinates,PX96ae380PY41b54a0*%
%TF.FileFunction,Drillmap*%
%TF.FilePolarity,Positive*%
%FSLAX45Y45*%
G04 Gerber Fmt 4.5, Leading zero omitted, Abs format (unit mm)*
G04 Created by KiCad (PCBNEW 7.0.11-7.0.11~ubuntu22.04.1) date 2025-01-13 10:39:24*
%MOMM*%
%LPD*%
G01*
G04 APERTURE LIST*
%ADD10C,0.150000*%
%ADD11C,0.200000*%
%ADD12C,0.100000*%
G04 APERTURE END LIST*
D10*
X0Y-730000D02*
X100000Y-730000D01*
X100000Y-930000D02*
X0Y-930000D01*
X0Y-930000D02*
X0Y-1730000D01*
X100000Y-1830000D02*
X4340000Y-1830000D01*
X4340000Y-1830000D02*
X4340000Y-1500000D01*
X4440000Y-1500000D02*
X4440000Y-1830000D01*
X4440000Y-1830000D02*
X8100000Y-1830000D01*
X8200000Y-1730000D02*
X8200000Y-930000D01*
X8200000Y-930000D02*
X8100000Y-930000D01*
X8100000Y-730000D02*
X8200000Y-730000D01*
X8200000Y-730000D02*
X8200000Y0D01*
X8100000Y-730000D02*
G75*
G03*
X8100000Y-930000I0J-100000D01*
G01*
X100000Y-930000D02*
G75*
G03*
X100000Y-730000I0J100000D01*
G01*
X4440000Y-1500000D02*
G75*
G03*
X4340000Y-1500000I-50000J0D01*
G01*
X8060000Y0D02*
X8200000Y0D01*
X7990000Y-70000D02*
X8060000Y0D01*
X7450000Y-70000D02*
X7990000Y-70000D01*
X7450000Y-70000D02*
X7380000Y0D01*
X7380000Y0D02*
X0Y0D01*
X0Y0D02*
X0Y-730000D01*
X100000Y-1830000D02*
X0Y-1730000D01*
X8100000Y-1830000D02*
X8200000Y-1730000D01*
D11*
D12*
X80000Y-185000D02*
X100000Y-205000D01*
X100000Y-185000D02*
X80000Y-205000D01*
X80000Y-265000D02*
X100000Y-285000D01*
X100000Y-265000D02*
X80000Y-285000D01*
X80000Y-345000D02*
X100000Y-365000D01*
X100000Y-345000D02*
X80000Y-365000D01*
X90000Y-505000D02*
X110000Y-525000D01*
X110000Y-505000D02*
X90000Y-525000D01*
X120000Y-585000D02*
X140000Y-605000D01*
X140000Y-585000D02*
X120000Y-605000D01*
X125000Y-105000D02*
X145000Y-125000D01*
X145000Y-105000D02*
X125000Y-125000D01*
X125000Y-425000D02*
X145000Y-445000D01*
X145000Y-425000D02*
X125000Y-445000D01*
X165000Y-45000D02*
X185000Y-65000D01*
X185000Y-45000D02*
X165000Y-65000D01*
X215000Y-1145000D02*
X235000Y-1165000D01*
X235000Y-1145000D02*
X215000Y-1165000D01*
X235000Y-665000D02*
X255000Y-685000D01*
X255000Y-665000D02*
X235000Y-685000D01*
X250000Y-260000D02*
X270000Y-280000D01*
X270000Y-260000D02*
X250000Y-280000D01*
X267500Y-375000D02*
X287500Y-395000D01*
X287500Y-375000D02*
X267500Y-395000D01*
X290000Y-700000D02*
X310000Y-720000D01*
X310000Y-700000D02*
X290000Y-720000D01*
X290000Y-819999D02*
X310000Y-839999D01*
X310000Y-819999D02*
X290000Y-839999D01*
X310000Y-130000D02*
X330000Y-150000D01*
X330000Y-130000D02*
X310000Y-150000D01*
X310000Y-1500000D02*
X330000Y-1520000D01*
X330000Y-1500000D02*
X310000Y-1520000D01*
X373000Y-547000D02*
X393000Y-567000D01*
X393000Y-547000D02*
X373000Y-567000D01*
X408858Y-607172D02*
X428858Y-627172D01*
X428858Y-607172D02*
X408858Y-627172D01*
X410000Y-420000D02*
X430000Y-440000D01*
X430000Y-420000D02*
X410000Y-440000D01*
X470000Y-72500D02*
X490000Y-92500D01*
X490000Y-72500D02*
X470000Y-92500D01*
X506571Y-465863D02*
X526571Y-485863D01*
X526571Y-465863D02*
X506571Y-485863D01*
X519000Y-548000D02*
X539000Y-568000D01*
X539000Y-548000D02*
X519000Y-568000D01*
X520000Y-1100000D02*
X540000Y-1120000D01*
X540000Y-1100000D02*
X520000Y-1120000D01*
X520000Y-1200000D02*
X540000Y-1220000D01*
X540000Y-1200000D02*
X520000Y-1220000D01*
X563569Y-400000D02*
X583569Y-420000D01*
X583569Y-400000D02*
X563569Y-420000D01*
X590000Y-72500D02*
X610000Y-92500D01*
X610000Y-72500D02*
X590000Y-92500D01*
X590000Y-170000D02*
X610000Y-190000D01*
X610000Y-170000D02*
X590000Y-190000D01*
X590000Y-267500D02*
X610000Y-287500D01*
X610000Y-267500D02*
X590000Y-287500D01*
X640000Y-401344D02*
X660000Y-421344D01*
X660000Y-401344D02*
X640000Y-421344D01*
X719000Y-754000D02*
X739000Y-774000D01*
X739000Y-754000D02*
X719000Y-774000D01*
X719000Y-896000D02*
X739000Y-916000D01*
X739000Y-896000D02*
X719000Y-916000D01*
X750000Y-80000D02*
X770000Y-100000D01*
X770000Y-80000D02*
X750000Y-100000D01*
X750000Y-180000D02*
X770000Y-200000D01*
X770000Y-180000D02*
X750000Y-200000D01*
X750000Y-270000D02*
X770000Y-290000D01*
X770000Y-270000D02*
X750000Y-290000D01*
X794773Y-433339D02*
X814773Y-453339D01*
X814773Y-433339D02*
X794773Y-453339D01*
X809189Y-269189D02*
X829189Y-289189D01*
X829189Y-269189D02*
X809189Y-289189D01*
X810000Y-80000D02*
X830000Y-100000D01*
X830000Y-80000D02*
X810000Y-100000D01*
X810000Y-180000D02*
X830000Y-200000D01*
X830000Y-180000D02*
X810000Y-200000D01*
X861000Y-754000D02*
X881000Y-774000D01*
X881000Y-754000D02*
X861000Y-774000D01*
X861000Y-896000D02*
X881000Y-916000D01*
X881000Y-896000D02*
X861000Y-916000D01*
X870000Y-80000D02*
X890000Y-100000D01*
X890000Y-80000D02*
X870000Y-100000D01*
X870000Y-180000D02*
X890000Y-200000D01*
X890000Y-180000D02*
X870000Y-200000D01*
X870000Y-269189D02*
X890000Y-289189D01*
X890000Y-269189D02*
X870000Y-289189D01*
X889582Y-404901D02*
X909582Y-424901D01*
X909582Y-404901D02*
X889582Y-424901D01*
X910001Y-320000D02*
X930001Y-340000D01*
X930001Y-320000D02*
X910001Y-340000D01*
X968000Y-293000D02*
X988000Y-313000D01*
X988000Y-293000D02*
X968000Y-313000D01*
X970000Y-70000D02*
X990000Y-90000D01*
X990000Y-70000D02*
X970000Y-90000D01*
X970000Y-150000D02*
X990000Y-170000D01*
X990000Y-150000D02*
X970000Y-170000D01*
X970000Y-1500000D02*
X990000Y-1520000D01*
X990000Y-1500000D02*
X970000Y-1520000D01*
X1049124Y-338125D02*
X1069124Y-358125D01*
X1069124Y-338125D02*
X1049124Y-358125D01*
X1093576Y-505100D02*
X1113576Y-525100D01*
X1113576Y-505100D02*
X1093576Y-525100D01*
X1105000Y-45000D02*
X1125000Y-65000D01*
X1125000Y-45000D02*
X1105000Y-65000D01*
X1130615Y-296853D02*
X1150615Y-316853D01*
X1150615Y-296853D02*
X1130615Y-316853D01*
X1166273Y-391400D02*
X1186273Y-411400D01*
X1186273Y-391400D02*
X1166273Y-411400D01*
X1207443Y-589951D02*
X1227443Y-609951D01*
X1227443Y-589951D02*
X1207443Y-609951D01*
X1275000Y-180000D02*
X1295000Y-200000D01*
X1295000Y-180000D02*
X1275000Y-200000D01*
X1290000Y-330000D02*
X1310000Y-350000D01*
X1310000Y-330000D02*
X1290000Y-350000D01*
X1290000Y-750000D02*
X1310000Y-770000D01*
X1310000Y-750000D02*
X1290000Y-770000D01*
X1294000Y-477699D02*
X1314000Y-497699D01*
X1314000Y-477699D02*
X1294000Y-497699D01*
X1295904Y-654131D02*
X1315904Y-674131D01*
X1315904Y-654131D02*
X1295904Y-674131D01*
X1330000Y-110000D02*
X1350000Y-130000D01*
X1350000Y-110000D02*
X1330000Y-130000D01*
X1330000Y-180000D02*
X1350000Y-200000D01*
X1350000Y-180000D02*
X1330000Y-200000D01*
X1330000Y-250000D02*
X1350000Y-270000D01*
X1350000Y-250000D02*
X1330000Y-270000D01*
X1340000Y-700000D02*
X1360000Y-720000D01*
X1360000Y-700000D02*
X1340000Y-720000D01*
X1340000Y-800000D02*
X1360000Y-820000D01*
X1360000Y-800000D02*
X1340000Y-820000D01*
X1370000Y-330000D02*
X1390000Y-350000D01*
X1390000Y-330000D02*
X1370000Y-350000D01*
X1385000Y-180000D02*
X1405000Y-200000D01*
X1405000Y-180000D02*
X1385000Y-200000D01*
X1392000Y-395499D02*
X1412000Y-415499D01*
X1412000Y-395499D02*
X1392000Y-415499D01*
X1420000Y-580000D02*
X1440000Y-600000D01*
X1440000Y-580000D02*
X1420000Y-600000D01*
X1470000Y-52501D02*
X1490000Y-72501D01*
X1490000Y-52501D02*
X1470000Y-72501D01*
X1512123Y-526964D02*
X1532123Y-546964D01*
X1532123Y-526964D02*
X1512123Y-546964D01*
X1522000Y-326000D02*
X1542000Y-346000D01*
X1542000Y-326000D02*
X1522000Y-346000D01*
X1530000Y-1230000D02*
X1550000Y-1250000D01*
X1550000Y-1230000D02*
X1530000Y-1250000D01*
X1541000Y-60000D02*
X1561000Y-80000D01*
X1561000Y-60000D02*
X1541000Y-80000D01*
X1630000Y-1500000D02*
X1650000Y-1520000D01*
X1650000Y-1500000D02*
X1630000Y-1520000D01*
X1648671Y-348000D02*
X1668671Y-368000D01*
X1668671Y-348000D02*
X1648671Y-368000D01*
X1675000Y-59000D02*
X1695000Y-79000D01*
X1695000Y-59000D02*
X1675000Y-79000D01*
X1764000Y-754000D02*
X1784000Y-774000D01*
X1784000Y-754000D02*
X1764000Y-774000D01*
X1764000Y-896000D02*
X1784000Y-916000D01*
X1784000Y-896000D02*
X1764000Y-916000D01*
X1830000Y-439996D02*
X1850000Y-459996D01*
X1850000Y-439996D02*
X1830000Y-459996D01*
X1906000Y-754000D02*
X1926000Y-774000D01*
X1926000Y-754000D02*
X1906000Y-774000D01*
X1906000Y-896000D02*
X1926000Y-916000D01*
X1926000Y-896000D02*
X1906000Y-916000D01*
X1951300Y-407600D02*
X1971300Y-427600D01*
X1971300Y-407600D02*
X1951300Y-427600D01*
X1999691Y-335728D02*
X2019691Y-355728D01*
X2019691Y-335728D02*
X1999691Y-355728D01*
X2110000Y-1200000D02*
X2130000Y-1220000D01*
X2130000Y-1200000D02*
X2110000Y-1220000D01*
X2140917Y-489852D02*
X2160917Y-509852D01*
X2160917Y-489852D02*
X2140917Y-509852D01*
X2222600Y-375050D02*
X2242600Y-395050D01*
X2242600Y-375050D02*
X2222600Y-395050D01*
X2238000Y-61000D02*
X2258000Y-81000D01*
X2258000Y-61000D02*
X2238000Y-81000D01*
X2284983Y-1405017D02*
X2304983Y-1425017D01*
X2304983Y-1405017D02*
X2284983Y-1425017D01*
X2290000Y-1500000D02*
X2310000Y-1520000D01*
X2310000Y-1500000D02*
X2290000Y-1520000D01*
X2342451Y-750000D02*
X2362451Y-770000D01*
X2362451Y-750000D02*
X2342451Y-770000D01*
X2351076Y-658959D02*
X2371076Y-678959D01*
X2371076Y-658959D02*
X2351076Y-678959D01*
X2385000Y-800002D02*
X2405000Y-820002D01*
X2405000Y-800002D02*
X2385000Y-820002D01*
X2390000Y-600000D02*
X2410000Y-620000D01*
X2410000Y-600000D02*
X2390000Y-620000D01*
X2390000Y-700000D02*
X2410000Y-720000D01*
X2410000Y-700000D02*
X2390000Y-720000D01*
X2390000Y-480000D02*
X2410000Y-500000D01*
X2410000Y-480000D02*
X2390000Y-500000D01*
X2412000Y-292568D02*
X2432000Y-312568D01*
X2432000Y-292568D02*
X2412000Y-312568D01*
X2501995Y-292333D02*
X2521995Y-312333D01*
X2521995Y-292333D02*
X2501995Y-312333D01*
X2591308Y-482516D02*
X2611308Y-502516D01*
X2611308Y-482516D02*
X2591308Y-502516D01*
X2608000Y-1157549D02*
X2628000Y-1177549D01*
X2628000Y-1157549D02*
X2608000Y-1177549D01*
X2652836Y-130000D02*
X2672836Y-150000D01*
X2672836Y-130000D02*
X2652836Y-150000D01*
X2654000Y-64000D02*
X2674000Y-84000D01*
X2674000Y-64000D02*
X2654000Y-84000D01*
X2655000Y-193000D02*
X2675000Y-213000D01*
X2675000Y-193000D02*
X2655000Y-213000D01*
X2655432Y-252699D02*
X2675432Y-272699D01*
X2675432Y-252699D02*
X2655432Y-272699D01*
X2670000Y-337549D02*
X2690000Y-357549D01*
X2690000Y-337549D02*
X2670000Y-357549D01*
X2727400Y-380000D02*
X2747400Y-400000D01*
X2747400Y-380000D02*
X2727400Y-400000D01*
X2809000Y-754000D02*
X2829000Y-774000D01*
X2829000Y-754000D02*
X2809000Y-774000D01*
X2809000Y-896000D02*
X2829000Y-916000D01*
X2829000Y-896000D02*
X2809000Y-916000D01*
X2852979Y-455508D02*
X2872979Y-475508D01*
X2872979Y-455508D02*
X2852979Y-475508D01*
X2945061Y-1422451D02*
X2965061Y-1442451D01*
X2965061Y-1422451D02*
X2945061Y-1442451D01*
X2950000Y-1500000D02*
X2970000Y-1520000D01*
X2970000Y-1500000D02*
X2950000Y-1520000D01*
X2951000Y-754000D02*
X2971000Y-774000D01*
X2971000Y-754000D02*
X2951000Y-774000D01*
X2951000Y-896000D02*
X2971000Y-916000D01*
X2971000Y-896000D02*
X2951000Y-916000D01*
X2998000Y-259000D02*
X3018000Y-279000D01*
X3018000Y-259000D02*
X2998000Y-279000D01*
X3000000Y-1290000D02*
X3020000Y-1310000D01*
X3020000Y-1290000D02*
X3000000Y-1310000D01*
X3026979Y-385388D02*
X3046979Y-405388D01*
X3046979Y-385388D02*
X3026979Y-405388D01*
X3030440Y-118926D02*
X3050440Y-138926D01*
X3050440Y-118926D02*
X3030440Y-138926D01*
X3043109Y-62891D02*
X3063109Y-82891D01*
X3063109Y-62891D02*
X3043109Y-82891D01*
X3059371Y-178600D02*
X3079371Y-198600D01*
X3079371Y-178600D02*
X3059371Y-198600D01*
X3079704Y-1337549D02*
X3099704Y-1357549D01*
X3099704Y-1337549D02*
X3079704Y-1357549D01*
X3089999Y-1422451D02*
X3109999Y-1442451D01*
X3109999Y-1422451D02*
X3089999Y-1442451D01*
X3090018Y-1500017D02*
X3110018Y-1520017D01*
X3110018Y-1500017D02*
X3090018Y-1520017D01*
X3092084Y-312620D02*
X3112084Y-332620D01*
X3112084Y-312620D02*
X3092084Y-332620D01*
X3155000Y-1100000D02*
X3175000Y-1120000D01*
X3175000Y-1100000D02*
X3155000Y-1120000D01*
X3175945Y-472841D02*
X3195945Y-492841D01*
X3195945Y-472841D02*
X3175945Y-492841D01*
X3180000Y-1175000D02*
X3200000Y-1195000D01*
X3200000Y-1175000D02*
X3180000Y-1195000D01*
X3269704Y-502451D02*
X3289704Y-522451D01*
X3289704Y-502451D02*
X3269704Y-522451D01*
X3292450Y-1402662D02*
X3312450Y-1422662D01*
X3312450Y-1402662D02*
X3292450Y-1422662D01*
X3308530Y-371422D02*
X3328530Y-391422D01*
X3328530Y-371422D02*
X3308530Y-391422D01*
X3392500Y-247500D02*
X3412500Y-267500D01*
X3412500Y-247500D02*
X3392500Y-267500D01*
X3393970Y-146187D02*
X3413970Y-166187D01*
X3413970Y-146187D02*
X3393970Y-166187D01*
X3395017Y-769983D02*
X3415017Y-789983D01*
X3415017Y-769983D02*
X3395017Y-789983D01*
X3400000Y-675000D02*
X3420000Y-695000D01*
X3420000Y-675000D02*
X3400000Y-695000D01*
X3409000Y-448000D02*
X3429000Y-468000D01*
X3429000Y-448000D02*
X3409000Y-468000D01*
X3469927Y-1400038D02*
X3489927Y-1420038D01*
X3489927Y-1400038D02*
X3469927Y-1420038D01*
X3469982Y-1290017D02*
X3489982Y-1310017D01*
X3489982Y-1290017D02*
X3469982Y-1310017D01*
X3490000Y-100000D02*
X3510000Y-120000D01*
X3510000Y-100000D02*
X3490000Y-120000D01*
X3490000Y-260000D02*
X3510000Y-280000D01*
X3510000Y-260000D02*
X3490000Y-280000D01*
X3520000Y-810000D02*
X3540000Y-830000D01*
X3540000Y-810000D02*
X3520000Y-830000D01*
X3556562Y-1377549D02*
X3576562Y-1397549D01*
X3576562Y-1377549D02*
X3556562Y-1397549D01*
X3562872Y-732501D02*
X3582872Y-752501D01*
X3582872Y-732501D02*
X3562872Y-752501D01*
X3565000Y-450000D02*
X3585000Y-470000D01*
X3585000Y-450000D02*
X3565000Y-470000D01*
X3565000Y-599220D02*
X3585000Y-619220D01*
X3585000Y-599220D02*
X3565000Y-619220D01*
X3565000Y-875000D02*
X3585000Y-895000D01*
X3585000Y-875000D02*
X3565000Y-895000D01*
X3584000Y-100000D02*
X3604000Y-120000D01*
X3604000Y-100000D02*
X3584000Y-120000D01*
X3610000Y-1462451D02*
X3630000Y-1482451D01*
X3630000Y-1462451D02*
X3610000Y-1482451D01*
X3610017Y-1249983D02*
X3630017Y-1269983D01*
X3630017Y-1249983D02*
X3610017Y-1269983D01*
X3652550Y-100000D02*
X3672550Y-120000D01*
X3672550Y-100000D02*
X3652550Y-120000D01*
X3669340Y-1299341D02*
X3689340Y-1319341D01*
X3689340Y-1299341D02*
X3669340Y-1319341D01*
X3700000Y-1200000D02*
X3720000Y-1220000D01*
X3720000Y-1200000D02*
X3700000Y-1220000D01*
X3710000Y-100000D02*
X3730000Y-120000D01*
X3730000Y-100000D02*
X3710000Y-120000D01*
X3730000Y-1340000D02*
X3750000Y-1360000D01*
X3750000Y-1340000D02*
X3730000Y-1360000D01*
X3765000Y-450000D02*
X3785000Y-470000D01*
X3785000Y-450000D02*
X3765000Y-470000D01*
X3770000Y-1197550D02*
X3790000Y-1217550D01*
X3790000Y-1197550D02*
X3770000Y-1217550D01*
X3790000Y-1462451D02*
X3810000Y-1482451D01*
X3810000Y-1462451D02*
X3790000Y-1482451D01*
X3850000Y-1377549D02*
X3870000Y-1397549D01*
X3870000Y-1377549D02*
X3850000Y-1397549D01*
X3850000Y-1462451D02*
X3870000Y-1482451D01*
X3870000Y-1462451D02*
X3850000Y-1482451D01*
X3860141Y-93550D02*
X3880141Y-113550D01*
X3880141Y-93550D02*
X3860141Y-113550D01*
X3912950Y-697571D02*
X3932950Y-717571D01*
X3932950Y-697571D02*
X3912950Y-717571D01*
X3920000Y-875000D02*
X3940000Y-895000D01*
X3940000Y-875000D02*
X3920000Y-895000D01*
X3930000Y-260000D02*
X3950000Y-280000D01*
X3950000Y-260000D02*
X3930000Y-280000D01*
X3970000Y-1360000D02*
X3990000Y-1380000D01*
X3990000Y-1360000D02*
X3970000Y-1380000D01*
X3989869Y-1227698D02*
X4009869Y-1247698D01*
X4009869Y-1227698D02*
X3989869Y-1247698D01*
X4010000Y-880000D02*
X4030000Y-900000D01*
X4030000Y-880000D02*
X4010000Y-900000D01*
X4024908Y-1474943D02*
X4044908Y-1494943D01*
X4044908Y-1474943D02*
X4024908Y-1494943D01*
X4040000Y-950000D02*
X4060000Y-970000D01*
X4060000Y-950000D02*
X4040000Y-970000D01*
X4047385Y-1360000D02*
X4067385Y-1380000D01*
X4067385Y-1360000D02*
X4047385Y-1380000D01*
X4065000Y-225000D02*
X4085000Y-245000D01*
X4085000Y-225000D02*
X4065000Y-245000D01*
X4077000Y-1238000D02*
X4097000Y-1258000D01*
X4097000Y-1238000D02*
X4077000Y-1258000D01*
X4134252Y-1312540D02*
X4154252Y-1332540D01*
X4154252Y-1312540D02*
X4134252Y-1332540D01*
X4137415Y-1472451D02*
X4157415Y-1492451D01*
X4157415Y-1472451D02*
X4137415Y-1492451D01*
X4140000Y-1012451D02*
X4160000Y-1032451D01*
X4160000Y-1012451D02*
X4140000Y-1032451D01*
X4179866Y-1347551D02*
X4199866Y-1367551D01*
X4199866Y-1347551D02*
X4179866Y-1367551D01*
X4180000Y-220000D02*
X4200000Y-240000D01*
X4200000Y-220000D02*
X4180000Y-240000D01*
X4239983Y-1012451D02*
X4259983Y-1032451D01*
X4259983Y-1012451D02*
X4239983Y-1032451D01*
X4240017Y-267451D02*
X4260017Y-287451D01*
X4260017Y-267451D02*
X4240017Y-287451D01*
X4273000Y-1530000D02*
X4293000Y-1550000D01*
X4293000Y-1530000D02*
X4273000Y-1550000D01*
X4301146Y-228889D02*
X4321146Y-248889D01*
X4321146Y-228889D02*
X4301146Y-248889D01*
X4324299Y-1084588D02*
X4344299Y-1104588D01*
X4344299Y-1084588D02*
X4324299Y-1104588D01*
X4340000Y-940000D02*
X4360000Y-960000D01*
X4360000Y-940000D02*
X4340000Y-960000D01*
X4352289Y-255172D02*
X4372289Y-275172D01*
X4372289Y-255172D02*
X4352289Y-275172D01*
X4409131Y-246500D02*
X4429131Y-266500D01*
X4429131Y-246500D02*
X4409131Y-266500D01*
X4437675Y-976135D02*
X4457675Y-996135D01*
X4457675Y-976135D02*
X4437675Y-996135D01*
X4437823Y-1150352D02*
X4457823Y-1170352D01*
X4457823Y-1150352D02*
X4437823Y-1170352D01*
X4439923Y-1065451D02*
X4459923Y-1085451D01*
X4459923Y-1065451D02*
X4439923Y-1085451D01*
X4507600Y-1275049D02*
X4527600Y-1295049D01*
X4527600Y-1275049D02*
X4507600Y-1295049D01*
X4515000Y-325000D02*
X4535000Y-345000D01*
X4535000Y-325000D02*
X4515000Y-345000D01*
X4528000Y-1119000D02*
X4548000Y-1139000D01*
X4548000Y-1119000D02*
X4528000Y-1139000D01*
X4555328Y-462451D02*
X4575328Y-482451D01*
X4575328Y-462451D02*
X4555328Y-482451D01*
X4590000Y-375000D02*
X4610000Y-395000D01*
X4610000Y-375000D02*
X4590000Y-395000D01*
X4590655Y-1116985D02*
X4610655Y-1136985D01*
X4610655Y-1116985D02*
X4590655Y-1136985D01*
X4594001Y-1341589D02*
X4614001Y-1361589D01*
X4614001Y-1341589D02*
X4594001Y-1361589D01*
X4597963Y-1423041D02*
X4617963Y-1443041D01*
X4617963Y-1423041D02*
X4597963Y-1443041D01*
X4600272Y-545409D02*
X4620272Y-565409D01*
X4620272Y-545409D02*
X4600272Y-565409D01*
X4603000Y-637550D02*
X4623000Y-657550D01*
X4623000Y-637550D02*
X4603000Y-657550D01*
X4604000Y-67900D02*
X4624000Y-87900D01*
X4624000Y-67900D02*
X4604000Y-87900D01*
X4616534Y-1229287D02*
X4636534Y-1249287D01*
X4636534Y-1229287D02*
X4616534Y-1249287D01*
X4636479Y-1380345D02*
X4656479Y-1400345D01*
X4656479Y-1380345D02*
X4636479Y-1400345D01*
X4651237Y-1452525D02*
X4671237Y-1472525D01*
X4671237Y-1452525D02*
X4651237Y-1472525D01*
X4712604Y-716323D02*
X4732604Y-736323D01*
X4732604Y-716323D02*
X4712604Y-736323D01*
X4715553Y-1275221D02*
X4735553Y-1295221D01*
X4735553Y-1275221D02*
X4715553Y-1295221D01*
X4719852Y-542451D02*
X4739852Y-562451D01*
X4739852Y-542451D02*
X4719852Y-562451D01*
X4723511Y-1136439D02*
X4743511Y-1156439D01*
X4743511Y-1136439D02*
X4723511Y-1156439D01*
X4750000Y-300000D02*
X4770000Y-320000D01*
X4770000Y-300000D02*
X4750000Y-320000D01*
X4752739Y-1377944D02*
X4772739Y-1397944D01*
X4772739Y-1377944D02*
X4752739Y-1397944D01*
X4763539Y-1439653D02*
X4783539Y-1459653D01*
X4783539Y-1439653D02*
X4763539Y-1459653D01*
X4773833Y-717516D02*
X4793833Y-737516D01*
X4793833Y-717516D02*
X4773833Y-737516D01*
X4780000Y-555000D02*
X4800000Y-575000D01*
X4800000Y-555000D02*
X4780000Y-575000D01*
X4800455Y-1267699D02*
X4820455Y-1287699D01*
X4820455Y-1267699D02*
X4800455Y-1287699D01*
X4804476Y-1352851D02*
X4824476Y-1372851D01*
X4824476Y-1352851D02*
X4804476Y-1372851D01*
X4821038Y-1440147D02*
X4841038Y-1460147D01*
X4841038Y-1440147D02*
X4821038Y-1460147D01*
X4830000Y-55000D02*
X4850000Y-75000D01*
X4850000Y-55000D02*
X4830000Y-75000D01*
X4844307Y-682747D02*
X4864307Y-702747D01*
X4864307Y-682747D02*
X4844307Y-702747D01*
X4880000Y-915099D02*
X4900000Y-935099D01*
X4900000Y-915099D02*
X4880000Y-935099D01*
X4880000Y-1000000D02*
X4900000Y-1020000D01*
X4900000Y-1000000D02*
X4880000Y-1020000D01*
X4880000Y-1088438D02*
X4900000Y-1108438D01*
X4900000Y-1088438D02*
X4880000Y-1108438D01*
X4880402Y-827549D02*
X4900402Y-847549D01*
X4900402Y-827549D02*
X4880402Y-847549D01*
X4885355Y-1261103D02*
X4905355Y-1281103D01*
X4905355Y-1261103D02*
X4885355Y-1281103D01*
X4898379Y-217253D02*
X4918379Y-237253D01*
X4918379Y-217253D02*
X4898379Y-237253D01*
X4900000Y-55000D02*
X4920000Y-75000D01*
X4920000Y-55000D02*
X4900000Y-75000D01*
X4900000Y-472451D02*
X4920000Y-492451D01*
X4920000Y-472451D02*
X4900000Y-492451D01*
X4902000Y-302154D02*
X4922000Y-322154D01*
X4922000Y-302154D02*
X4902000Y-322154D01*
X4902000Y-387450D02*
X4922000Y-407450D01*
X4922000Y-387450D02*
X4902000Y-407450D01*
X4921482Y-1173339D02*
X4941482Y-1193339D01*
X4941482Y-1173339D02*
X4921482Y-1193339D01*
X4929422Y-1377718D02*
X4949422Y-1397718D01*
X4949422Y-1377718D02*
X4929422Y-1397718D01*
X4933340Y-1440000D02*
X4953340Y-1460000D01*
X4953340Y-1440000D02*
X4933340Y-1460000D01*
X4980000Y-1240000D02*
X5000000Y-1260000D01*
X5000000Y-1240000D02*
X4980000Y-1260000D01*
X4990842Y-1440000D02*
X5010842Y-1460000D01*
X5010842Y-1440000D02*
X4990842Y-1460000D01*
X5045000Y-55000D02*
X5065000Y-75000D01*
X5065000Y-55000D02*
X5045000Y-75000D01*
X5050000Y-1370000D02*
X5070000Y-1390000D01*
X5070000Y-1370000D02*
X5050000Y-1390000D01*
X5060000Y-499999D02*
X5080000Y-519999D01*
X5080000Y-499999D02*
X5060000Y-519999D01*
X5099370Y-812401D02*
X5119370Y-832401D01*
X5119370Y-812401D02*
X5099370Y-832401D01*
X5110000Y-1370000D02*
X5130000Y-1390000D01*
X5130000Y-1370000D02*
X5110000Y-1390000D01*
X5110000Y-1440000D02*
X5130000Y-1460000D01*
X5130000Y-1440000D02*
X5110000Y-1460000D01*
X5169983Y-1440017D02*
X5189983Y-1460017D01*
X5189983Y-1440017D02*
X5169983Y-1460017D01*
X5170000Y-1380000D02*
X5190000Y-1400000D01*
X5190000Y-1380000D02*
X5170000Y-1400000D01*
X5236814Y-361351D02*
X5256814Y-381351D01*
X5256814Y-361351D02*
X5236814Y-381351D01*
X5250000Y-279998D02*
X5270000Y-299998D01*
X5270000Y-279998D02*
X5250000Y-299998D01*
X5270000Y-440000D02*
X5290000Y-460000D01*
X5290000Y-440000D02*
X5270000Y-460000D01*
X5270000Y-520000D02*
X5290000Y-540000D01*
X5290000Y-520000D02*
X5270000Y-540000D01*
X5270000Y-890000D02*
X5290000Y-910000D01*
X5290000Y-890000D02*
X5270000Y-910000D01*
X5270000Y-980000D02*
X5290000Y-1000000D01*
X5290000Y-980000D02*
X5270000Y-1000000D01*
X5270000Y-1070000D02*
X5290000Y-1090000D01*
X5290000Y-1070000D02*
X5270000Y-1090000D01*
X5285306Y-172648D02*
X5305306Y-192648D01*
X5305306Y-172648D02*
X5285306Y-192648D01*
X5290000Y-1359999D02*
X5310000Y-1379999D01*
X5310000Y-1359999D02*
X5290000Y-1379999D01*
X5299852Y-1440000D02*
X5319852Y-1460000D01*
X5319852Y-1440000D02*
X5299852Y-1460000D01*
X5330000Y-280000D02*
X5350000Y-300000D01*
X5350000Y-280000D02*
X5330000Y-300000D01*
X5350000Y-40000D02*
X5370000Y-60000D01*
X5370000Y-40000D02*
X5350000Y-60000D01*
X5350000Y-520000D02*
X5370000Y-540000D01*
X5370000Y-520000D02*
X5350000Y-540000D01*
X5350000Y-600000D02*
X5370000Y-620000D01*
X5370000Y-600000D02*
X5350000Y-620000D01*
X5350000Y-840000D02*
X5370000Y-860000D01*
X5370000Y-840000D02*
X5350000Y-860000D01*
X5350000Y-1080000D02*
X5370000Y-1100000D01*
X5370000Y-1080000D02*
X5350000Y-1100000D01*
X5360282Y-1450282D02*
X5380282Y-1470282D01*
X5380282Y-1450282D02*
X5360282Y-1470282D01*
X5430000Y-40000D02*
X5450000Y-60000D01*
X5450000Y-40000D02*
X5430000Y-60000D01*
X5430000Y-280000D02*
X5450000Y-300000D01*
X5450000Y-280000D02*
X5430000Y-300000D01*
X5430000Y-360000D02*
X5450000Y-380000D01*
X5450000Y-360000D02*
X5430000Y-380000D01*
X5430000Y-440000D02*
X5450000Y-460000D01*
X5450000Y-440000D02*
X5430000Y-460000D01*
X5430000Y-520000D02*
X5450000Y-540000D01*
X5450000Y-520000D02*
X5430000Y-540000D01*
X5430000Y-600000D02*
X5450000Y-620000D01*
X5450000Y-600000D02*
X5430000Y-620000D01*
X5430000Y-920000D02*
X5450000Y-940000D01*
X5450000Y-920000D02*
X5430000Y-940000D01*
X5430000Y-1000000D02*
X5450000Y-1020000D01*
X5450000Y-1000000D02*
X5430000Y-1020000D01*
X5430000Y-1080000D02*
X5450000Y-1100000D01*
X5450000Y-1080000D02*
X5430000Y-1100000D01*
X5510000Y-40000D02*
X5530000Y-60000D01*
X5530000Y-40000D02*
X5510000Y-60000D01*
X5510000Y-120000D02*
X5530000Y-140000D01*
X5530000Y-120000D02*
X5510000Y-140000D01*
X5510000Y-200000D02*
X5530000Y-220000D01*
X5530000Y-200000D02*
X5510000Y-220000D01*
X5510000Y-280000D02*
X5530000Y-300000D01*
X5530000Y-280000D02*
X5510000Y-300000D01*
X5510000Y-360000D02*
X5530000Y-380000D01*
X5530000Y-360000D02*
X5510000Y-380000D01*
X5510000Y-440000D02*
X5530000Y-460000D01*
X5530000Y-440000D02*
X5510000Y-460000D01*
X5510000Y-600000D02*
X5530000Y-620000D01*
X5530000Y-600000D02*
X5510000Y-620000D01*
X5510000Y-680000D02*
X5530000Y-700000D01*
X5530000Y-680000D02*
X5510000Y-700000D01*
X5510000Y-760000D02*
X5530000Y-780000D01*
X5530000Y-760000D02*
X5510000Y-780000D01*
X5510000Y-840000D02*
X5530000Y-860000D01*
X5530000Y-840000D02*
X5510000Y-860000D01*
X5510000Y-920000D02*
X5530000Y-940000D01*
X5530000Y-920000D02*
X5510000Y-940000D01*
X5510000Y-1000000D02*
X5530000Y-1020000D01*
X5530000Y-1000000D02*
X5510000Y-1020000D01*
X5510000Y-1080000D02*
X5530000Y-1100000D01*
X5530000Y-1080000D02*
X5510000Y-1100000D01*
X5510000Y-1160000D02*
X5530000Y-1180000D01*
X5530000Y-1160000D02*
X5510000Y-1180000D01*
X5510000Y-1240000D02*
X5530000Y-1260000D01*
X5530000Y-1240000D02*
X5510000Y-1260000D01*
X5510020Y-1462451D02*
X5530020Y-1482451D01*
X5530020Y-1462451D02*
X5510020Y-1482451D01*
X5575096Y-1484798D02*
X5595096Y-1504798D01*
X5595096Y-1484798D02*
X5575096Y-1504798D01*
X5590000Y-40000D02*
X5610000Y-60000D01*
X5610000Y-40000D02*
X5590000Y-60000D01*
X5590000Y-120000D02*
X5610000Y-140000D01*
X5610000Y-120000D02*
X5590000Y-140000D01*
X5590000Y-200000D02*
X5610000Y-220000D01*
X5610000Y-200000D02*
X5590000Y-220000D01*
X5590000Y-280000D02*
X5610000Y-300000D01*
X5610000Y-280000D02*
X5590000Y-300000D01*
X5590000Y-360000D02*
X5610000Y-380000D01*
X5610000Y-360000D02*
X5590000Y-380000D01*
X5590000Y-440000D02*
X5610000Y-460000D01*
X5610000Y-440000D02*
X5590000Y-460000D01*
X5590000Y-600000D02*
X5610000Y-620000D01*
X5610000Y-600000D02*
X5590000Y-620000D01*
X5590000Y-680000D02*
X5610000Y-700000D01*
X5610000Y-680000D02*
X5590000Y-700000D01*
X5590000Y-760000D02*
X5610000Y-780000D01*
X5610000Y-760000D02*
X5590000Y-780000D01*
X5590000Y-840000D02*
X5610000Y-860000D01*
X5610000Y-840000D02*
X5590000Y-860000D01*
X5590000Y-920000D02*
X5610000Y-940000D01*
X5610000Y-920000D02*
X5590000Y-940000D01*
X5590000Y-1000000D02*
X5610000Y-1020000D01*
X5610000Y-1000000D02*
X5590000Y-1020000D01*
X5590000Y-1080000D02*
X5610000Y-1100000D01*
X5610000Y-1080000D02*
X5590000Y-1100000D01*
X5590000Y-1160000D02*
X5610000Y-1180000D01*
X5610000Y-1160000D02*
X5590000Y-1180000D01*
X5590000Y-1240000D02*
X5610000Y-1260000D01*
X5610000Y-1240000D02*
X5590000Y-1260000D01*
X5590000Y-1320000D02*
X5610000Y-1340000D01*
X5610000Y-1320000D02*
X5590000Y-1340000D01*
X5604254Y-1399951D02*
X5624254Y-1419951D01*
X5624254Y-1399951D02*
X5604254Y-1419951D01*
X5670000Y-40000D02*
X5690000Y-60000D01*
X5690000Y-40000D02*
X5670000Y-60000D01*
X5670000Y-120000D02*
X5690000Y-140000D01*
X5690000Y-120000D02*
X5670000Y-140000D01*
X5670000Y-200000D02*
X5690000Y-220000D01*
X5690000Y-200000D02*
X5670000Y-220000D01*
X5670000Y-280000D02*
X5690000Y-300000D01*
X5690000Y-280000D02*
X5670000Y-300000D01*
X5670000Y-360000D02*
X5690000Y-380000D01*
X5690000Y-360000D02*
X5670000Y-380000D01*
X5670000Y-520000D02*
X5690000Y-540000D01*
X5690000Y-520000D02*
X5670000Y-540000D01*
X5670000Y-760000D02*
X5690000Y-780000D01*
X5690000Y-760000D02*
X5670000Y-780000D01*
X5670000Y-1000000D02*
X5690000Y-1020000D01*
X5690000Y-1000000D02*
X5670000Y-1020000D01*
X5670000Y-1080000D02*
X5690000Y-1100000D01*
X5690000Y-1080000D02*
X5670000Y-1100000D01*
X5670000Y-1160000D02*
X5690000Y-1180000D01*
X5690000Y-1160000D02*
X5670000Y-1180000D01*
X5670000Y-1240000D02*
X5690000Y-1260000D01*
X5690000Y-1240000D02*
X5670000Y-1260000D01*
X5670000Y-1320000D02*
X5690000Y-1340000D01*
X5690000Y-1320000D02*
X5670000Y-1340000D01*
X5700002Y-1480000D02*
X5720002Y-1500000D01*
X5720002Y-1480000D02*
X5700002Y-1500000D01*
X5750000Y-40000D02*
X5770000Y-60000D01*
X5770000Y-40000D02*
X5750000Y-60000D01*
X5750000Y-120000D02*
X5770000Y-140000D01*
X5770000Y-120000D02*
X5750000Y-140000D01*
X5750000Y-200000D02*
X5770000Y-220000D01*
X5770000Y-200000D02*
X5750000Y-220000D01*
X5750000Y-280000D02*
X5770000Y-300000D01*
X5770000Y-280000D02*
X5750000Y-300000D01*
X5750000Y-440000D02*
X5770000Y-460000D01*
X5770000Y-440000D02*
X5750000Y-460000D01*
X5750000Y-520000D02*
X5770000Y-540000D01*
X5770000Y-520000D02*
X5750000Y-540000D01*
X5750000Y-600000D02*
X5770000Y-620000D01*
X5770000Y-600000D02*
X5750000Y-620000D01*
X5750000Y-680000D02*
X5770000Y-700000D01*
X5770000Y-680000D02*
X5750000Y-700000D01*
X5750000Y-760000D02*
X5770000Y-780000D01*
X5770000Y-760000D02*
X5750000Y-780000D01*
X5750000Y-840000D02*
X5770000Y-860000D01*
X5770000Y-840000D02*
X5750000Y-860000D01*
X5750000Y-920000D02*
X5770000Y-940000D01*
X5770000Y-920000D02*
X5750000Y-940000D01*
X5750000Y-1080000D02*
X5770000Y-1100000D01*
X5770000Y-1080000D02*
X5750000Y-1100000D01*
X5750000Y-1160000D02*
X5770000Y-1180000D01*
X5770000Y-1160000D02*
X5750000Y-1180000D01*
X5750000Y-1240000D02*
X5770000Y-1260000D01*
X5770000Y-1240000D02*
X5750000Y-1260000D01*
X5750000Y-1320000D02*
X5770000Y-1340000D01*
X5770000Y-1320000D02*
X5750000Y-1340000D01*
X5792501Y-1474425D02*
X5812501Y-1494425D01*
X5812501Y-1474425D02*
X5792501Y-1494425D01*
X5830000Y-40000D02*
X5850000Y-60000D01*
X5850000Y-40000D02*
X5830000Y-60000D01*
X5830000Y-360000D02*
X5850000Y-380000D01*
X5850000Y-360000D02*
X5830000Y-380000D01*
X5830000Y-440000D02*
X5850000Y-460000D01*
X5850000Y-440000D02*
X5830000Y-460000D01*
X5830000Y-1160000D02*
X5850000Y-1180000D01*
X5850000Y-1160000D02*
X5830000Y-1180000D01*
X5830000Y-1240000D02*
X5850000Y-1260000D01*
X5850000Y-1240000D02*
X5830000Y-1260000D01*
X5830000Y-1320000D02*
X5850000Y-1340000D01*
X5850000Y-1320000D02*
X5830000Y-1340000D01*
X5904770Y-1502473D02*
X5924770Y-1522473D01*
X5924770Y-1502473D02*
X5904770Y-1522473D01*
X5910000Y-40000D02*
X5930000Y-60000D01*
X5930000Y-40000D02*
X5910000Y-60000D01*
X5910000Y-200000D02*
X5930000Y-220000D01*
X5930000Y-200000D02*
X5910000Y-220000D01*
X5910000Y-360000D02*
X5930000Y-380000D01*
X5930000Y-360000D02*
X5910000Y-380000D01*
X5910000Y-440000D02*
X5930000Y-460000D01*
X5930000Y-440000D02*
X5910000Y-460000D01*
X5910000Y-1000000D02*
X5930000Y-1020000D01*
X5930000Y-1000000D02*
X5910000Y-1020000D01*
X5910000Y-1080000D02*
X5930000Y-1100000D01*
X5930000Y-1080000D02*
X5910000Y-1100000D01*
X5910000Y-1160000D02*
X5930000Y-1180000D01*
X5930000Y-1160000D02*
X5910000Y-1180000D01*
X5910000Y-1240000D02*
X5930000Y-1260000D01*
X5930000Y-1240000D02*
X5910000Y-1260000D01*
X5910000Y-1320000D02*
X5930000Y-1340000D01*
X5930000Y-1320000D02*
X5910000Y-1340000D01*
X5945417Y-1425902D02*
X5965417Y-1445902D01*
X5965417Y-1425902D02*
X5945417Y-1445902D01*
X5990000Y-360000D02*
X6010000Y-380000D01*
X6010000Y-360000D02*
X5990000Y-380000D01*
X5990000Y-440000D02*
X6010000Y-460000D01*
X6010000Y-440000D02*
X5990000Y-460000D01*
X5990000Y-520000D02*
X6010000Y-540000D01*
X6010000Y-520000D02*
X5990000Y-540000D01*
X5990000Y-600000D02*
X6010000Y-620000D01*
X6010000Y-600000D02*
X5990000Y-620000D01*
X5990000Y-680000D02*
X6010000Y-700000D01*
X6010000Y-680000D02*
X5990000Y-700000D01*
X5990000Y-760000D02*
X6010000Y-780000D01*
X6010000Y-760000D02*
X5990000Y-780000D01*
X5990000Y-840000D02*
X6010000Y-860000D01*
X6010000Y-840000D02*
X5990000Y-860000D01*
X5990000Y-920000D02*
X6010000Y-940000D01*
X6010000Y-920000D02*
X5990000Y-940000D01*
X5990000Y-1000000D02*
X6010000Y-1020000D01*
X6010000Y-1000000D02*
X5990000Y-1020000D01*
X5990000Y-1080000D02*
X6010000Y-1100000D01*
X6010000Y-1080000D02*
X5990000Y-1100000D01*
X5990000Y-1160000D02*
X6010000Y-1180000D01*
X6010000Y-1160000D02*
X5990000Y-1180000D01*
X6070000Y-200000D02*
X6090000Y-220000D01*
X6090000Y-200000D02*
X6070000Y-220000D01*
X6070000Y-280000D02*
X6090000Y-300000D01*
X6090000Y-280000D02*
X6070000Y-300000D01*
X6070000Y-440000D02*
X6090000Y-460000D01*
X6090000Y-440000D02*
X6070000Y-460000D01*
X6070000Y-520000D02*
X6090000Y-540000D01*
X6090000Y-520000D02*
X6070000Y-540000D01*
X6070000Y-600000D02*
X6090000Y-620000D01*
X6090000Y-600000D02*
X6070000Y-620000D01*
X6070000Y-680000D02*
X6090000Y-700000D01*
X6090000Y-680000D02*
X6070000Y-700000D01*
X6070000Y-760000D02*
X6090000Y-780000D01*
X6090000Y-760000D02*
X6070000Y-780000D01*
X6070000Y-840000D02*
X6090000Y-860000D01*
X6090000Y-840000D02*
X6070000Y-860000D01*
X6070000Y-920000D02*
X6090000Y-940000D01*
X6090000Y-920000D02*
X6070000Y-940000D01*
X6070000Y-1000000D02*
X6090000Y-1020000D01*
X6090000Y-1000000D02*
X6070000Y-1020000D01*
X6070000Y-1160000D02*
X6090000Y-1180000D01*
X6090000Y-1160000D02*
X6070000Y-1180000D01*
X6070000Y-1240000D02*
X6090000Y-1260000D01*
X6090000Y-1240000D02*
X6070000Y-1260000D01*
X6070000Y-1510000D02*
X6090000Y-1530000D01*
X6090000Y-1510000D02*
X6070000Y-1530000D01*
X6108792Y-1470000D02*
X6128792Y-1490000D01*
X6128792Y-1470000D02*
X6108792Y-1490000D01*
X6150000Y-40000D02*
X6170000Y-60000D01*
X6170000Y-40000D02*
X6150000Y-60000D01*
X6150000Y-200000D02*
X6170000Y-220000D01*
X6170000Y-200000D02*
X6150000Y-220000D01*
X6150000Y-440000D02*
X6170000Y-460000D01*
X6170000Y-440000D02*
X6150000Y-460000D01*
X6150000Y-1000000D02*
X6170000Y-1020000D01*
X6170000Y-1000000D02*
X6150000Y-1020000D01*
X6150000Y-1080000D02*
X6170000Y-1100000D01*
X6170000Y-1080000D02*
X6150000Y-1100000D01*
X6150000Y-1160000D02*
X6170000Y-1180000D01*
X6170000Y-1160000D02*
X6150000Y-1180000D01*
X6218592Y-1481162D02*
X6238592Y-1501162D01*
X6238592Y-1481162D02*
X6218592Y-1501162D01*
X6229999Y-1319896D02*
X6249999Y-1339896D01*
X6249999Y-1319896D02*
X6229999Y-1339896D01*
X6230000Y-440000D02*
X6250000Y-460000D01*
X6250000Y-440000D02*
X6230000Y-460000D01*
X6230000Y-1000000D02*
X6250000Y-1020000D01*
X6250000Y-1000000D02*
X6230000Y-1020000D01*
X6230000Y-1160000D02*
X6250000Y-1180000D01*
X6250000Y-1160000D02*
X6230000Y-1180000D01*
X6230000Y-1239994D02*
X6250000Y-1259994D01*
X6250000Y-1239994D02*
X6230000Y-1259994D01*
X6262304Y-1429694D02*
X6282304Y-1449694D01*
X6282304Y-1429694D02*
X6262304Y-1449694D01*
X6310000Y-40000D02*
X6330000Y-60000D01*
X6330000Y-40000D02*
X6310000Y-60000D01*
X6310000Y-200000D02*
X6330000Y-220000D01*
X6330000Y-200000D02*
X6310000Y-220000D01*
X6310000Y-280000D02*
X6330000Y-300000D01*
X6330000Y-280000D02*
X6310000Y-300000D01*
X6310000Y-440000D02*
X6330000Y-460000D01*
X6330000Y-440000D02*
X6310000Y-460000D01*
X6310000Y-520000D02*
X6330000Y-540000D01*
X6330000Y-520000D02*
X6310000Y-540000D01*
X6310000Y-600000D02*
X6330000Y-620000D01*
X6330000Y-600000D02*
X6310000Y-620000D01*
X6310000Y-680000D02*
X6330000Y-700000D01*
X6330000Y-680000D02*
X6310000Y-700000D01*
X6310000Y-760000D02*
X6330000Y-780000D01*
X6330000Y-760000D02*
X6310000Y-780000D01*
X6310000Y-840000D02*
X6330000Y-860000D01*
X6330000Y-840000D02*
X6310000Y-860000D01*
X6310000Y-920000D02*
X6330000Y-940000D01*
X6330000Y-920000D02*
X6310000Y-940000D01*
X6310000Y-1080000D02*
X6330000Y-1100000D01*
X6330000Y-1080000D02*
X6310000Y-1100000D01*
X6310000Y-1240000D02*
X6330000Y-1260000D01*
X6330000Y-1240000D02*
X6310000Y-1260000D01*
X6310000Y-1320000D02*
X6330000Y-1340000D01*
X6330000Y-1320000D02*
X6310000Y-1340000D01*
X6356515Y-1533599D02*
X6376515Y-1553599D01*
X6376515Y-1533599D02*
X6356515Y-1553599D01*
X6390000Y-40000D02*
X6410000Y-60000D01*
X6410000Y-40000D02*
X6390000Y-60000D01*
X6390000Y-200000D02*
X6410000Y-220000D01*
X6410000Y-200000D02*
X6390000Y-220000D01*
X6390000Y-280000D02*
X6410000Y-300000D01*
X6410000Y-280000D02*
X6390000Y-300000D01*
X6390000Y-360000D02*
X6410000Y-380000D01*
X6410000Y-360000D02*
X6390000Y-380000D01*
X6390000Y-440000D02*
X6410000Y-460000D01*
X6410000Y-440000D02*
X6390000Y-460000D01*
X6390000Y-520000D02*
X6410000Y-540000D01*
X6410000Y-520000D02*
X6390000Y-540000D01*
X6390000Y-600000D02*
X6410000Y-620000D01*
X6410000Y-600000D02*
X6390000Y-620000D01*
X6390000Y-1000000D02*
X6410000Y-1020000D01*
X6410000Y-1000000D02*
X6390000Y-1020000D01*
X6390000Y-1080000D02*
X6410000Y-1100000D01*
X6410000Y-1080000D02*
X6390000Y-1100000D01*
X6390000Y-1160000D02*
X6410000Y-1180000D01*
X6410000Y-1160000D02*
X6390000Y-1180000D01*
X6390000Y-1240000D02*
X6410000Y-1260000D01*
X6410000Y-1240000D02*
X6390000Y-1260000D01*
X6399506Y-1437775D02*
X6419506Y-1457775D01*
X6419506Y-1437775D02*
X6399506Y-1457775D01*
X6438823Y-1514256D02*
X6458823Y-1534256D01*
X6458823Y-1514256D02*
X6438823Y-1534256D01*
X6470000Y-40000D02*
X6490000Y-60000D01*
X6490000Y-40000D02*
X6470000Y-60000D01*
X6470000Y-200000D02*
X6490000Y-220000D01*
X6490000Y-200000D02*
X6470000Y-220000D01*
X6470000Y-360000D02*
X6490000Y-380000D01*
X6490000Y-360000D02*
X6470000Y-380000D01*
X6470000Y-680000D02*
X6490000Y-700000D01*
X6490000Y-680000D02*
X6470000Y-700000D01*
X6470000Y-760000D02*
X6490000Y-780000D01*
X6490000Y-760000D02*
X6470000Y-780000D01*
X6470000Y-840000D02*
X6490000Y-860000D01*
X6490000Y-840000D02*
X6470000Y-860000D01*
X6470000Y-920000D02*
X6490000Y-940000D01*
X6490000Y-920000D02*
X6470000Y-940000D01*
X6470000Y-1000000D02*
X6490000Y-1020000D01*
X6490000Y-1000000D02*
X6470000Y-1020000D01*
X6470000Y-1080000D02*
X6490000Y-1100000D01*
X6490000Y-1080000D02*
X6470000Y-1100000D01*
X6470000Y-1160000D02*
X6490000Y-1180000D01*
X6490000Y-1160000D02*
X6470000Y-1180000D01*
X6470000Y-1240000D02*
X6490000Y-1260000D01*
X6490000Y-1240000D02*
X6470000Y-1260000D01*
X6470000Y-1320000D02*
X6490000Y-1340000D01*
X6490000Y-1320000D02*
X6470000Y-1340000D01*
X6471205Y-1392600D02*
X6491205Y-1412600D01*
X6491205Y-1392600D02*
X6471205Y-1412600D01*
X6482858Y-1475000D02*
X6502858Y-1495000D01*
X6502858Y-1475000D02*
X6482858Y-1495000D01*
X6538761Y-1488376D02*
X6558761Y-1508376D01*
X6558761Y-1488376D02*
X6538761Y-1508376D01*
X6550000Y-200000D02*
X6570000Y-220000D01*
X6570000Y-200000D02*
X6550000Y-220000D01*
X6550000Y-280000D02*
X6570000Y-300000D01*
X6570000Y-280000D02*
X6550000Y-300000D01*
X6550000Y-360000D02*
X6570000Y-380000D01*
X6570000Y-360000D02*
X6550000Y-380000D01*
X6550000Y-440000D02*
X6570000Y-460000D01*
X6570000Y-440000D02*
X6550000Y-460000D01*
X6550000Y-520000D02*
X6570000Y-540000D01*
X6570000Y-520000D02*
X6550000Y-540000D01*
X6550000Y-600000D02*
X6570000Y-620000D01*
X6570000Y-600000D02*
X6550000Y-620000D01*
X6550000Y-760000D02*
X6570000Y-780000D01*
X6570000Y-760000D02*
X6550000Y-780000D01*
X6550000Y-840000D02*
X6570000Y-860000D01*
X6570000Y-840000D02*
X6550000Y-860000D01*
X6550000Y-920000D02*
X6570000Y-940000D01*
X6570000Y-920000D02*
X6550000Y-940000D01*
X6550000Y-1000000D02*
X6570000Y-1020000D01*
X6570000Y-1000000D02*
X6550000Y-1020000D01*
X6550000Y-1160000D02*
X6570000Y-1180000D01*
X6570000Y-1160000D02*
X6550000Y-1180000D01*
X6550000Y-1320000D02*
X6570000Y-1340000D01*
X6570000Y-1320000D02*
X6550000Y-1340000D01*
X6551106Y-1400000D02*
X6571106Y-1420000D01*
X6571106Y-1400000D02*
X6551106Y-1420000D01*
X6589606Y-1475295D02*
X6609606Y-1495295D01*
X6609606Y-1475295D02*
X6589606Y-1495295D01*
X6630000Y-200000D02*
X6650000Y-220000D01*
X6650000Y-200000D02*
X6630000Y-220000D01*
X6630000Y-360000D02*
X6650000Y-380000D01*
X6650000Y-360000D02*
X6630000Y-380000D01*
X6630000Y-520000D02*
X6650000Y-540000D01*
X6650000Y-520000D02*
X6630000Y-540000D01*
X6630000Y-680000D02*
X6650000Y-700000D01*
X6650000Y-680000D02*
X6630000Y-700000D01*
X6630000Y-760000D02*
X6650000Y-780000D01*
X6650000Y-760000D02*
X6630000Y-780000D01*
X6630000Y-1000000D02*
X6650000Y-1020000D01*
X6650000Y-1000000D02*
X6630000Y-1020000D01*
X6649122Y-1479214D02*
X6669122Y-1499214D01*
X6669122Y-1479214D02*
X6649122Y-1499214D01*
X6710000Y-40000D02*
X6730000Y-60000D01*
X6730000Y-40000D02*
X6710000Y-60000D01*
X6710000Y-200000D02*
X6730000Y-220000D01*
X6730000Y-200000D02*
X6710000Y-220000D01*
X6710000Y-360000D02*
X6730000Y-380000D01*
X6730000Y-360000D02*
X6710000Y-380000D01*
X6710000Y-680000D02*
X6730000Y-700000D01*
X6730000Y-680000D02*
X6710000Y-700000D01*
X6747500Y-1367500D02*
X6767500Y-1387500D01*
X6767500Y-1367500D02*
X6747500Y-1387500D01*
X6761663Y-174957D02*
X6781663Y-194957D01*
X6781663Y-174957D02*
X6761663Y-194957D01*
X6765000Y-1480000D02*
X6785000Y-1500000D01*
X6785000Y-1480000D02*
X6765000Y-1500000D01*
X6773913Y-614708D02*
X6793913Y-634708D01*
X6793913Y-614708D02*
X6773913Y-634708D01*
X6790000Y-825000D02*
X6810000Y-845000D01*
X6810000Y-825000D02*
X6790000Y-845000D01*
X6796871Y-264851D02*
X6816871Y-284851D01*
X6816871Y-264851D02*
X6796871Y-284851D01*
X6800193Y-1129807D02*
X6820193Y-1149807D01*
X6820193Y-1129807D02*
X6800193Y-1149807D01*
X6834018Y-109852D02*
X6854018Y-129852D01*
X6854018Y-109852D02*
X6834018Y-129852D01*
X6850000Y-900000D02*
X6870000Y-920000D01*
X6870000Y-900000D02*
X6850000Y-920000D01*
X6865001Y-375000D02*
X6885001Y-395000D01*
X6885001Y-375000D02*
X6865001Y-395000D01*
X6909983Y-1377549D02*
X6929983Y-1397549D01*
X6929983Y-1377549D02*
X6909983Y-1397549D01*
X6960000Y-375000D02*
X6980000Y-395000D01*
X6980000Y-375000D02*
X6960000Y-395000D01*
X6989992Y-1482727D02*
X7009992Y-1502727D01*
X7009992Y-1482727D02*
X6989992Y-1502727D01*
X6992123Y-1425265D02*
X7012123Y-1445265D01*
X7012123Y-1425265D02*
X6992123Y-1445265D01*
X7017811Y-130001D02*
X7037811Y-150001D01*
X7037811Y-130001D02*
X7017811Y-150001D01*
X7065697Y-693076D02*
X7085697Y-713076D01*
X7085697Y-693076D02*
X7065697Y-713076D01*
X7067844Y-579332D02*
X7087844Y-599332D01*
X7087844Y-579332D02*
X7067844Y-599332D01*
X7087716Y-831944D02*
X7107716Y-851944D01*
X7107716Y-831944D02*
X7087716Y-851944D01*
X7103128Y-1334725D02*
X7123128Y-1354725D01*
X7123128Y-1334725D02*
X7103128Y-1354725D01*
X7107549Y-1123278D02*
X7127549Y-1143278D01*
X7127549Y-1123278D02*
X7107549Y-1143278D01*
X7121739Y-374294D02*
X7141739Y-394294D01*
X7141739Y-374294D02*
X7121739Y-394294D01*
X7139671Y-245190D02*
X7159671Y-265190D01*
X7159671Y-245190D02*
X7139671Y-265190D01*
X7150000Y-650000D02*
X7170000Y-670000D01*
X7170000Y-650000D02*
X7150000Y-670000D01*
X7168239Y-331405D02*
X7188239Y-351405D01*
X7188239Y-331405D02*
X7168239Y-351405D01*
X7180322Y-459195D02*
X7200322Y-479195D01*
X7200322Y-459195D02*
X7180322Y-479195D01*
X7181129Y-159957D02*
X7201129Y-179957D01*
X7201129Y-159957D02*
X7181129Y-179957D01*
X7195274Y-1334726D02*
X7215274Y-1354726D01*
X7215274Y-1334726D02*
X7195274Y-1354726D01*
X7207178Y-108752D02*
X7227178Y-128752D01*
X7227178Y-108752D02*
X7207178Y-128752D01*
X7210000Y-1420000D02*
X7230000Y-1440000D01*
X7230000Y-1420000D02*
X7210000Y-1440000D01*
X7210000Y-1500000D02*
X7230000Y-1520000D01*
X7230000Y-1500000D02*
X7210000Y-1520000D01*
X7215614Y-202739D02*
X7235614Y-222739D01*
X7235614Y-202739D02*
X7215614Y-222739D01*
X7217392Y-405064D02*
X7237392Y-425064D01*
X7237392Y-405064D02*
X7217392Y-425064D01*
X7245001Y-638767D02*
X7265001Y-658767D01*
X7265001Y-638767D02*
X7245001Y-658767D01*
X7260511Y-87395D02*
X7280511Y-107395D01*
X7280511Y-87395D02*
X7260511Y-107395D01*
X7272499Y-1420000D02*
X7292499Y-1440000D01*
X7292499Y-1420000D02*
X7272499Y-1440000D01*
X7305296Y-773339D02*
X7325296Y-793339D01*
X7325296Y-773339D02*
X7305296Y-793339D01*
X7316905Y-76429D02*
X7336905Y-96429D01*
X7336905Y-76429D02*
X7316905Y-96429D01*
X7329636Y-636136D02*
X7349636Y-656136D01*
X7349636Y-636136D02*
X7329636Y-656136D01*
X7330000Y-1420000D02*
X7350000Y-1440000D01*
X7350000Y-1420000D02*
X7330000Y-1440000D01*
X7340000Y-480000D02*
X7360000Y-500000D01*
X7360000Y-480000D02*
X7340000Y-500000D01*
X7340000Y-1025000D02*
X7360000Y-1045000D01*
X7360000Y-1025000D02*
X7340000Y-1045000D01*
X7340000Y-1100000D02*
X7360000Y-1120000D01*
X7360000Y-1100000D02*
X7340000Y-1120000D01*
X7340099Y-852965D02*
X7360099Y-872965D01*
X7360099Y-852965D02*
X7340099Y-872965D01*
X7350000Y-1280000D02*
X7370000Y-1300000D01*
X7370000Y-1280000D02*
X7350000Y-1300000D01*
X7364236Y-109490D02*
X7384236Y-129490D01*
X7384236Y-109490D02*
X7364236Y-129490D01*
X7390000Y-1500000D02*
X7410000Y-1520000D01*
X7410000Y-1500000D02*
X7390000Y-1520000D01*
X7392676Y-1420000D02*
X7412676Y-1440000D01*
X7412676Y-1420000D02*
X7392676Y-1440000D01*
X7401511Y-151476D02*
X7421511Y-171476D01*
X7421511Y-151476D02*
X7401511Y-171476D01*
X7420000Y-910000D02*
X7440000Y-930000D01*
X7440000Y-910000D02*
X7420000Y-930000D01*
X7470000Y-160000D02*
X7490000Y-180000D01*
X7490000Y-160000D02*
X7470000Y-180000D01*
X7476775Y-763275D02*
X7496775Y-783275D01*
X7496775Y-763275D02*
X7476775Y-783275D01*
X7490000Y-1025000D02*
X7510000Y-1045000D01*
X7510000Y-1025000D02*
X7490000Y-1045000D01*
X7490000Y-1100000D02*
X7510000Y-1120000D01*
X7510000Y-1100000D02*
X7490000Y-1120000D01*
X7512784Y-1286122D02*
X7532784Y-1306122D01*
X7532784Y-1286122D02*
X7512784Y-1306122D01*
X7569927Y-820038D02*
X7589927Y-840038D01*
X7589927Y-820038D02*
X7569927Y-840038D01*
X7570000Y-640000D02*
X7590000Y-660000D01*
X7590000Y-640000D02*
X7570000Y-660000D01*
X7570000Y-730000D02*
X7590000Y-750000D01*
X7590000Y-730000D02*
X7570000Y-750000D01*
X7570000Y-1310000D02*
X7590000Y-1330000D01*
X7590000Y-1310000D02*
X7570000Y-1330000D01*
X7630000Y-1270000D02*
X7650000Y-1290000D01*
X7650000Y-1270000D02*
X7630000Y-1290000D01*
X7650000Y-680000D02*
X7670000Y-700000D01*
X7670000Y-680000D02*
X7650000Y-700000D01*
X7650000Y-780000D02*
X7670000Y-800000D01*
X7670000Y-780000D02*
X7650000Y-800000D01*
X7690000Y-1500000D02*
X7710000Y-1520000D01*
X7710000Y-1500000D02*
X7690000Y-1520000D01*
X7790000Y-1150000D02*
X7810000Y-1170000D01*
X7810000Y-1150000D02*
X7790000Y-1170000D01*
X7820000Y-800000D02*
X7840000Y-820000D01*
X7840000Y-800000D02*
X7820000Y-820000D01*
X7865000Y-1150000D02*
X7885000Y-1170000D01*
X7885000Y-1150000D02*
X7865000Y-1170000D01*
X7870000Y-1500000D02*
X7890000Y-1520000D01*
X7890000Y-1500000D02*
X7870000Y-1520000D01*
X7890000Y-795000D02*
X7910000Y-815000D01*
X7910000Y-795000D02*
X7890000Y-815000D01*
X7910000Y-400000D02*
X7930000Y-420000D01*
X7930000Y-400000D02*
X7910000Y-420000D01*
X7965000Y-925000D02*
X7985000Y-945000D01*
X7985000Y-925000D02*
X7965000Y-945000D01*
X7965000Y-1025000D02*
X7985000Y-1045000D01*
X7985000Y-1025000D02*
X7965000Y-1045000D01*
X7990000Y-680000D02*
X8010000Y-700000D01*
X8010000Y-680000D02*
X7990000Y-700000D01*
X8090000Y-609999D02*
X8110000Y-629999D01*
X8110000Y-609999D02*
X8090000Y-629999D01*
X4122500Y-472500D02*
G75*
G03*
X4092500Y-472500I-15000J0D01*
G01*
X4092500Y-472500D02*
G75*
G03*
X4122500Y-472500I15000J0D01*
G01*
X4122500Y-615000D02*
G75*
G03*
X4092500Y-615000I-15000J0D01*
G01*
X4092500Y-615000D02*
G75*
G03*
X4122500Y-615000I15000J0D01*
G01*
X4122500Y-757500D02*
G75*
G03*
X4092500Y-757500I-15000J0D01*
G01*
X4092500Y-757500D02*
G75*
G03*
X4122500Y-757500I15000J0D01*
G01*
X4265000Y-472500D02*
G75*
G03*
X4235000Y-472500I-15000J0D01*
G01*
X4235000Y-472500D02*
G75*
G03*
X4265000Y-472500I15000J0D01*
G01*
X4265000Y-615000D02*
G75*
G03*
X4235000Y-615000I-15000J0D01*
G01*
X4235000Y-615000D02*
G75*
G03*
X4265000Y-615000I15000J0D01*
G01*
X4265000Y-757500D02*
G75*
G03*
X4235000Y-757500I-15000J0D01*
G01*
X4235000Y-757500D02*
G75*
G03*
X4265000Y-757500I15000J0D01*
G01*
X4407500Y-472500D02*
G75*
G03*
X4377500Y-472500I-15000J0D01*
G01*
X4377500Y-472500D02*
G75*
G03*
X4407500Y-472500I15000J0D01*
G01*
X4407500Y-615000D02*
G75*
G03*
X4377500Y-615000I-15000J0D01*
G01*
X4377500Y-615000D02*
G75*
G03*
X4407500Y-615000I15000J0D01*
G01*
X4407500Y-757500D02*
G75*
G03*
X4377500Y-757500I-15000J0D01*
G01*
X4377500Y-757500D02*
G75*
G03*
X4407500Y-757500I15000J0D01*
G01*
X1812000Y-113500D02*
X1812000Y-178500D01*
X1779500Y-146000D02*
X1844500Y-146000D01*
X1812000Y-240500D02*
X1812000Y-305500D01*
X1779500Y-273000D02*
X1844500Y-273000D01*
X1939000Y-113500D02*
X1939000Y-178500D01*
X1906500Y-146000D02*
X1971500Y-146000D01*
X1939000Y-240500D02*
X1939000Y-305500D01*
X1906500Y-273000D02*
X1971500Y-273000D01*
X2066000Y-113500D02*
X2066000Y-178500D01*
X2033500Y-146000D02*
X2098500Y-146000D01*
X2066000Y-240500D02*
X2066000Y-305500D01*
X2033500Y-273000D02*
X2098500Y-273000D01*
D11*
X253277Y-2148984D02*
X253277Y-1948984D01*
X253277Y-1948984D02*
X300896Y-1948984D01*
X300896Y-1948984D02*
X329467Y-1958508D01*
X329467Y-1958508D02*
X348515Y-1977555D01*
X348515Y-1977555D02*
X358039Y-1996603D01*
X358039Y-1996603D02*
X367562Y-2034698D01*
X367562Y-2034698D02*
X367562Y-2063269D01*
X367562Y-2063269D02*
X358039Y-2101365D01*
X358039Y-2101365D02*
X348515Y-2120412D01*
X348515Y-2120412D02*
X329467Y-2139460D01*
X329467Y-2139460D02*
X300896Y-2148984D01*
X300896Y-2148984D02*
X253277Y-2148984D01*
X453277Y-2148984D02*
X453277Y-2015650D01*
X453277Y-2053746D02*
X462801Y-2034698D01*
X462801Y-2034698D02*
X472324Y-2025174D01*
X472324Y-2025174D02*
X491372Y-2015650D01*
X491372Y-2015650D02*
X510420Y-2015650D01*
X577086Y-2148984D02*
X577086Y-2015650D01*
X577086Y-1948984D02*
X567563Y-1958508D01*
X567563Y-1958508D02*
X577086Y-1968031D01*
X577086Y-1968031D02*
X586610Y-1958508D01*
X586610Y-1958508D02*
X577086Y-1948984D01*
X577086Y-1948984D02*
X577086Y-1968031D01*
X700896Y-2148984D02*
X681848Y-2139460D01*
X681848Y-2139460D02*
X672324Y-2120412D01*
X672324Y-2120412D02*
X672324Y-1948984D01*
X805658Y-2148984D02*
X786610Y-2139460D01*
X786610Y-2139460D02*
X777086Y-2120412D01*
X777086Y-2120412D02*
X777086Y-1948984D01*
X1034229Y-2148984D02*
X1034229Y-1948984D01*
X1034229Y-1948984D02*
X1100896Y-2091841D01*
X1100896Y-2091841D02*
X1167563Y-1948984D01*
X1167563Y-1948984D02*
X1167563Y-2148984D01*
X1348515Y-2148984D02*
X1348515Y-2044222D01*
X1348515Y-2044222D02*
X1338991Y-2025174D01*
X1338991Y-2025174D02*
X1319944Y-2015650D01*
X1319944Y-2015650D02*
X1281848Y-2015650D01*
X1281848Y-2015650D02*
X1262801Y-2025174D01*
X1348515Y-2139460D02*
X1329467Y-2148984D01*
X1329467Y-2148984D02*
X1281848Y-2148984D01*
X1281848Y-2148984D02*
X1262801Y-2139460D01*
X1262801Y-2139460D02*
X1253277Y-2120412D01*
X1253277Y-2120412D02*
X1253277Y-2101365D01*
X1253277Y-2101365D02*
X1262801Y-2082317D01*
X1262801Y-2082317D02*
X1281848Y-2072793D01*
X1281848Y-2072793D02*
X1329467Y-2072793D01*
X1329467Y-2072793D02*
X1348515Y-2063269D01*
X1443753Y-2015650D02*
X1443753Y-2215650D01*
X1443753Y-2025174D02*
X1462801Y-2015650D01*
X1462801Y-2015650D02*
X1500896Y-2015650D01*
X1500896Y-2015650D02*
X1519943Y-2025174D01*
X1519943Y-2025174D02*
X1529467Y-2034698D01*
X1529467Y-2034698D02*
X1538991Y-2053746D01*
X1538991Y-2053746D02*
X1538991Y-2110889D01*
X1538991Y-2110889D02*
X1529467Y-2129936D01*
X1529467Y-2129936D02*
X1519943Y-2139460D01*
X1519943Y-2139460D02*
X1500896Y-2148984D01*
X1500896Y-2148984D02*
X1462801Y-2148984D01*
X1462801Y-2148984D02*
X1443753Y-2139460D01*
X1624705Y-2129936D02*
X1634229Y-2139460D01*
X1634229Y-2139460D02*
X1624705Y-2148984D01*
X1624705Y-2148984D02*
X1615182Y-2139460D01*
X1615182Y-2139460D02*
X1624705Y-2129936D01*
X1624705Y-2129936D02*
X1624705Y-2148984D01*
X1624705Y-2025174D02*
X1634229Y-2034698D01*
X1634229Y-2034698D02*
X1624705Y-2044222D01*
X1624705Y-2044222D02*
X1615182Y-2034698D01*
X1615182Y-2034698D02*
X1624705Y-2025174D01*
X1624705Y-2025174D02*
X1624705Y-2044222D01*
D12*
X-27500Y-2467500D02*
X-7500Y-2487500D01*
X-7500Y-2467500D02*
X-27500Y-2487500D01*
D11*
X291372Y-2368984D02*
X310420Y-2368984D01*
X310420Y-2368984D02*
X329467Y-2378508D01*
X329467Y-2378508D02*
X338991Y-2388031D01*
X338991Y-2388031D02*
X348515Y-2407079D01*
X348515Y-2407079D02*
X358039Y-2445174D01*
X358039Y-2445174D02*
X358039Y-2492793D01*
X358039Y-2492793D02*
X348515Y-2530889D01*
X348515Y-2530889D02*
X338991Y-2549936D01*
X338991Y-2549936D02*
X329467Y-2559460D01*
X329467Y-2559460D02*
X310420Y-2568984D01*
X310420Y-2568984D02*
X291372Y-2568984D01*
X291372Y-2568984D02*
X272324Y-2559460D01*
X272324Y-2559460D02*
X262801Y-2549936D01*
X262801Y-2549936D02*
X253277Y-2530889D01*
X253277Y-2530889D02*
X243753Y-2492793D01*
X243753Y-2492793D02*
X243753Y-2445174D01*
X243753Y-2445174D02*
X253277Y-2407079D01*
X253277Y-2407079D02*
X262801Y-2388031D01*
X262801Y-2388031D02*
X272324Y-2378508D01*
X272324Y-2378508D02*
X291372Y-2368984D01*
X443753Y-2549936D02*
X453277Y-2559460D01*
X453277Y-2559460D02*
X443753Y-2568984D01*
X443753Y-2568984D02*
X434229Y-2559460D01*
X434229Y-2559460D02*
X443753Y-2549936D01*
X443753Y-2549936D02*
X443753Y-2568984D01*
X529467Y-2388031D02*
X538991Y-2378508D01*
X538991Y-2378508D02*
X558039Y-2368984D01*
X558039Y-2368984D02*
X605658Y-2368984D01*
X605658Y-2368984D02*
X624705Y-2378508D01*
X624705Y-2378508D02*
X634229Y-2388031D01*
X634229Y-2388031D02*
X643753Y-2407079D01*
X643753Y-2407079D02*
X643753Y-2426127D01*
X643753Y-2426127D02*
X634229Y-2454698D01*
X634229Y-2454698D02*
X519943Y-2568984D01*
X519943Y-2568984D02*
X643753Y-2568984D01*
X767562Y-2368984D02*
X786610Y-2368984D01*
X786610Y-2368984D02*
X805658Y-2378508D01*
X805658Y-2378508D02*
X815182Y-2388031D01*
X815182Y-2388031D02*
X824705Y-2407079D01*
X824705Y-2407079D02*
X834229Y-2445174D01*
X834229Y-2445174D02*
X834229Y-2492793D01*
X834229Y-2492793D02*
X824705Y-2530889D01*
X824705Y-2530889D02*
X815182Y-2549936D01*
X815182Y-2549936D02*
X805658Y-2559460D01*
X805658Y-2559460D02*
X786610Y-2568984D01*
X786610Y-2568984D02*
X767562Y-2568984D01*
X767562Y-2568984D02*
X748515Y-2559460D01*
X748515Y-2559460D02*
X738991Y-2549936D01*
X738991Y-2549936D02*
X729467Y-2530889D01*
X729467Y-2530889D02*
X719943Y-2492793D01*
X719943Y-2492793D02*
X719943Y-2445174D01*
X719943Y-2445174D02*
X729467Y-2407079D01*
X729467Y-2407079D02*
X738991Y-2388031D01*
X738991Y-2388031D02*
X748515Y-2378508D01*
X748515Y-2378508D02*
X767562Y-2368984D01*
X958039Y-2368984D02*
X977086Y-2368984D01*
X977086Y-2368984D02*
X996134Y-2378508D01*
X996134Y-2378508D02*
X1005658Y-2388031D01*
X1005658Y-2388031D02*
X1015182Y-2407079D01*
X1015182Y-2407079D02*
X1024705Y-2445174D01*
X1024705Y-2445174D02*
X1024705Y-2492793D01*
X1024705Y-2492793D02*
X1015182Y-2530889D01*
X1015182Y-2530889D02*
X1005658Y-2549936D01*
X1005658Y-2549936D02*
X996134Y-2559460D01*
X996134Y-2559460D02*
X977086Y-2568984D01*
X977086Y-2568984D02*
X958039Y-2568984D01*
X958039Y-2568984D02*
X938991Y-2559460D01*
X938991Y-2559460D02*
X929467Y-2549936D01*
X929467Y-2549936D02*
X919943Y-2530889D01*
X919943Y-2530889D02*
X910420Y-2492793D01*
X910420Y-2492793D02*
X910420Y-2445174D01*
X910420Y-2445174D02*
X919943Y-2407079D01*
X919943Y-2407079D02*
X929467Y-2388031D01*
X929467Y-2388031D02*
X938991Y-2378508D01*
X938991Y-2378508D02*
X958039Y-2368984D01*
X1110420Y-2568984D02*
X1110420Y-2435650D01*
X1110420Y-2454698D02*
X1119944Y-2445174D01*
X1119944Y-2445174D02*
X1138991Y-2435650D01*
X1138991Y-2435650D02*
X1167563Y-2435650D01*
X1167563Y-2435650D02*
X1186610Y-2445174D01*
X1186610Y-2445174D02*
X1196134Y-2464222D01*
X1196134Y-2464222D02*
X1196134Y-2568984D01*
X1196134Y-2464222D02*
X1205658Y-2445174D01*
X1205658Y-2445174D02*
X1224705Y-2435650D01*
X1224705Y-2435650D02*
X1253277Y-2435650D01*
X1253277Y-2435650D02*
X1272325Y-2445174D01*
X1272325Y-2445174D02*
X1281848Y-2464222D01*
X1281848Y-2464222D02*
X1281848Y-2568984D01*
X1377086Y-2568984D02*
X1377086Y-2435650D01*
X1377086Y-2454698D02*
X1386610Y-2445174D01*
X1386610Y-2445174D02*
X1405658Y-2435650D01*
X1405658Y-2435650D02*
X1434229Y-2435650D01*
X1434229Y-2435650D02*
X1453277Y-2445174D01*
X1453277Y-2445174D02*
X1462801Y-2464222D01*
X1462801Y-2464222D02*
X1462801Y-2568984D01*
X1462801Y-2464222D02*
X1472324Y-2445174D01*
X1472324Y-2445174D02*
X1491372Y-2435650D01*
X1491372Y-2435650D02*
X1519943Y-2435650D01*
X1519943Y-2435650D02*
X1538991Y-2445174D01*
X1538991Y-2445174D02*
X1548515Y-2464222D01*
X1548515Y-2464222D02*
X1548515Y-2568984D01*
X1938991Y-2359460D02*
X1767563Y-2616603D01*
X2196134Y-2368984D02*
X2215182Y-2368984D01*
X2215182Y-2368984D02*
X2234229Y-2378508D01*
X2234229Y-2378508D02*
X2243753Y-2388031D01*
X2243753Y-2388031D02*
X2253277Y-2407079D01*
X2253277Y-2407079D02*
X2262801Y-2445174D01*
X2262801Y-2445174D02*
X2262801Y-2492793D01*
X2262801Y-2492793D02*
X2253277Y-2530889D01*
X2253277Y-2530889D02*
X2243753Y-2549936D01*
X2243753Y-2549936D02*
X2234229Y-2559460D01*
X2234229Y-2559460D02*
X2215182Y-2568984D01*
X2215182Y-2568984D02*
X2196134Y-2568984D01*
X2196134Y-2568984D02*
X2177087Y-2559460D01*
X2177087Y-2559460D02*
X2167563Y-2549936D01*
X2167563Y-2549936D02*
X2158039Y-2530889D01*
X2158039Y-2530889D02*
X2148515Y-2492793D01*
X2148515Y-2492793D02*
X2148515Y-2445174D01*
X2148515Y-2445174D02*
X2158039Y-2407079D01*
X2158039Y-2407079D02*
X2167563Y-2388031D01*
X2167563Y-2388031D02*
X2177087Y-2378508D01*
X2177087Y-2378508D02*
X2196134Y-2368984D01*
X2348515Y-2549936D02*
X2358039Y-2559460D01*
X2358039Y-2559460D02*
X2348515Y-2568984D01*
X2348515Y-2568984D02*
X2338991Y-2559460D01*
X2338991Y-2559460D02*
X2348515Y-2549936D01*
X2348515Y-2549936D02*
X2348515Y-2568984D01*
X2481848Y-2368984D02*
X2500896Y-2368984D01*
X2500896Y-2368984D02*
X2519944Y-2378508D01*
X2519944Y-2378508D02*
X2529468Y-2388031D01*
X2529468Y-2388031D02*
X2538991Y-2407079D01*
X2538991Y-2407079D02*
X2548515Y-2445174D01*
X2548515Y-2445174D02*
X2548515Y-2492793D01*
X2548515Y-2492793D02*
X2538991Y-2530889D01*
X2538991Y-2530889D02*
X2529468Y-2549936D01*
X2529468Y-2549936D02*
X2519944Y-2559460D01*
X2519944Y-2559460D02*
X2500896Y-2568984D01*
X2500896Y-2568984D02*
X2481848Y-2568984D01*
X2481848Y-2568984D02*
X2462801Y-2559460D01*
X2462801Y-2559460D02*
X2453277Y-2549936D01*
X2453277Y-2549936D02*
X2443753Y-2530889D01*
X2443753Y-2530889D02*
X2434229Y-2492793D01*
X2434229Y-2492793D02*
X2434229Y-2445174D01*
X2434229Y-2445174D02*
X2443753Y-2407079D01*
X2443753Y-2407079D02*
X2453277Y-2388031D01*
X2453277Y-2388031D02*
X2462801Y-2378508D01*
X2462801Y-2378508D02*
X2481848Y-2368984D01*
X2672325Y-2368984D02*
X2691372Y-2368984D01*
X2691372Y-2368984D02*
X2710420Y-2378508D01*
X2710420Y-2378508D02*
X2719944Y-2388031D01*
X2719944Y-2388031D02*
X2729468Y-2407079D01*
X2729468Y-2407079D02*
X2738991Y-2445174D01*
X2738991Y-2445174D02*
X2738991Y-2492793D01*
X2738991Y-2492793D02*
X2729468Y-2530889D01*
X2729468Y-2530889D02*
X2719944Y-2549936D01*
X2719944Y-2549936D02*
X2710420Y-2559460D01*
X2710420Y-2559460D02*
X2691372Y-2568984D01*
X2691372Y-2568984D02*
X2672325Y-2568984D01*
X2672325Y-2568984D02*
X2653277Y-2559460D01*
X2653277Y-2559460D02*
X2643753Y-2549936D01*
X2643753Y-2549936D02*
X2634229Y-2530889D01*
X2634229Y-2530889D02*
X2624706Y-2492793D01*
X2624706Y-2492793D02*
X2624706Y-2445174D01*
X2624706Y-2445174D02*
X2634229Y-2407079D01*
X2634229Y-2407079D02*
X2643753Y-2388031D01*
X2643753Y-2388031D02*
X2653277Y-2378508D01*
X2653277Y-2378508D02*
X2672325Y-2368984D01*
X2805658Y-2368984D02*
X2938991Y-2368984D01*
X2938991Y-2368984D02*
X2853277Y-2568984D01*
X3024706Y-2568984D02*
X3062801Y-2568984D01*
X3062801Y-2568984D02*
X3081848Y-2559460D01*
X3081848Y-2559460D02*
X3091372Y-2549936D01*
X3091372Y-2549936D02*
X3110420Y-2521365D01*
X3110420Y-2521365D02*
X3119944Y-2483270D01*
X3119944Y-2483270D02*
X3119944Y-2407079D01*
X3119944Y-2407079D02*
X3110420Y-2388031D01*
X3110420Y-2388031D02*
X3100896Y-2378508D01*
X3100896Y-2378508D02*
X3081848Y-2368984D01*
X3081848Y-2368984D02*
X3043753Y-2368984D01*
X3043753Y-2368984D02*
X3024706Y-2378508D01*
X3024706Y-2378508D02*
X3015182Y-2388031D01*
X3015182Y-2388031D02*
X3005658Y-2407079D01*
X3005658Y-2407079D02*
X3005658Y-2454698D01*
X3005658Y-2454698D02*
X3015182Y-2473746D01*
X3015182Y-2473746D02*
X3024706Y-2483270D01*
X3024706Y-2483270D02*
X3043753Y-2492793D01*
X3043753Y-2492793D02*
X3081848Y-2492793D01*
X3081848Y-2492793D02*
X3100896Y-2483270D01*
X3100896Y-2483270D02*
X3110420Y-2473746D01*
X3110420Y-2473746D02*
X3119944Y-2454698D01*
X3196134Y-2368984D02*
X3196134Y-2407079D01*
X3272325Y-2368984D02*
X3272325Y-2407079D01*
X3567563Y-2645174D02*
X3558039Y-2635650D01*
X3558039Y-2635650D02*
X3538991Y-2607079D01*
X3538991Y-2607079D02*
X3529468Y-2588031D01*
X3529468Y-2588031D02*
X3519944Y-2559460D01*
X3519944Y-2559460D02*
X3510420Y-2511841D01*
X3510420Y-2511841D02*
X3510420Y-2473746D01*
X3510420Y-2473746D02*
X3519944Y-2426127D01*
X3519944Y-2426127D02*
X3529468Y-2397555D01*
X3529468Y-2397555D02*
X3538991Y-2378508D01*
X3538991Y-2378508D02*
X3558039Y-2349936D01*
X3558039Y-2349936D02*
X3567563Y-2340412D01*
X3738991Y-2368984D02*
X3643753Y-2368984D01*
X3643753Y-2368984D02*
X3634229Y-2464222D01*
X3634229Y-2464222D02*
X3643753Y-2454698D01*
X3643753Y-2454698D02*
X3662801Y-2445174D01*
X3662801Y-2445174D02*
X3710420Y-2445174D01*
X3710420Y-2445174D02*
X3729468Y-2454698D01*
X3729468Y-2454698D02*
X3738991Y-2464222D01*
X3738991Y-2464222D02*
X3748515Y-2483270D01*
X3748515Y-2483270D02*
X3748515Y-2530889D01*
X3748515Y-2530889D02*
X3738991Y-2549936D01*
X3738991Y-2549936D02*
X3729468Y-2559460D01*
X3729468Y-2559460D02*
X3710420Y-2568984D01*
X3710420Y-2568984D02*
X3662801Y-2568984D01*
X3662801Y-2568984D02*
X3643753Y-2559460D01*
X3643753Y-2559460D02*
X3634229Y-2549936D01*
X3938991Y-2568984D02*
X3824706Y-2568984D01*
X3881848Y-2568984D02*
X3881848Y-2368984D01*
X3881848Y-2368984D02*
X3862801Y-2397555D01*
X3862801Y-2397555D02*
X3843753Y-2416603D01*
X3843753Y-2416603D02*
X3824706Y-2426127D01*
X4034229Y-2568984D02*
X4072325Y-2568984D01*
X4072325Y-2568984D02*
X4091372Y-2559460D01*
X4091372Y-2559460D02*
X4100896Y-2549936D01*
X4100896Y-2549936D02*
X4119944Y-2521365D01*
X4119944Y-2521365D02*
X4129468Y-2483270D01*
X4129468Y-2483270D02*
X4129468Y-2407079D01*
X4129468Y-2407079D02*
X4119944Y-2388031D01*
X4119944Y-2388031D02*
X4110420Y-2378508D01*
X4110420Y-2378508D02*
X4091372Y-2368984D01*
X4091372Y-2368984D02*
X4053277Y-2368984D01*
X4053277Y-2368984D02*
X4034229Y-2378508D01*
X4034229Y-2378508D02*
X4024706Y-2388031D01*
X4024706Y-2388031D02*
X4015182Y-2407079D01*
X4015182Y-2407079D02*
X4015182Y-2454698D01*
X4015182Y-2454698D02*
X4024706Y-2473746D01*
X4024706Y-2473746D02*
X4034229Y-2483270D01*
X4034229Y-2483270D02*
X4053277Y-2492793D01*
X4053277Y-2492793D02*
X4091372Y-2492793D01*
X4091372Y-2492793D02*
X4110420Y-2483270D01*
X4110420Y-2483270D02*
X4119944Y-2473746D01*
X4119944Y-2473746D02*
X4129468Y-2454698D01*
X4367563Y-2568984D02*
X4367563Y-2368984D01*
X4453277Y-2568984D02*
X4453277Y-2464222D01*
X4453277Y-2464222D02*
X4443753Y-2445174D01*
X4443753Y-2445174D02*
X4424706Y-2435650D01*
X4424706Y-2435650D02*
X4396134Y-2435650D01*
X4396134Y-2435650D02*
X4377087Y-2445174D01*
X4377087Y-2445174D02*
X4367563Y-2454698D01*
X4577087Y-2568984D02*
X4558039Y-2559460D01*
X4558039Y-2559460D02*
X4548515Y-2549936D01*
X4548515Y-2549936D02*
X4538992Y-2530889D01*
X4538992Y-2530889D02*
X4538992Y-2473746D01*
X4538992Y-2473746D02*
X4548515Y-2454698D01*
X4548515Y-2454698D02*
X4558039Y-2445174D01*
X4558039Y-2445174D02*
X4577087Y-2435650D01*
X4577087Y-2435650D02*
X4605658Y-2435650D01*
X4605658Y-2435650D02*
X4624706Y-2445174D01*
X4624706Y-2445174D02*
X4634230Y-2454698D01*
X4634230Y-2454698D02*
X4643753Y-2473746D01*
X4643753Y-2473746D02*
X4643753Y-2530889D01*
X4643753Y-2530889D02*
X4634230Y-2549936D01*
X4634230Y-2549936D02*
X4624706Y-2559460D01*
X4624706Y-2559460D02*
X4605658Y-2568984D01*
X4605658Y-2568984D02*
X4577087Y-2568984D01*
X4758039Y-2568984D02*
X4738992Y-2559460D01*
X4738992Y-2559460D02*
X4729468Y-2540412D01*
X4729468Y-2540412D02*
X4729468Y-2368984D01*
X4910420Y-2559460D02*
X4891373Y-2568984D01*
X4891373Y-2568984D02*
X4853277Y-2568984D01*
X4853277Y-2568984D02*
X4834230Y-2559460D01*
X4834230Y-2559460D02*
X4824706Y-2540412D01*
X4824706Y-2540412D02*
X4824706Y-2464222D01*
X4824706Y-2464222D02*
X4834230Y-2445174D01*
X4834230Y-2445174D02*
X4853277Y-2435650D01*
X4853277Y-2435650D02*
X4891373Y-2435650D01*
X4891373Y-2435650D02*
X4910420Y-2445174D01*
X4910420Y-2445174D02*
X4919944Y-2464222D01*
X4919944Y-2464222D02*
X4919944Y-2483270D01*
X4919944Y-2483270D02*
X4824706Y-2502317D01*
X4996134Y-2559460D02*
X5015182Y-2568984D01*
X5015182Y-2568984D02*
X5053277Y-2568984D01*
X5053277Y-2568984D02*
X5072325Y-2559460D01*
X5072325Y-2559460D02*
X5081849Y-2540412D01*
X5081849Y-2540412D02*
X5081849Y-2530889D01*
X5081849Y-2530889D02*
X5072325Y-2511841D01*
X5072325Y-2511841D02*
X5053277Y-2502317D01*
X5053277Y-2502317D02*
X5024706Y-2502317D01*
X5024706Y-2502317D02*
X5005658Y-2492793D01*
X5005658Y-2492793D02*
X4996134Y-2473746D01*
X4996134Y-2473746D02*
X4996134Y-2464222D01*
X4996134Y-2464222D02*
X5005658Y-2445174D01*
X5005658Y-2445174D02*
X5024706Y-2435650D01*
X5024706Y-2435650D02*
X5053277Y-2435650D01*
X5053277Y-2435650D02*
X5072325Y-2445174D01*
X5148515Y-2645174D02*
X5158039Y-2635650D01*
X5158039Y-2635650D02*
X5177087Y-2607079D01*
X5177087Y-2607079D02*
X5186611Y-2588031D01*
X5186611Y-2588031D02*
X5196134Y-2559460D01*
X5196134Y-2559460D02*
X5205658Y-2511841D01*
X5205658Y-2511841D02*
X5205658Y-2473746D01*
X5205658Y-2473746D02*
X5196134Y-2426127D01*
X5196134Y-2426127D02*
X5186611Y-2397555D01*
X5186611Y-2397555D02*
X5177087Y-2378508D01*
X5177087Y-2378508D02*
X5158039Y-2349936D01*
X5158039Y-2349936D02*
X5148515Y-2340412D01*
D12*
X-7500Y-2741500D02*
G75*
G03*
X-37500Y-2741500I-15000J0D01*
G01*
X-37500Y-2741500D02*
G75*
G03*
X-7500Y-2741500I15000J0D01*
G01*
D11*
X291372Y-2632984D02*
X310420Y-2632984D01*
X310420Y-2632984D02*
X329467Y-2642508D01*
X329467Y-2642508D02*
X338991Y-2652031D01*
X338991Y-2652031D02*
X348515Y-2671079D01*
X348515Y-2671079D02*
X358039Y-2709174D01*
X358039Y-2709174D02*
X358039Y-2756793D01*
X358039Y-2756793D02*
X348515Y-2794889D01*
X348515Y-2794889D02*
X338991Y-2813936D01*
X338991Y-2813936D02*
X329467Y-2823460D01*
X329467Y-2823460D02*
X310420Y-2832984D01*
X310420Y-2832984D02*
X291372Y-2832984D01*
X291372Y-2832984D02*
X272324Y-2823460D01*
X272324Y-2823460D02*
X262801Y-2813936D01*
X262801Y-2813936D02*
X253277Y-2794889D01*
X253277Y-2794889D02*
X243753Y-2756793D01*
X243753Y-2756793D02*
X243753Y-2709174D01*
X243753Y-2709174D02*
X253277Y-2671079D01*
X253277Y-2671079D02*
X262801Y-2652031D01*
X262801Y-2652031D02*
X272324Y-2642508D01*
X272324Y-2642508D02*
X291372Y-2632984D01*
X443753Y-2813936D02*
X453277Y-2823460D01*
X453277Y-2823460D02*
X443753Y-2832984D01*
X443753Y-2832984D02*
X434229Y-2823460D01*
X434229Y-2823460D02*
X443753Y-2813936D01*
X443753Y-2813936D02*
X443753Y-2832984D01*
X519943Y-2632984D02*
X643753Y-2632984D01*
X643753Y-2632984D02*
X577086Y-2709174D01*
X577086Y-2709174D02*
X605658Y-2709174D01*
X605658Y-2709174D02*
X624705Y-2718698D01*
X624705Y-2718698D02*
X634229Y-2728222D01*
X634229Y-2728222D02*
X643753Y-2747270D01*
X643753Y-2747270D02*
X643753Y-2794889D01*
X643753Y-2794889D02*
X634229Y-2813936D01*
X634229Y-2813936D02*
X624705Y-2823460D01*
X624705Y-2823460D02*
X605658Y-2832984D01*
X605658Y-2832984D02*
X548515Y-2832984D01*
X548515Y-2832984D02*
X529467Y-2823460D01*
X529467Y-2823460D02*
X519943Y-2813936D01*
X767562Y-2632984D02*
X786610Y-2632984D01*
X786610Y-2632984D02*
X805658Y-2642508D01*
X805658Y-2642508D02*
X815182Y-2652031D01*
X815182Y-2652031D02*
X824705Y-2671079D01*
X824705Y-2671079D02*
X834229Y-2709174D01*
X834229Y-2709174D02*
X834229Y-2756793D01*
X834229Y-2756793D02*
X824705Y-2794889D01*
X824705Y-2794889D02*
X815182Y-2813936D01*
X815182Y-2813936D02*
X805658Y-2823460D01*
X805658Y-2823460D02*
X786610Y-2832984D01*
X786610Y-2832984D02*
X767562Y-2832984D01*
X767562Y-2832984D02*
X748515Y-2823460D01*
X748515Y-2823460D02*
X738991Y-2813936D01*
X738991Y-2813936D02*
X729467Y-2794889D01*
X729467Y-2794889D02*
X719943Y-2756793D01*
X719943Y-2756793D02*
X719943Y-2709174D01*
X719943Y-2709174D02*
X729467Y-2671079D01*
X729467Y-2671079D02*
X738991Y-2652031D01*
X738991Y-2652031D02*
X748515Y-2642508D01*
X748515Y-2642508D02*
X767562Y-2632984D01*
X958039Y-2632984D02*
X977086Y-2632984D01*
X977086Y-2632984D02*
X996134Y-2642508D01*
X996134Y-2642508D02*
X1005658Y-2652031D01*
X1005658Y-2652031D02*
X1015182Y-2671079D01*
X1015182Y-2671079D02*
X1024705Y-2709174D01*
X1024705Y-2709174D02*
X1024705Y-2756793D01*
X1024705Y-2756793D02*
X1015182Y-2794889D01*
X1015182Y-2794889D02*
X1005658Y-2813936D01*
X1005658Y-2813936D02*
X996134Y-2823460D01*
X996134Y-2823460D02*
X977086Y-2832984D01*
X977086Y-2832984D02*
X958039Y-2832984D01*
X958039Y-2832984D02*
X938991Y-2823460D01*
X938991Y-2823460D02*
X929467Y-2813936D01*
X929467Y-2813936D02*
X919943Y-2794889D01*
X919943Y-2794889D02*
X910420Y-2756793D01*
X910420Y-2756793D02*
X910420Y-2709174D01*
X910420Y-2709174D02*
X919943Y-2671079D01*
X919943Y-2671079D02*
X929467Y-2652031D01*
X929467Y-2652031D02*
X938991Y-2642508D01*
X938991Y-2642508D02*
X958039Y-2632984D01*
X1110420Y-2832984D02*
X1110420Y-2699650D01*
X1110420Y-2718698D02*
X1119944Y-2709174D01*
X1119944Y-2709174D02*
X1138991Y-2699650D01*
X1138991Y-2699650D02*
X1167563Y-2699650D01*
X1167563Y-2699650D02*
X1186610Y-2709174D01*
X1186610Y-2709174D02*
X1196134Y-2728222D01*
X1196134Y-2728222D02*
X1196134Y-2832984D01*
X1196134Y-2728222D02*
X1205658Y-2709174D01*
X1205658Y-2709174D02*
X1224705Y-2699650D01*
X1224705Y-2699650D02*
X1253277Y-2699650D01*
X1253277Y-2699650D02*
X1272325Y-2709174D01*
X1272325Y-2709174D02*
X1281848Y-2728222D01*
X1281848Y-2728222D02*
X1281848Y-2832984D01*
X1377086Y-2832984D02*
X1377086Y-2699650D01*
X1377086Y-2718698D02*
X1386610Y-2709174D01*
X1386610Y-2709174D02*
X1405658Y-2699650D01*
X1405658Y-2699650D02*
X1434229Y-2699650D01*
X1434229Y-2699650D02*
X1453277Y-2709174D01*
X1453277Y-2709174D02*
X1462801Y-2728222D01*
X1462801Y-2728222D02*
X1462801Y-2832984D01*
X1462801Y-2728222D02*
X1472324Y-2709174D01*
X1472324Y-2709174D02*
X1491372Y-2699650D01*
X1491372Y-2699650D02*
X1519943Y-2699650D01*
X1519943Y-2699650D02*
X1538991Y-2709174D01*
X1538991Y-2709174D02*
X1548515Y-2728222D01*
X1548515Y-2728222D02*
X1548515Y-2832984D01*
X1938991Y-2623460D02*
X1767563Y-2880603D01*
X2196134Y-2632984D02*
X2215182Y-2632984D01*
X2215182Y-2632984D02*
X2234229Y-2642508D01*
X2234229Y-2642508D02*
X2243753Y-2652031D01*
X2243753Y-2652031D02*
X2253277Y-2671079D01*
X2253277Y-2671079D02*
X2262801Y-2709174D01*
X2262801Y-2709174D02*
X2262801Y-2756793D01*
X2262801Y-2756793D02*
X2253277Y-2794889D01*
X2253277Y-2794889D02*
X2243753Y-2813936D01*
X2243753Y-2813936D02*
X2234229Y-2823460D01*
X2234229Y-2823460D02*
X2215182Y-2832984D01*
X2215182Y-2832984D02*
X2196134Y-2832984D01*
X2196134Y-2832984D02*
X2177087Y-2823460D01*
X2177087Y-2823460D02*
X2167563Y-2813936D01*
X2167563Y-2813936D02*
X2158039Y-2794889D01*
X2158039Y-2794889D02*
X2148515Y-2756793D01*
X2148515Y-2756793D02*
X2148515Y-2709174D01*
X2148515Y-2709174D02*
X2158039Y-2671079D01*
X2158039Y-2671079D02*
X2167563Y-2652031D01*
X2167563Y-2652031D02*
X2177087Y-2642508D01*
X2177087Y-2642508D02*
X2196134Y-2632984D01*
X2348515Y-2813936D02*
X2358039Y-2823460D01*
X2358039Y-2823460D02*
X2348515Y-2832984D01*
X2348515Y-2832984D02*
X2338991Y-2823460D01*
X2338991Y-2823460D02*
X2348515Y-2813936D01*
X2348515Y-2813936D02*
X2348515Y-2832984D01*
X2481848Y-2632984D02*
X2500896Y-2632984D01*
X2500896Y-2632984D02*
X2519944Y-2642508D01*
X2519944Y-2642508D02*
X2529468Y-2652031D01*
X2529468Y-2652031D02*
X2538991Y-2671079D01*
X2538991Y-2671079D02*
X2548515Y-2709174D01*
X2548515Y-2709174D02*
X2548515Y-2756793D01*
X2548515Y-2756793D02*
X2538991Y-2794889D01*
X2538991Y-2794889D02*
X2529468Y-2813936D01*
X2529468Y-2813936D02*
X2519944Y-2823460D01*
X2519944Y-2823460D02*
X2500896Y-2832984D01*
X2500896Y-2832984D02*
X2481848Y-2832984D01*
X2481848Y-2832984D02*
X2462801Y-2823460D01*
X2462801Y-2823460D02*
X2453277Y-2813936D01*
X2453277Y-2813936D02*
X2443753Y-2794889D01*
X2443753Y-2794889D02*
X2434229Y-2756793D01*
X2434229Y-2756793D02*
X2434229Y-2709174D01*
X2434229Y-2709174D02*
X2443753Y-2671079D01*
X2443753Y-2671079D02*
X2453277Y-2652031D01*
X2453277Y-2652031D02*
X2462801Y-2642508D01*
X2462801Y-2642508D02*
X2481848Y-2632984D01*
X2738991Y-2832984D02*
X2624706Y-2832984D01*
X2681848Y-2832984D02*
X2681848Y-2632984D01*
X2681848Y-2632984D02*
X2662801Y-2661555D01*
X2662801Y-2661555D02*
X2643753Y-2680603D01*
X2643753Y-2680603D02*
X2624706Y-2690127D01*
X2929467Y-2832984D02*
X2815182Y-2832984D01*
X2872325Y-2832984D02*
X2872325Y-2632984D01*
X2872325Y-2632984D02*
X2853277Y-2661555D01*
X2853277Y-2661555D02*
X2834229Y-2680603D01*
X2834229Y-2680603D02*
X2815182Y-2690127D01*
X3043753Y-2718698D02*
X3024706Y-2709174D01*
X3024706Y-2709174D02*
X3015182Y-2699650D01*
X3015182Y-2699650D02*
X3005658Y-2680603D01*
X3005658Y-2680603D02*
X3005658Y-2671079D01*
X3005658Y-2671079D02*
X3015182Y-2652031D01*
X3015182Y-2652031D02*
X3024706Y-2642508D01*
X3024706Y-2642508D02*
X3043753Y-2632984D01*
X3043753Y-2632984D02*
X3081848Y-2632984D01*
X3081848Y-2632984D02*
X3100896Y-2642508D01*
X3100896Y-2642508D02*
X3110420Y-2652031D01*
X3110420Y-2652031D02*
X3119944Y-2671079D01*
X3119944Y-2671079D02*
X3119944Y-2680603D01*
X3119944Y-2680603D02*
X3110420Y-2699650D01*
X3110420Y-2699650D02*
X3100896Y-2709174D01*
X3100896Y-2709174D02*
X3081848Y-2718698D01*
X3081848Y-2718698D02*
X3043753Y-2718698D01*
X3043753Y-2718698D02*
X3024706Y-2728222D01*
X3024706Y-2728222D02*
X3015182Y-2737746D01*
X3015182Y-2737746D02*
X3005658Y-2756793D01*
X3005658Y-2756793D02*
X3005658Y-2794889D01*
X3005658Y-2794889D02*
X3015182Y-2813936D01*
X3015182Y-2813936D02*
X3024706Y-2823460D01*
X3024706Y-2823460D02*
X3043753Y-2832984D01*
X3043753Y-2832984D02*
X3081848Y-2832984D01*
X3081848Y-2832984D02*
X3100896Y-2823460D01*
X3100896Y-2823460D02*
X3110420Y-2813936D01*
X3110420Y-2813936D02*
X3119944Y-2794889D01*
X3119944Y-2794889D02*
X3119944Y-2756793D01*
X3119944Y-2756793D02*
X3110420Y-2737746D01*
X3110420Y-2737746D02*
X3100896Y-2728222D01*
X3100896Y-2728222D02*
X3081848Y-2718698D01*
X3196134Y-2632984D02*
X3196134Y-2671079D01*
X3272325Y-2632984D02*
X3272325Y-2671079D01*
X3567563Y-2909174D02*
X3558039Y-2899650D01*
X3558039Y-2899650D02*
X3538991Y-2871079D01*
X3538991Y-2871079D02*
X3529468Y-2852031D01*
X3529468Y-2852031D02*
X3519944Y-2823460D01*
X3519944Y-2823460D02*
X3510420Y-2775841D01*
X3510420Y-2775841D02*
X3510420Y-2737746D01*
X3510420Y-2737746D02*
X3519944Y-2690127D01*
X3519944Y-2690127D02*
X3529468Y-2661555D01*
X3529468Y-2661555D02*
X3538991Y-2642508D01*
X3538991Y-2642508D02*
X3558039Y-2613936D01*
X3558039Y-2613936D02*
X3567563Y-2604412D01*
X3653277Y-2832984D02*
X3691372Y-2832984D01*
X3691372Y-2832984D02*
X3710420Y-2823460D01*
X3710420Y-2823460D02*
X3719944Y-2813936D01*
X3719944Y-2813936D02*
X3738991Y-2785365D01*
X3738991Y-2785365D02*
X3748515Y-2747270D01*
X3748515Y-2747270D02*
X3748515Y-2671079D01*
X3748515Y-2671079D02*
X3738991Y-2652031D01*
X3738991Y-2652031D02*
X3729468Y-2642508D01*
X3729468Y-2642508D02*
X3710420Y-2632984D01*
X3710420Y-2632984D02*
X3672325Y-2632984D01*
X3672325Y-2632984D02*
X3653277Y-2642508D01*
X3653277Y-2642508D02*
X3643753Y-2652031D01*
X3643753Y-2652031D02*
X3634229Y-2671079D01*
X3634229Y-2671079D02*
X3634229Y-2718698D01*
X3634229Y-2718698D02*
X3643753Y-2737746D01*
X3643753Y-2737746D02*
X3653277Y-2747270D01*
X3653277Y-2747270D02*
X3672325Y-2756793D01*
X3672325Y-2756793D02*
X3710420Y-2756793D01*
X3710420Y-2756793D02*
X3729468Y-2747270D01*
X3729468Y-2747270D02*
X3738991Y-2737746D01*
X3738991Y-2737746D02*
X3748515Y-2718698D01*
X3986610Y-2832984D02*
X3986610Y-2632984D01*
X4072325Y-2832984D02*
X4072325Y-2728222D01*
X4072325Y-2728222D02*
X4062801Y-2709174D01*
X4062801Y-2709174D02*
X4043753Y-2699650D01*
X4043753Y-2699650D02*
X4015182Y-2699650D01*
X4015182Y-2699650D02*
X3996134Y-2709174D01*
X3996134Y-2709174D02*
X3986610Y-2718698D01*
X4196134Y-2832984D02*
X4177087Y-2823460D01*
X4177087Y-2823460D02*
X4167563Y-2813936D01*
X4167563Y-2813936D02*
X4158039Y-2794889D01*
X4158039Y-2794889D02*
X4158039Y-2737746D01*
X4158039Y-2737746D02*
X4167563Y-2718698D01*
X4167563Y-2718698D02*
X4177087Y-2709174D01*
X4177087Y-2709174D02*
X4196134Y-2699650D01*
X4196134Y-2699650D02*
X4224706Y-2699650D01*
X4224706Y-2699650D02*
X4243753Y-2709174D01*
X4243753Y-2709174D02*
X4253277Y-2718698D01*
X4253277Y-2718698D02*
X4262801Y-2737746D01*
X4262801Y-2737746D02*
X4262801Y-2794889D01*
X4262801Y-2794889D02*
X4253277Y-2813936D01*
X4253277Y-2813936D02*
X4243753Y-2823460D01*
X4243753Y-2823460D02*
X4224706Y-2832984D01*
X4224706Y-2832984D02*
X4196134Y-2832984D01*
X4377087Y-2832984D02*
X4358039Y-2823460D01*
X4358039Y-2823460D02*
X4348515Y-2804412D01*
X4348515Y-2804412D02*
X4348515Y-2632984D01*
X4529468Y-2823460D02*
X4510420Y-2832984D01*
X4510420Y-2832984D02*
X4472325Y-2832984D01*
X4472325Y-2832984D02*
X4453277Y-2823460D01*
X4453277Y-2823460D02*
X4443753Y-2804412D01*
X4443753Y-2804412D02*
X4443753Y-2728222D01*
X4443753Y-2728222D02*
X4453277Y-2709174D01*
X4453277Y-2709174D02*
X4472325Y-2699650D01*
X4472325Y-2699650D02*
X4510420Y-2699650D01*
X4510420Y-2699650D02*
X4529468Y-2709174D01*
X4529468Y-2709174D02*
X4538992Y-2728222D01*
X4538992Y-2728222D02*
X4538992Y-2747270D01*
X4538992Y-2747270D02*
X4443753Y-2766317D01*
X4615182Y-2823460D02*
X4634230Y-2832984D01*
X4634230Y-2832984D02*
X4672325Y-2832984D01*
X4672325Y-2832984D02*
X4691373Y-2823460D01*
X4691373Y-2823460D02*
X4700896Y-2804412D01*
X4700896Y-2804412D02*
X4700896Y-2794889D01*
X4700896Y-2794889D02*
X4691373Y-2775841D01*
X4691373Y-2775841D02*
X4672325Y-2766317D01*
X4672325Y-2766317D02*
X4643753Y-2766317D01*
X4643753Y-2766317D02*
X4624706Y-2756793D01*
X4624706Y-2756793D02*
X4615182Y-2737746D01*
X4615182Y-2737746D02*
X4615182Y-2728222D01*
X4615182Y-2728222D02*
X4624706Y-2709174D01*
X4624706Y-2709174D02*
X4643753Y-2699650D01*
X4643753Y-2699650D02*
X4672325Y-2699650D01*
X4672325Y-2699650D02*
X4691373Y-2709174D01*
X4767563Y-2909174D02*
X4777087Y-2899650D01*
X4777087Y-2899650D02*
X4796134Y-2871079D01*
X4796134Y-2871079D02*
X4805658Y-2852031D01*
X4805658Y-2852031D02*
X4815182Y-2823460D01*
X4815182Y-2823460D02*
X4824706Y-2775841D01*
X4824706Y-2775841D02*
X4824706Y-2737746D01*
X4824706Y-2737746D02*
X4815182Y-2690127D01*
X4815182Y-2690127D02*
X4805658Y-2661555D01*
X4805658Y-2661555D02*
X4796134Y-2642508D01*
X4796134Y-2642508D02*
X4777087Y-2613936D01*
X4777087Y-2613936D02*
X4767563Y-2604412D01*
D12*
X-40000Y-2973000D02*
X-40000Y-3038000D01*
X-72500Y-3005500D02*
X-7500Y-3005500D01*
D11*
X291372Y-2896984D02*
X310420Y-2896984D01*
X310420Y-2896984D02*
X329467Y-2906508D01*
X329467Y-2906508D02*
X338991Y-2916031D01*
X338991Y-2916031D02*
X348515Y-2935079D01*
X348515Y-2935079D02*
X358039Y-2973174D01*
X358039Y-2973174D02*
X358039Y-3020793D01*
X358039Y-3020793D02*
X348515Y-3058888D01*
X348515Y-3058888D02*
X338991Y-3077936D01*
X338991Y-3077936D02*
X329467Y-3087460D01*
X329467Y-3087460D02*
X310420Y-3096984D01*
X310420Y-3096984D02*
X291372Y-3096984D01*
X291372Y-3096984D02*
X272324Y-3087460D01*
X272324Y-3087460D02*
X262801Y-3077936D01*
X262801Y-3077936D02*
X253277Y-3058888D01*
X253277Y-3058888D02*
X243753Y-3020793D01*
X243753Y-3020793D02*
X243753Y-2973174D01*
X243753Y-2973174D02*
X253277Y-2935079D01*
X253277Y-2935079D02*
X262801Y-2916031D01*
X262801Y-2916031D02*
X272324Y-2906508D01*
X272324Y-2906508D02*
X291372Y-2896984D01*
X443753Y-3077936D02*
X453277Y-3087460D01*
X453277Y-3087460D02*
X443753Y-3096984D01*
X443753Y-3096984D02*
X434229Y-3087460D01*
X434229Y-3087460D02*
X443753Y-3077936D01*
X443753Y-3077936D02*
X443753Y-3096984D01*
X624705Y-2896984D02*
X586610Y-2896984D01*
X586610Y-2896984D02*
X567563Y-2906508D01*
X567563Y-2906508D02*
X558039Y-2916031D01*
X558039Y-2916031D02*
X538991Y-2944603D01*
X538991Y-2944603D02*
X529467Y-2982698D01*
X529467Y-2982698D02*
X529467Y-3058888D01*
X529467Y-3058888D02*
X538991Y-3077936D01*
X538991Y-3077936D02*
X548515Y-3087460D01*
X548515Y-3087460D02*
X567563Y-3096984D01*
X567563Y-3096984D02*
X605658Y-3096984D01*
X605658Y-3096984D02*
X624705Y-3087460D01*
X624705Y-3087460D02*
X634229Y-3077936D01*
X634229Y-3077936D02*
X643753Y-3058888D01*
X643753Y-3058888D02*
X643753Y-3011269D01*
X643753Y-3011269D02*
X634229Y-2992222D01*
X634229Y-2992222D02*
X624705Y-2982698D01*
X624705Y-2982698D02*
X605658Y-2973174D01*
X605658Y-2973174D02*
X567563Y-2973174D01*
X567563Y-2973174D02*
X548515Y-2982698D01*
X548515Y-2982698D02*
X538991Y-2992222D01*
X538991Y-2992222D02*
X529467Y-3011269D01*
X824705Y-2896984D02*
X729467Y-2896984D01*
X729467Y-2896984D02*
X719943Y-2992222D01*
X719943Y-2992222D02*
X729467Y-2982698D01*
X729467Y-2982698D02*
X748515Y-2973174D01*
X748515Y-2973174D02*
X796134Y-2973174D01*
X796134Y-2973174D02*
X815182Y-2982698D01*
X815182Y-2982698D02*
X824705Y-2992222D01*
X824705Y-2992222D02*
X834229Y-3011269D01*
X834229Y-3011269D02*
X834229Y-3058888D01*
X834229Y-3058888D02*
X824705Y-3077936D01*
X824705Y-3077936D02*
X815182Y-3087460D01*
X815182Y-3087460D02*
X796134Y-3096984D01*
X796134Y-3096984D02*
X748515Y-3096984D01*
X748515Y-3096984D02*
X729467Y-3087460D01*
X729467Y-3087460D02*
X719943Y-3077936D01*
X958039Y-2896984D02*
X977086Y-2896984D01*
X977086Y-2896984D02*
X996134Y-2906508D01*
X996134Y-2906508D02*
X1005658Y-2916031D01*
X1005658Y-2916031D02*
X1015182Y-2935079D01*
X1015182Y-2935079D02*
X1024705Y-2973174D01*
X1024705Y-2973174D02*
X1024705Y-3020793D01*
X1024705Y-3020793D02*
X1015182Y-3058888D01*
X1015182Y-3058888D02*
X1005658Y-3077936D01*
X1005658Y-3077936D02*
X996134Y-3087460D01*
X996134Y-3087460D02*
X977086Y-3096984D01*
X977086Y-3096984D02*
X958039Y-3096984D01*
X958039Y-3096984D02*
X938991Y-3087460D01*
X938991Y-3087460D02*
X929467Y-3077936D01*
X929467Y-3077936D02*
X919943Y-3058888D01*
X919943Y-3058888D02*
X910420Y-3020793D01*
X910420Y-3020793D02*
X910420Y-2973174D01*
X910420Y-2973174D02*
X919943Y-2935079D01*
X919943Y-2935079D02*
X929467Y-2916031D01*
X929467Y-2916031D02*
X938991Y-2906508D01*
X938991Y-2906508D02*
X958039Y-2896984D01*
X1110420Y-3096984D02*
X1110420Y-2963650D01*
X1110420Y-2982698D02*
X1119944Y-2973174D01*
X1119944Y-2973174D02*
X1138991Y-2963650D01*
X1138991Y-2963650D02*
X1167563Y-2963650D01*
X1167563Y-2963650D02*
X1186610Y-2973174D01*
X1186610Y-2973174D02*
X1196134Y-2992222D01*
X1196134Y-2992222D02*
X1196134Y-3096984D01*
X1196134Y-2992222D02*
X1205658Y-2973174D01*
X1205658Y-2973174D02*
X1224705Y-2963650D01*
X1224705Y-2963650D02*
X1253277Y-2963650D01*
X1253277Y-2963650D02*
X1272325Y-2973174D01*
X1272325Y-2973174D02*
X1281848Y-2992222D01*
X1281848Y-2992222D02*
X1281848Y-3096984D01*
X1377086Y-3096984D02*
X1377086Y-2963650D01*
X1377086Y-2982698D02*
X1386610Y-2973174D01*
X1386610Y-2973174D02*
X1405658Y-2963650D01*
X1405658Y-2963650D02*
X1434229Y-2963650D01*
X1434229Y-2963650D02*
X1453277Y-2973174D01*
X1453277Y-2973174D02*
X1462801Y-2992222D01*
X1462801Y-2992222D02*
X1462801Y-3096984D01*
X1462801Y-2992222D02*
X1472324Y-2973174D01*
X1472324Y-2973174D02*
X1491372Y-2963650D01*
X1491372Y-2963650D02*
X1519943Y-2963650D01*
X1519943Y-2963650D02*
X1538991Y-2973174D01*
X1538991Y-2973174D02*
X1548515Y-2992222D01*
X1548515Y-2992222D02*
X1548515Y-3096984D01*
X1938991Y-2887460D02*
X1767563Y-3144603D01*
X2196134Y-2896984D02*
X2215182Y-2896984D01*
X2215182Y-2896984D02*
X2234229Y-2906508D01*
X2234229Y-2906508D02*
X2243753Y-2916031D01*
X2243753Y-2916031D02*
X2253277Y-2935079D01*
X2253277Y-2935079D02*
X2262801Y-2973174D01*
X2262801Y-2973174D02*
X2262801Y-3020793D01*
X2262801Y-3020793D02*
X2253277Y-3058888D01*
X2253277Y-3058888D02*
X2243753Y-3077936D01*
X2243753Y-3077936D02*
X2234229Y-3087460D01*
X2234229Y-3087460D02*
X2215182Y-3096984D01*
X2215182Y-3096984D02*
X2196134Y-3096984D01*
X2196134Y-3096984D02*
X2177087Y-3087460D01*
X2177087Y-3087460D02*
X2167563Y-3077936D01*
X2167563Y-3077936D02*
X2158039Y-3058888D01*
X2158039Y-3058888D02*
X2148515Y-3020793D01*
X2148515Y-3020793D02*
X2148515Y-2973174D01*
X2148515Y-2973174D02*
X2158039Y-2935079D01*
X2158039Y-2935079D02*
X2167563Y-2916031D01*
X2167563Y-2916031D02*
X2177087Y-2906508D01*
X2177087Y-2906508D02*
X2196134Y-2896984D01*
X2348515Y-3077936D02*
X2358039Y-3087460D01*
X2358039Y-3087460D02*
X2348515Y-3096984D01*
X2348515Y-3096984D02*
X2338991Y-3087460D01*
X2338991Y-3087460D02*
X2348515Y-3077936D01*
X2348515Y-3077936D02*
X2348515Y-3096984D01*
X2481848Y-2896984D02*
X2500896Y-2896984D01*
X2500896Y-2896984D02*
X2519944Y-2906508D01*
X2519944Y-2906508D02*
X2529468Y-2916031D01*
X2529468Y-2916031D02*
X2538991Y-2935079D01*
X2538991Y-2935079D02*
X2548515Y-2973174D01*
X2548515Y-2973174D02*
X2548515Y-3020793D01*
X2548515Y-3020793D02*
X2538991Y-3058888D01*
X2538991Y-3058888D02*
X2529468Y-3077936D01*
X2529468Y-3077936D02*
X2519944Y-3087460D01*
X2519944Y-3087460D02*
X2500896Y-3096984D01*
X2500896Y-3096984D02*
X2481848Y-3096984D01*
X2481848Y-3096984D02*
X2462801Y-3087460D01*
X2462801Y-3087460D02*
X2453277Y-3077936D01*
X2453277Y-3077936D02*
X2443753Y-3058888D01*
X2443753Y-3058888D02*
X2434229Y-3020793D01*
X2434229Y-3020793D02*
X2434229Y-2973174D01*
X2434229Y-2973174D02*
X2443753Y-2935079D01*
X2443753Y-2935079D02*
X2453277Y-2916031D01*
X2453277Y-2916031D02*
X2462801Y-2906508D01*
X2462801Y-2906508D02*
X2481848Y-2896984D01*
X2624706Y-2916031D02*
X2634229Y-2906508D01*
X2634229Y-2906508D02*
X2653277Y-2896984D01*
X2653277Y-2896984D02*
X2700896Y-2896984D01*
X2700896Y-2896984D02*
X2719944Y-2906508D01*
X2719944Y-2906508D02*
X2729468Y-2916031D01*
X2729468Y-2916031D02*
X2738991Y-2935079D01*
X2738991Y-2935079D02*
X2738991Y-2954127D01*
X2738991Y-2954127D02*
X2729468Y-2982698D01*
X2729468Y-2982698D02*
X2615182Y-3096984D01*
X2615182Y-3096984D02*
X2738991Y-3096984D01*
X2919944Y-2896984D02*
X2824706Y-2896984D01*
X2824706Y-2896984D02*
X2815182Y-2992222D01*
X2815182Y-2992222D02*
X2824706Y-2982698D01*
X2824706Y-2982698D02*
X2843753Y-2973174D01*
X2843753Y-2973174D02*
X2891372Y-2973174D01*
X2891372Y-2973174D02*
X2910420Y-2982698D01*
X2910420Y-2982698D02*
X2919944Y-2992222D01*
X2919944Y-2992222D02*
X2929467Y-3011269D01*
X2929467Y-3011269D02*
X2929467Y-3058888D01*
X2929467Y-3058888D02*
X2919944Y-3077936D01*
X2919944Y-3077936D02*
X2910420Y-3087460D01*
X2910420Y-3087460D02*
X2891372Y-3096984D01*
X2891372Y-3096984D02*
X2843753Y-3096984D01*
X2843753Y-3096984D02*
X2824706Y-3087460D01*
X2824706Y-3087460D02*
X2815182Y-3077936D01*
X3100896Y-2896984D02*
X3062801Y-2896984D01*
X3062801Y-2896984D02*
X3043753Y-2906508D01*
X3043753Y-2906508D02*
X3034229Y-2916031D01*
X3034229Y-2916031D02*
X3015182Y-2944603D01*
X3015182Y-2944603D02*
X3005658Y-2982698D01*
X3005658Y-2982698D02*
X3005658Y-3058888D01*
X3005658Y-3058888D02*
X3015182Y-3077936D01*
X3015182Y-3077936D02*
X3024706Y-3087460D01*
X3024706Y-3087460D02*
X3043753Y-3096984D01*
X3043753Y-3096984D02*
X3081848Y-3096984D01*
X3081848Y-3096984D02*
X3100896Y-3087460D01*
X3100896Y-3087460D02*
X3110420Y-3077936D01*
X3110420Y-3077936D02*
X3119944Y-3058888D01*
X3119944Y-3058888D02*
X3119944Y-3011269D01*
X3119944Y-3011269D02*
X3110420Y-2992222D01*
X3110420Y-2992222D02*
X3100896Y-2982698D01*
X3100896Y-2982698D02*
X3081848Y-2973174D01*
X3081848Y-2973174D02*
X3043753Y-2973174D01*
X3043753Y-2973174D02*
X3024706Y-2982698D01*
X3024706Y-2982698D02*
X3015182Y-2992222D01*
X3015182Y-2992222D02*
X3005658Y-3011269D01*
X3196134Y-2896984D02*
X3196134Y-2935079D01*
X3272325Y-2896984D02*
X3272325Y-2935079D01*
X3567563Y-3173174D02*
X3558039Y-3163650D01*
X3558039Y-3163650D02*
X3538991Y-3135079D01*
X3538991Y-3135079D02*
X3529468Y-3116031D01*
X3529468Y-3116031D02*
X3519944Y-3087460D01*
X3519944Y-3087460D02*
X3510420Y-3039841D01*
X3510420Y-3039841D02*
X3510420Y-3001746D01*
X3510420Y-3001746D02*
X3519944Y-2954127D01*
X3519944Y-2954127D02*
X3529468Y-2925555D01*
X3529468Y-2925555D02*
X3538991Y-2906508D01*
X3538991Y-2906508D02*
X3558039Y-2877936D01*
X3558039Y-2877936D02*
X3567563Y-2868412D01*
X3729468Y-2896984D02*
X3691372Y-2896984D01*
X3691372Y-2896984D02*
X3672325Y-2906508D01*
X3672325Y-2906508D02*
X3662801Y-2916031D01*
X3662801Y-2916031D02*
X3643753Y-2944603D01*
X3643753Y-2944603D02*
X3634229Y-2982698D01*
X3634229Y-2982698D02*
X3634229Y-3058888D01*
X3634229Y-3058888D02*
X3643753Y-3077936D01*
X3643753Y-3077936D02*
X3653277Y-3087460D01*
X3653277Y-3087460D02*
X3672325Y-3096984D01*
X3672325Y-3096984D02*
X3710420Y-3096984D01*
X3710420Y-3096984D02*
X3729468Y-3087460D01*
X3729468Y-3087460D02*
X3738991Y-3077936D01*
X3738991Y-3077936D02*
X3748515Y-3058888D01*
X3748515Y-3058888D02*
X3748515Y-3011269D01*
X3748515Y-3011269D02*
X3738991Y-2992222D01*
X3738991Y-2992222D02*
X3729468Y-2982698D01*
X3729468Y-2982698D02*
X3710420Y-2973174D01*
X3710420Y-2973174D02*
X3672325Y-2973174D01*
X3672325Y-2973174D02*
X3653277Y-2982698D01*
X3653277Y-2982698D02*
X3643753Y-2992222D01*
X3643753Y-2992222D02*
X3634229Y-3011269D01*
X3986610Y-3096984D02*
X3986610Y-2896984D01*
X4072325Y-3096984D02*
X4072325Y-2992222D01*
X4072325Y-2992222D02*
X4062801Y-2973174D01*
X4062801Y-2973174D02*
X4043753Y-2963650D01*
X4043753Y-2963650D02*
X4015182Y-2963650D01*
X4015182Y-2963650D02*
X3996134Y-2973174D01*
X3996134Y-2973174D02*
X3986610Y-2982698D01*
X4196134Y-3096984D02*
X4177087Y-3087460D01*
X4177087Y-3087460D02*
X4167563Y-3077936D01*
X4167563Y-3077936D02*
X4158039Y-3058888D01*
X4158039Y-3058888D02*
X4158039Y-3001746D01*
X4158039Y-3001746D02*
X4167563Y-2982698D01*
X4167563Y-2982698D02*
X4177087Y-2973174D01*
X4177087Y-2973174D02*
X4196134Y-2963650D01*
X4196134Y-2963650D02*
X4224706Y-2963650D01*
X4224706Y-2963650D02*
X4243753Y-2973174D01*
X4243753Y-2973174D02*
X4253277Y-2982698D01*
X4253277Y-2982698D02*
X4262801Y-3001746D01*
X4262801Y-3001746D02*
X4262801Y-3058888D01*
X4262801Y-3058888D02*
X4253277Y-3077936D01*
X4253277Y-3077936D02*
X4243753Y-3087460D01*
X4243753Y-3087460D02*
X4224706Y-3096984D01*
X4224706Y-3096984D02*
X4196134Y-3096984D01*
X4377087Y-3096984D02*
X4358039Y-3087460D01*
X4358039Y-3087460D02*
X4348515Y-3068412D01*
X4348515Y-3068412D02*
X4348515Y-2896984D01*
X4529468Y-3087460D02*
X4510420Y-3096984D01*
X4510420Y-3096984D02*
X4472325Y-3096984D01*
X4472325Y-3096984D02*
X4453277Y-3087460D01*
X4453277Y-3087460D02*
X4443753Y-3068412D01*
X4443753Y-3068412D02*
X4443753Y-2992222D01*
X4443753Y-2992222D02*
X4453277Y-2973174D01*
X4453277Y-2973174D02*
X4472325Y-2963650D01*
X4472325Y-2963650D02*
X4510420Y-2963650D01*
X4510420Y-2963650D02*
X4529468Y-2973174D01*
X4529468Y-2973174D02*
X4538992Y-2992222D01*
X4538992Y-2992222D02*
X4538992Y-3011269D01*
X4538992Y-3011269D02*
X4443753Y-3030317D01*
X4615182Y-3087460D02*
X4634230Y-3096984D01*
X4634230Y-3096984D02*
X4672325Y-3096984D01*
X4672325Y-3096984D02*
X4691373Y-3087460D01*
X4691373Y-3087460D02*
X4700896Y-3068412D01*
X4700896Y-3068412D02*
X4700896Y-3058888D01*
X4700896Y-3058888D02*
X4691373Y-3039841D01*
X4691373Y-3039841D02*
X4672325Y-3030317D01*
X4672325Y-3030317D02*
X4643753Y-3030317D01*
X4643753Y-3030317D02*
X4624706Y-3020793D01*
X4624706Y-3020793D02*
X4615182Y-3001746D01*
X4615182Y-3001746D02*
X4615182Y-2992222D01*
X4615182Y-2992222D02*
X4624706Y-2973174D01*
X4624706Y-2973174D02*
X4643753Y-2963650D01*
X4643753Y-2963650D02*
X4672325Y-2963650D01*
X4672325Y-2963650D02*
X4691373Y-2973174D01*
X4767563Y-3173174D02*
X4777087Y-3163650D01*
X4777087Y-3163650D02*
X4796134Y-3135079D01*
X4796134Y-3135079D02*
X4805658Y-3116031D01*
X4805658Y-3116031D02*
X4815182Y-3087460D01*
X4815182Y-3087460D02*
X4824706Y-3039841D01*
X4824706Y-3039841D02*
X4824706Y-3001746D01*
X4824706Y-3001746D02*
X4815182Y-2954127D01*
X4815182Y-2954127D02*
X4805658Y-2925555D01*
X4805658Y-2925555D02*
X4796134Y-2906508D01*
X4796134Y-2906508D02*
X4777087Y-2877936D01*
X4777087Y-2877936D02*
X4767563Y-2868412D01*
M02*
